<?xml version="1.0" encoding="utf-8"?>
<COLLADA xmlns="http://www.collada.org/2005/11/COLLADASchema" version="1.4.1">
  <asset>
    <contributor>
      <author>Will</author>
      <authoring_tool>OpenCOLLADA for 3ds Max;  Version: 1.3.0;  Revision: 788M;  Platform: Win32;  Configuration: Release_Max2011_static</authoring_tool>
      <source_data>file:///C:/Users/Will/Documents/3dsMax/scenes/Levels/FinalLevelRooms/DeadEndRoom01.max</source_data>
    </contributor>
    <created>2011-06-02T21:15:30</created>
    <modified>2011-06-02T21:15:30</modified>
    <unit name="inch" meter="0.0254"/>
    <up_axis>Z_UP</up_axis>
  </asset>
  <library_effects>
    <effect id="ColorEffectR229G166B215">
      <profile_COMMON>
        <technique sid="common">
          <phong>
            <ambient>
              <color>0.8980392 0.6509804 0.8431373 1</color>
            </ambient>
            <diffuse>
              <color>0.8980392 0.6509804 0.8431373 1</color>
            </diffuse>
            <specular>
              <color>1 1 1 1</color>
            </specular>
            <shininess>
              <float>10</float>
            </shininess>
            <reflective>
              <color>0 0 0 1</color>
            </reflective>
            <transparent>
              <color>1 1 1 1</color>
            </transparent>
            <transparency>
              <float>1</float>
            </transparency>
          </phong>
        </technique>
      </profile_COMMON>
    </effect>
    <effect id="ColorEffectR228G214B153">
      <profile_COMMON>
        <technique sid="common">
          <phong>
            <ambient>
              <color>0.8941176 0.8392157 0.6 1</color>
            </ambient>
            <diffuse>
              <color>0.8941176 0.8392157 0.6 1</color>
            </diffuse>
            <specular>
              <color>1 1 1 1</color>
            </specular>
            <shininess>
              <float>10</float>
            </shininess>
            <reflective>
              <color>0 0 0 1</color>
            </reflective>
            <transparent>
              <color>1 1 1 1</color>
            </transparent>
            <transparency>
              <float>1</float>
            </transparency>
          </phong>
        </technique>
      </profile_COMMON>
    </effect>
    <effect id="ColorEffectR228G153B184">
      <profile_COMMON>
        <technique sid="common">
          <phong>
            <ambient>
              <color>0.8941176 0.6 0.7215686 1</color>
            </ambient>
            <diffuse>
              <color>0.8941176 0.6 0.7215686 1</color>
            </diffuse>
            <specular>
              <color>1 1 1 1</color>
            </specular>
            <shininess>
              <float>10</float>
            </shininess>
            <reflective>
              <color>0 0 0 1</color>
            </reflective>
            <transparent>
              <color>1 1 1 1</color>
            </transparent>
            <transparency>
              <float>1</float>
            </transparency>
          </phong>
        </technique>
      </profile_COMMON>
    </effect>
  </library_effects>
  <library_materials>
    <material id="ColorEffectR229G166B215-material" name="ColorEffectR229G166B215-material">
      <instance_effect url="#ColorEffectR229G166B215"/>
    </material>
    <material id="ColorEffectR228G214B153-material" name="ColorEffectR228G214B153-material">
      <instance_effect url="#ColorEffectR228G214B153"/>
    </material>
    <material id="ColorEffectR228G153B184-material" name="ColorEffectR228G153B184-material">
      <instance_effect url="#ColorEffectR228G153B184"/>
    </material>
  </library_materials>
  <library_geometries>
    <geometry id="geom-Plane001" name="Plane001">
      <mesh>
        <source id="geom-Plane001-positions">
          <float_array id="geom-Plane001-positions-array" count="12">-7.5 -10 0 7.5 -10 0 -7.5 10 0 7.5 10 0</float_array>
          <technique_common>
            <accessor source="#geom-Plane001-positions-array" count="4" stride="3">
              <param name="X" type="float"/>
              <param name="Y" type="float"/>
              <param name="Z" type="float"/>
            </accessor>
          </technique_common>
        </source>
        <source id="geom-Plane001-normals">
          <float_array id="geom-Plane001-normals-array" count="12">0 0 1 0 0 0.9999999 0 0 0.9999999 0 0 1</float_array>
          <technique_common>
            <accessor source="#geom-Plane001-normals-array" count="4" stride="3">
              <param name="X" type="float"/>
              <param name="Y" type="float"/>
              <param name="Z" type="float"/>
            </accessor>
          </technique_common>
        </source>
        <source id="geom-Plane001-map1">
          <float_array id="geom-Plane001-map1-array" count="24">0 0 0 1 0 0 0 0 0 1 0 0 0 0 0 1 0 0 0 1 0 1 1 0</float_array>
          <technique_common>
            <accessor source="#geom-Plane001-map1-array" count="8" stride="3">
              <param name="S" type="float"/>
              <param name="T" type="float"/>
              <param name="P" type="float"/>
            </accessor>
          </technique_common>
        </source>
        <vertices id="geom-Plane001-vertices">
          <input semantic="POSITION" source="#geom-Plane001-positions"/>
        </vertices>
        <triangles material="ColorMaterial" count="2">
          <input semantic="VERTEX" source="#geom-Plane001-vertices" offset="0"/>
          <input semantic="NORMAL" source="#geom-Plane001-normals" offset="1"/>
          <input semantic="TEXCOORD" source="#geom-Plane001-map1" offset="2" set="0"/>
          <p>2 0 6 0 1 4 3 2 7 1 3 5 3 2 7 0 1 4</p>
        </triangles>
      </mesh>
      <extra>
        <technique profile="OpenCOLLADA3dsMax">
          <max_plane>
            <density>1</density>
            <generateuvs>1</generateuvs>
            <lenght>20</lenght>
            <lenghtsegments>1</lenghtsegments>
            <scale>1</scale>
            <width>15</width>
            <widthsegments>1</widthsegments>
          </max_plane>
        </technique>
      </extra>
    </geometry>
    <geometry id="geom-Plane002" name="Plane002">
      <mesh>
        <source id="geom-Plane002-positions">
          <float_array id="geom-Plane002-positions-array" count="12">-3.75 -10 0 3.75 -10 0 -3.75 10 0 3.75 10 0</float_array>
          <technique_common>
            <accessor source="#geom-Plane002-positions-array" count="4" stride="3">
              <param name="X" type="float"/>
              <param name="Y" type="float"/>
              <param name="Z" type="float"/>
            </accessor>
          </technique_common>
        </source>
        <source id="geom-Plane002-normals">
          <float_array id="geom-Plane002-normals-array" count="12">0 0 1 0 0 0.9999999 0 0 0.9999999 0 0 1</float_array>
          <technique_common>
            <accessor source="#geom-Plane002-normals-array" count="4" stride="3">
              <param name="X" type="float"/>
              <param name="Y" type="float"/>
              <param name="Z" type="float"/>
            </accessor>
          </technique_common>
        </source>
        <source id="geom-Plane002-map1">
          <float_array id="geom-Plane002-map1-array" count="24">0 0 0 1 0 0 0 0 0 1 0 0 0 0 0 1 0 0 0 1 0 1 1 0</float_array>
          <technique_common>
            <accessor source="#geom-Plane002-map1-array" count="8" stride="3">
              <param name="S" type="float"/>
              <param name="T" type="float"/>
              <param name="P" type="float"/>
            </accessor>
          </technique_common>
        </source>
        <vertices id="geom-Plane002-vertices">
          <input semantic="POSITION" source="#geom-Plane002-positions"/>
        </vertices>
        <triangles material="ColorMaterial" count="2">
          <input semantic="VERTEX" source="#geom-Plane002-vertices" offset="0"/>
          <input semantic="NORMAL" source="#geom-Plane002-normals" offset="1"/>
          <input semantic="TEXCOORD" source="#geom-Plane002-map1" offset="2" set="0"/>
          <p>2 0 6 0 1 4 3 2 7 1 3 5 3 2 7 0 1 4</p>
        </triangles>
      </mesh>
      <extra>
        <technique profile="OpenCOLLADA3dsMax">
          <max_plane>
            <density>1</density>
            <generateuvs>1</generateuvs>
            <lenght>20</lenght>
            <lenghtsegments>1</lenghtsegments>
            <scale>1</scale>
            <width>7.5</width>
            <widthsegments>1</widthsegments>
          </max_plane>
        </technique>
      </extra>
    </geometry>
    <geometry id="geom-Plane003" name="Plane003">
      <mesh>
        <source id="geom-Plane003-positions">
          <float_array id="geom-Plane003-positions-array" count="12">-3.75 -10 0 3.75 -10 0 -3.75 10 0 3.75 10 0</float_array>
          <technique_common>
            <accessor source="#geom-Plane003-positions-array" count="4" stride="3">
              <param name="X" type="float"/>
              <param name="Y" type="float"/>
              <param name="Z" type="float"/>
            </accessor>
          </technique_common>
        </source>
        <source id="geom-Plane003-normals">
          <float_array id="geom-Plane003-normals-array" count="12">0 0 1 0 0 0.9999999 0 0 0.9999999 0 0 1</float_array>
          <technique_common>
            <accessor source="#geom-Plane003-normals-array" count="4" stride="3">
              <param name="X" type="float"/>
              <param name="Y" type="float"/>
              <param name="Z" type="float"/>
            </accessor>
          </technique_common>
        </source>
        <source id="geom-Plane003-map1">
          <float_array id="geom-Plane003-map1-array" count="24">0 0 0 1 0 0 0 0 0 1 0 0 0 0 0 1 0 0 0 1 0 1 1 0</float_array>
          <technique_common>
            <accessor source="#geom-Plane003-map1-array" count="8" stride="3">
              <param name="S" type="float"/>
              <param name="T" type="float"/>
              <param name="P" type="float"/>
            </accessor>
          </technique_common>
        </source>
        <vertices id="geom-Plane003-vertices">
          <input semantic="POSITION" source="#geom-Plane003-positions"/>
        </vertices>
        <triangles material="ColorMaterial" count="2">
          <input semantic="VERTEX" source="#geom-Plane003-vertices" offset="0"/>
          <input semantic="NORMAL" source="#geom-Plane003-normals" offset="1"/>
          <input semantic="TEXCOORD" source="#geom-Plane003-map1" offset="2" set="0"/>
          <p>2 0 6 0 1 4 3 2 7 1 3 5 3 2 7 0 1 4</p>
        </triangles>
      </mesh>
      <extra>
        <technique profile="OpenCOLLADA3dsMax">
          <max_plane>
            <density>1</density>
            <generateuvs>1</generateuvs>
            <lenght>20</lenght>
            <lenghtsegments>1</lenghtsegments>
            <scale>1</scale>
            <width>7.5</width>
            <widthsegments>1</widthsegments>
          </max_plane>
        </technique>
      </extra>
    </geometry>
    <geometry id="geom-Plane004" name="Plane004">
      <mesh>
        <source id="geom-Plane004-positions">
          <float_array id="geom-Plane004-positions-array" count="12">-7.5 -10 0 7.5 -10 0 -7.5 10 0 7.5 10 0</float_array>
          <technique_common>
            <accessor source="#geom-Plane004-positions-array" count="4" stride="3">
              <param name="X" type="float"/>
              <param name="Y" type="float"/>
              <param name="Z" type="float"/>
            </accessor>
          </technique_common>
        </source>
        <source id="geom-Plane004-normals">
          <float_array id="geom-Plane004-normals-array" count="12">0 0 1 0 0 0.9999999 0 0 0.9999999 0 0 1</float_array>
          <technique_common>
            <accessor source="#geom-Plane004-normals-array" count="4" stride="3">
              <param name="X" type="float"/>
              <param name="Y" type="float"/>
              <param name="Z" type="float"/>
            </accessor>
          </technique_common>
        </source>
        <source id="geom-Plane004-map1">
          <float_array id="geom-Plane004-map1-array" count="24">0 0 0 1 0 0 0 0 0 1 0 0 0 0 0 1 0 0 0 1 0 1 1 0</float_array>
          <technique_common>
            <accessor source="#geom-Plane004-map1-array" count="8" stride="3">
              <param name="S" type="float"/>
              <param name="T" type="float"/>
              <param name="P" type="float"/>
            </accessor>
          </technique_common>
        </source>
        <vertices id="geom-Plane004-vertices">
          <input semantic="POSITION" source="#geom-Plane004-positions"/>
        </vertices>
        <triangles material="ColorMaterial" count="2">
          <input semantic="VERTEX" source="#geom-Plane004-vertices" offset="0"/>
          <input semantic="NORMAL" source="#geom-Plane004-normals" offset="1"/>
          <input semantic="TEXCOORD" source="#geom-Plane004-map1" offset="2" set="0"/>
          <p>2 0 6 0 1 4 3 2 7 1 3 5 3 2 7 0 1 4</p>
        </triangles>
      </mesh>
      <extra>
        <technique profile="OpenCOLLADA3dsMax">
          <max_plane>
            <density>1</density>
            <generateuvs>1</generateuvs>
            <lenght>20</lenght>
            <lenghtsegments>1</lenghtsegments>
            <scale>1</scale>
            <width>15</width>
            <widthsegments>1</widthsegments>
          </max_plane>
        </technique>
      </extra>
    </geometry>
    <geometry id="geom-Plane005" name="Plane005">
      <mesh>
        <source id="geom-Plane005-positions">
          <float_array id="geom-Plane005-positions-array" count="24">-3.75 -7.5 0 3.75 -7.5 0 -3.75 7.5 0 3.75 7.5 0 -3.75 2.499999 0 -3.75 -2.500001 0 1.25 2.499999 0 1.25 -2.500001 0</float_array>
          <technique_common>
            <accessor source="#geom-Plane005-positions-array" count="8" stride="3">
              <param name="X" type="float"/>
              <param name="Y" type="float"/>
              <param name="Z" type="float"/>
            </accessor>
          </technique_common>
        </source>
        <source id="geom-Plane005-normals">
          <float_array id="geom-Plane005-normals-array" count="24">0 0 1 0 0 1 0 0 1 0 0 1 0 0 1 0 0 1 0 0 1 0 0 1</float_array>
          <technique_common>
            <accessor source="#geom-Plane005-normals-array" count="8" stride="3">
              <param name="X" type="float"/>
              <param name="Y" type="float"/>
              <param name="Z" type="float"/>
            </accessor>
          </technique_common>
        </source>
        <source id="geom-Plane005-map1">
          <float_array id="geom-Plane005-map1-array" count="24">0 0 0 1 0 0 0 1 0 1 1 0 0 0.6666666 0 0 0.3333333 0 0.6666667 0.6666666 0 0.6666667 0.3333333 0</float_array>
          <technique_common>
            <accessor source="#geom-Plane005-map1-array" count="8" stride="3">
              <param name="S" type="float"/>
              <param name="T" type="float"/>
              <param name="P" type="float"/>
            </accessor>
          </technique_common>
        </source>
        <vertices id="geom-Plane005-vertices">
          <input semantic="POSITION" source="#geom-Plane005-positions"/>
        </vertices>
        <triangles material="ColorMaterial" count="6">
          <input semantic="VERTEX" source="#geom-Plane005-vertices" offset="0"/>
          <input semantic="NORMAL" source="#geom-Plane005-normals" offset="1"/>
          <input semantic="TEXCOORD" source="#geom-Plane005-map1" offset="2" set="0"/>
          <p>5 0 5 0 1 0 1 2 1 7 3 7 5 0 5 1 2 1 3 4 3 2 5 2 4 6 4 3 4 3 4 6 4 6 7 6 1 2 1 3 4 3 6 7 6 7 3 7 1 2 1 6 7 6</p>
        </triangles>
      </mesh>
    </geometry>
    <geometry id="geom-Plane006" name="Plane006">
      <mesh>
        <source id="geom-Plane006-positions">
          <float_array id="geom-Plane006-positions-array" count="12">-3.75 -7.5 0 3.75 -7.5 0 -3.75 7.5 0 3.75 7.5 0</float_array>
          <technique_common>
            <accessor source="#geom-Plane006-positions-array" count="4" stride="3">
              <param name="X" type="float"/>
              <param name="Y" type="float"/>
              <param name="Z" type="float"/>
            </accessor>
          </technique_common>
        </source>
        <source id="geom-Plane006-normals">
          <float_array id="geom-Plane006-normals-array" count="12">0 0 1 0 0 1 0 0 1 0 0 1</float_array>
          <technique_common>
            <accessor source="#geom-Plane006-normals-array" count="4" stride="3">
              <param name="X" type="float"/>
              <param name="Y" type="float"/>
              <param name="Z" type="float"/>
            </accessor>
          </technique_common>
        </source>
        <source id="geom-Plane006-map1">
          <float_array id="geom-Plane006-map1-array" count="24">0 0 0 1 0 0 0 0 0 1 0 0 0 0 0 1 0 0 0 1 0 1 1 0</float_array>
          <technique_common>
            <accessor source="#geom-Plane006-map1-array" count="8" stride="3">
              <param name="S" type="float"/>
              <param name="T" type="float"/>
              <param name="P" type="float"/>
            </accessor>
          </technique_common>
        </source>
        <vertices id="geom-Plane006-vertices">
          <input semantic="POSITION" source="#geom-Plane006-positions"/>
        </vertices>
        <triangles material="ColorMaterial" count="2">
          <input semantic="VERTEX" source="#geom-Plane006-vertices" offset="0"/>
          <input semantic="NORMAL" source="#geom-Plane006-normals" offset="1"/>
          <input semantic="TEXCOORD" source="#geom-Plane006-map1" offset="2" set="0"/>
          <p>2 0 6 0 1 4 3 2 7 1 3 5 3 2 7 0 1 4</p>
        </triangles>
      </mesh>
      <extra>
        <technique profile="OpenCOLLADA3dsMax">
          <max_plane>
            <density>1</density>
            <generateuvs>1</generateuvs>
            <lenght>15</lenght>
            <lenghtsegments>1</lenghtsegments>
            <scale>1</scale>
            <width>7.5</width>
            <widthsegments>1</widthsegments>
          </max_plane>
        </technique>
      </extra>
    </geometry>
    <geometry id="geom-_Portal001" name="_Portal001">
      <mesh>
        <source id="geom-_Portal001-positions">
          <float_array id="geom-_Portal001-positions-array" count="24">-2.5 -0.25 0 2.5 -0.25 0 -2.5 0.25 0 2.5 0.25 0 -2.5 -0.25 5 2.5 -0.25 5 -2.5 0.25 5 2.5 0.25 5</float_array>
          <technique_common>
            <accessor source="#geom-_Portal001-positions-array" count="8" stride="3">
              <param name="X" type="float"/>
              <param name="Y" type="float"/>
              <param name="Z" type="float"/>
            </accessor>
          </technique_common>
        </source>
        <source id="geom-_Portal001-normals">
          <float_array id="geom-_Portal001-normals-array" count="72">0 0 -1 0 0 -1 0 0 -1 0 0 -1 0 0 1 0 0 1 0 0 1 0 0 1 0 -1 0 0 -1 0 0 -1 0 0 -1 0 1 0 0 1 0 0 1 0 0 1 0 0 0 1 0 0 1 0 0 1 0 0 1 0 -1 0 0 -1 0 0 -1 0 0 -1 0 0</float_array>
          <technique_common>
            <accessor source="#geom-_Portal001-normals-array" count="24" stride="3">
              <param name="X" type="float"/>
              <param name="Y" type="float"/>
              <param name="Z" type="float"/>
            </accessor>
          </technique_common>
        </source>
        <source id="geom-_Portal001-map1">
          <float_array id="geom-_Portal001-map1-array" count="36">0 0 0 1 0 0 0 1 0 1 1 0 0 0 0 1 0 0 0 1 0 1 1 0 0 0 0 1 0 0 0 1 0 1 1 0</float_array>
          <technique_common>
            <accessor source="#geom-_Portal001-map1-array" count="12" stride="3">
              <param name="S" type="float"/>
              <param name="T" type="float"/>
              <param name="P" type="float"/>
            </accessor>
          </technique_common>
        </source>
        <vertices id="geom-_Portal001-vertices">
          <input semantic="POSITION" source="#geom-_Portal001-positions"/>
        </vertices>
        <triangles material="ColorMaterial" count="12">
          <input semantic="VERTEX" source="#geom-_Portal001-vertices" offset="0"/>
          <input semantic="NORMAL" source="#geom-_Portal001-normals" offset="1"/>
          <input semantic="TEXCOORD" source="#geom-_Portal001-map1" offset="2" set="0"/>
          <p>0 0 9 2 1 11 3 2 10 3 2 10 1 3 8 0 0 9 4 4 8 5 5 9 7 6 11 7 6 11 6 7 10 4 4 8 0 8 4 1 9 5 5 10 7 5 10 7 4 11 6 0 8 4 1 12 0 3 13 1 7 14 3 7 14 3 5 15 2 1 12 0 3 16 4 2 17 5 6 18 7 6 18 7 7 19 6 3 16 4 2 20 0 0 21 1 4 22 3 4 22 3 6 23 2 2 20 0</p>
        </triangles>
      </mesh>
      <extra>
        <technique profile="OpenCOLLADA3dsMax">
          <max_box>
            <generateuvs>1</generateuvs>
            <height>5</height>
            <heightsegments>1</heightsegments>
            <length>0.5</length>
            <lengthsegments>1</lengthsegments>
            <width>5</width>
            <widthsegments>1</widthsegments>
          </max_box>
        </technique>
      </extra>
    </geometry>
  </library_geometries>
  <library_lights>
    <light id="EnvironmentAmbientLight" name="EnvironmentAmbientLight">
      <technique_common>
        <ambient>
          <color>0 0 0</color>
        </ambient>
      </technique_common>
    </light>
  </library_lights>
  <library_visual_scenes>
    <visual_scene id="MaxScene">
      <node name="EnvironmentAmbientLight">
        <instance_light url="#EnvironmentAmbientLight"/>
      </node>
      <node id="node-Plane001" name="Plane001">
        <matrix>1 0 0 0 0 1 0 -5 0 0 1 12.5 0 0 0 1</matrix>
        <instance_geometry url="#geom-Plane001">
          <bind_material>
            <technique_common>
              <instance_material symbol="ColorMaterial" target="#ColorEffectR229G166B215-material"/>
            </technique_common>
          </bind_material>
        </instance_geometry>
      </node>
      <node id="node-Plane002" name="Plane002">
        <matrix>-4.37114e-8 0 -1 7.5 0 1 0 -5 1 0 -4.37114e-8 16.25 0 0 0 1</matrix>
        <instance_geometry url="#geom-Plane002">
          <bind_material>
            <technique_common>
              <instance_material symbol="ColorMaterial" target="#ColorEffectR228G214B153-material"/>
            </technique_common>
          </bind_material>
        </instance_geometry>
      </node>
      <node id="node-Plane003" name="Plane003">
        <matrix>-4.37114e-8 1.50996e-7 1 -7.5 0 -1 1.50996e-7 -5 1 6.60024e-15 4.37114e-8 16.25 0 0 0 1</matrix>
        <instance_geometry url="#geom-Plane003">
          <bind_material>
            <technique_common>
              <instance_material symbol="ColorMaterial" target="#ColorEffectR228G214B153-material"/>
            </technique_common>
          </bind_material>
        </instance_geometry>
      </node>
      <node id="node-Plane004" name="Plane004">
        <matrix>-1 0 -1.50996e-7 0 0 1 0 -5 1.50996e-7 0 -1 20 0 0 0 1</matrix>
        <instance_geometry url="#geom-Plane004">
          <bind_material>
            <technique_common>
              <instance_material symbol="ColorMaterial" target="#ColorEffectR229G166B215-material"/>
            </technique_common>
          </bind_material>
        </instance_geometry>
      </node>
      <node id="node-Plane005" name="Plane005">
        <matrix>-4.37114e-8 1 4.37114e-8 0 0 -4.37114e-8 1 -15 1 4.37114e-8 1.91069e-15 16.25 0 0 0 1</matrix>
        <instance_geometry url="#geom-Plane005">
          <bind_material>
            <technique_common>
              <instance_material symbol="ColorMaterial" target="#ColorEffectR229G166B215-material"/>
            </technique_common>
          </bind_material>
        </instance_geometry>
      </node>
      <node id="node-Plane006" name="Plane006">
        <matrix>-4.37114e-8 -1 -1.94707e-7 0 0 1.94707e-7 -1 5 1 -4.37114e-8 -8.51092e-15 16.25 0 0 0 1</matrix>
        <instance_geometry url="#geom-Plane006">
          <bind_material>
            <technique_common>
              <instance_material symbol="ColorMaterial" target="#ColorEffectR229G166B215-material"/>
            </technique_common>
          </bind_material>
        </instance_geometry>
      </node>
      <node id="node-_Portal001" name="_Portal001">
        <matrix>-1 -1.50996e-7 0 0 1.50996e-7 -1 0 -15 0 0 1 12.5 0 0 0 1</matrix>
        <instance_geometry url="#geom-_Portal001">
          <bind_material>
            <technique_common>
              <instance_material symbol="ColorMaterial" target="#ColorEffectR228G153B184-material"/>
            </technique_common>
          </bind_material>
        </instance_geometry>
      </node>
    </visual_scene>
  </library_visual_scenes>
  <scene>
    <instance_visual_scene url="#MaxScene"/>
  </scene>
</COLLADA>