<?xml version="1.0" encoding="utf-8"?>
<COLLADA xmlns="http://www.collada.org/2005/11/COLLADASchema" version="1.4.1">
  <asset>
    <contributor>
      <author>Will</author>
      <authoring_tool>OpenCOLLADA for 3ds Max;  Version: 1.3.0;  Revision: 788M;  Platform: Win32;  Configuration: Release_Max2011_static</authoring_tool>
      <source_data>file:///C:/Users/Will/Documents/3dsMax/scenes/Levels/FinalLevelRooms/Halway1aRounded.max</source_data>
    </contributor>
    <created>2011-06-02T20:55:16</created>
    <modified>2011-06-02T20:55:16</modified>
    <unit name="inch" meter="0.0254"/>
    <up_axis>Z_UP</up_axis>
  </asset>
  <library_effects>
    <effect id="ColorEffectR166G229B229">
      <profile_COMMON>
        <technique sid="common">
          <phong>
            <ambient>
              <color>0.6509804 0.8980392 0.8980392 1</color>
            </ambient>
            <diffuse>
              <color>0.6509804 0.8980392 0.8980392 1</color>
            </diffuse>
            <specular>
              <color>1 1 1 1</color>
            </specular>
            <shininess>
              <float>10</float>
            </shininess>
            <reflective>
              <color>0 0 0 1</color>
            </reflective>
            <transparent>
              <color>1 1 1 1</color>
            </transparent>
            <transparency>
              <float>1</float>
            </transparency>
          </phong>
        </technique>
      </profile_COMMON>
    </effect>
    <effect id="ColorEffectR88G177B26">
      <profile_COMMON>
        <technique sid="common">
          <phong>
            <ambient>
              <color>0.345098 0.6941176 0.1019608 1</color>
            </ambient>
            <diffuse>
              <color>0.345098 0.6941176 0.1019608 1</color>
            </diffuse>
            <specular>
              <color>1 1 1 1</color>
            </specular>
            <shininess>
              <float>10</float>
            </shininess>
            <reflective>
              <color>0 0 0 1</color>
            </reflective>
            <transparent>
              <color>1 1 1 1</color>
            </transparent>
            <transparency>
              <float>1</float>
            </transparency>
          </phong>
        </technique>
      </profile_COMMON>
    </effect>
  </library_effects>
  <library_materials>
    <material id="ColorEffectR166G229B229-material" name="ColorEffectR166G229B229-material">
      <instance_effect url="#ColorEffectR166G229B229"/>
    </material>
    <material id="ColorEffectR88G177B26-material" name="ColorEffectR88G177B26-material">
      <instance_effect url="#ColorEffectR88G177B26"/>
    </material>
  </library_materials>
  <library_geometries>
    <geometry id="geom-_Portal002" name="_Portal002">
      <mesh>
        <source id="geom-_Portal002-positions">
          <float_array id="geom-_Portal002-positions-array" count="24">-2.5 -0.25 0 2.5 -0.25 0 -2.5 0.25 0 2.5 0.25 0 -2.5 -0.25 5 2.5 -0.25 5 -2.5 0.25 5 2.5 0.25 5</float_array>
          <technique_common>
            <accessor source="#geom-_Portal002-positions-array" count="8" stride="3">
              <param name="X" type="float"/>
              <param name="Y" type="float"/>
              <param name="Z" type="float"/>
            </accessor>
          </technique_common>
        </source>
        <source id="geom-_Portal002-normals">
          <float_array id="geom-_Portal002-normals-array" count="72">0 0 -1 0 0 -1 0 0 -1 0 0 -1 0 0 1 0 0 1 0 0 1 0 0 1 0 -1 0 0 -1 0 0 -1 0 0 -1 0 1 0 0 1 0 0 1 0 0 1 0 0 0 1 0 0 1 0 0 1 0 0 1 0 -1 0 0 -1 0 0 -1 0 0 -1 0 0</float_array>
          <technique_common>
            <accessor source="#geom-_Portal002-normals-array" count="24" stride="3">
              <param name="X" type="float"/>
              <param name="Y" type="float"/>
              <param name="Z" type="float"/>
            </accessor>
          </technique_common>
        </source>
        <source id="geom-_Portal002-map1">
          <float_array id="geom-_Portal002-map1-array" count="36">0 0 0 1 0 0 0 1 0 1 1 0 0 0 0 1 0 0 0 1 0 1 1 0 0 0 0 1 0 0 0 1 0 1 1 0</float_array>
          <technique_common>
            <accessor source="#geom-_Portal002-map1-array" count="12" stride="3">
              <param name="S" type="float"/>
              <param name="T" type="float"/>
              <param name="P" type="float"/>
            </accessor>
          </technique_common>
        </source>
        <vertices id="geom-_Portal002-vertices">
          <input semantic="POSITION" source="#geom-_Portal002-positions"/>
        </vertices>
        <triangles material="ColorMaterial" count="12">
          <input semantic="VERTEX" source="#geom-_Portal002-vertices" offset="0"/>
          <input semantic="NORMAL" source="#geom-_Portal002-normals" offset="1"/>
          <input semantic="TEXCOORD" source="#geom-_Portal002-map1" offset="2" set="0"/>
          <p>0 0 9 2 1 11 3 2 10 3 2 10 1 3 8 0 0 9 4 4 8 5 5 9 7 6 11 7 6 11 6 7 10 4 4 8 0 8 4 1 9 5 5 10 7 5 10 7 4 11 6 0 8 4 1 12 0 3 13 1 7 14 3 7 14 3 5 15 2 1 12 0 3 16 4 2 17 5 6 18 7 6 18 7 7 19 6 3 16 4 2 20 0 0 21 1 4 22 3 4 22 3 6 23 2 2 20 0</p>
        </triangles>
      </mesh>
      <extra>
        <technique profile="OpenCOLLADA3dsMax">
          <max_box>
            <generateuvs>1</generateuvs>
            <height>5</height>
            <heightsegments>1</heightsegments>
            <length>0.5</length>
            <lengthsegments>1</lengthsegments>
            <width>5</width>
            <widthsegments>1</widthsegments>
          </max_box>
        </technique>
      </extra>
    </geometry>
    <geometry id="geom-_Portal001" name="_Portal001">
      <mesh>
        <source id="geom-_Portal001-positions">
          <float_array id="geom-_Portal001-positions-array" count="24">-2.5 -0.25 0 2.5 -0.25 0 -2.5 0.25 0 2.5 0.25 0 -2.5 -0.25 5 2.5 -0.25 5 -2.5 0.25 5 2.5 0.25 5</float_array>
          <technique_common>
            <accessor source="#geom-_Portal001-positions-array" count="8" stride="3">
              <param name="X" type="float"/>
              <param name="Y" type="float"/>
              <param name="Z" type="float"/>
            </accessor>
          </technique_common>
        </source>
        <source id="geom-_Portal001-normals">
          <float_array id="geom-_Portal001-normals-array" count="72">0 0 -1 0 0 -1 0 0 -1 0 0 -1 0 0 1 0 0 1 0 0 1 0 0 1 0 -1 0 0 -1 0 0 -1 0 0 -1 0 1 0 0 1 0 0 1 0 0 1 0 0 0 1 0 0 1 0 0 1 0 0 1 0 -1 0 0 -1 0 0 -1 0 0 -1 0 0</float_array>
          <technique_common>
            <accessor source="#geom-_Portal001-normals-array" count="24" stride="3">
              <param name="X" type="float"/>
              <param name="Y" type="float"/>
              <param name="Z" type="float"/>
            </accessor>
          </technique_common>
        </source>
        <source id="geom-_Portal001-map1">
          <float_array id="geom-_Portal001-map1-array" count="36">0 0 0 1 0 0 0 1 0 1 1 0 0 0 0 1 0 0 0 1 0 1 1 0 0 0 0 1 0 0 0 1 0 1 1 0</float_array>
          <technique_common>
            <accessor source="#geom-_Portal001-map1-array" count="12" stride="3">
              <param name="S" type="float"/>
              <param name="T" type="float"/>
              <param name="P" type="float"/>
            </accessor>
          </technique_common>
        </source>
        <vertices id="geom-_Portal001-vertices">
          <input semantic="POSITION" source="#geom-_Portal001-positions"/>
        </vertices>
        <triangles material="ColorMaterial" count="12">
          <input semantic="VERTEX" source="#geom-_Portal001-vertices" offset="0"/>
          <input semantic="NORMAL" source="#geom-_Portal001-normals" offset="1"/>
          <input semantic="TEXCOORD" source="#geom-_Portal001-map1" offset="2" set="0"/>
          <p>0 0 9 2 1 11 3 2 10 3 2 10 1 3 8 0 0 9 4 4 8 5 5 9 7 6 11 7 6 11 6 7 10 4 4 8 0 8 4 1 9 5 5 10 7 5 10 7 4 11 6 0 8 4 1 12 0 3 13 1 7 14 3 7 14 3 5 15 2 1 12 0 3 16 4 2 17 5 6 18 7 6 18 7 7 19 6 3 16 4 2 20 0 0 21 1 4 22 3 4 22 3 6 23 2 2 20 0</p>
        </triangles>
      </mesh>
      <extra>
        <technique profile="OpenCOLLADA3dsMax">
          <max_box>
            <generateuvs>1</generateuvs>
            <height>5</height>
            <heightsegments>1</heightsegments>
            <length>0.5</length>
            <lengthsegments>1</lengthsegments>
            <width>5</width>
            <widthsegments>1</widthsegments>
          </max_box>
        </technique>
      </extra>
    </geometry>
    <geometry id="geom-Cylinder001" name="Cylinder001">
      <mesh>
        <source id="geom-Cylinder001-positions">
          <float_array id="geom-Cylinder001-positions-array" count="96">4 0 0 3.464102 2 0 2 3.464102 0 -1.74846e-7 4 0 -2 3.464102 0 -3.464102 2 0 -4 6.03983e-7 0 -3.464102 -1.999999 0 -2.000001 -3.464101 0 -1.85965e-6 -4 0 1.999998 -3.464103 0 3.4641 -2.000002 0 4 0 30 3.464102 2 30 2 3.464102 30 -1.74846e-7 4 30 -2 3.464102 30 -3.464102 2 30 -4 6.03983e-7 30 -3.464102 -1.999999 30 -2.000001 -3.464101 30 -1.85965e-6 -4 30 1.999998 -3.464103 30 3.4641 -2.000002 30 2.5 2.499998 30 -2.5 2.499998 30 -2.5 -2.500002 30 2.5 -2.500002 30 -2.5 2.5 0 2.5 2.5 0 2.5 -2.5 0 -2.5 -2.5 0</float_array>
          <technique_common>
            <accessor source="#geom-Cylinder001-positions-array" count="32" stride="3">
              <param name="X" type="float"/>
              <param name="Y" type="float"/>
              <param name="Z" type="float"/>
            </accessor>
          </technique_common>
        </source>
        <source id="geom-Cylinder001-normals">
          <float_array id="geom-Cylinder001-normals-array" count="168">-0.8660254 -0.4999999 0 -0.8660254 -0.5000001 0 -0.9999999 6.87471e-8 0 -0.9999999 1.66957e-7 0 -0.5 -0.8660254 0 -0.4999999 -0.8660254 0 9.82102e-9 -1 0 1.14169e-7 -1 0 0.5 -0.8660254 0 0.5000001 -0.8660254 0 0.8660254 -0.5000001 0 0.8660254 -0.5000001 0 1 -1.17852e-7 0 1 -1.71254e-7 0 0.8660254 0.4999998 0 0.8660255 0.4999999 0 0.5000002 0.8660252 0 0.5000004 0.8660252 0 4.51767e-7 1 0 5.021e-7 1 0 -0.4999996 0.8660257 0 -0.4999994 0.8660257 0 -0.8660252 0.5000004 0 -0.8660251 0.5000004 0 0 0 -1 0 0 -1 0 0 -1 0 0 -1 0 0 -1 0 0 -1 0 0 -1 0 0 -1 0 0 -1 0 0 -1 0 0 -1 0 0 -1 0 0 -1 0 0 -1 0 0 -1 0 0 -1 0 0 1 0 0 1 0 0 1 0 0 1 0 0 1 0 0 1 0 0 1 0 0 1 0 0 1 0 0 1 0 0 1 0 0 1 0 0 1 0 0 1 0 0 1 0 0 1</float_array>
          <technique_common>
            <accessor source="#geom-Cylinder001-normals-array" count="56" stride="3">
              <param name="X" type="float"/>
              <param name="Y" type="float"/>
              <param name="Z" type="float"/>
            </accessor>
          </technique_common>
        </source>
        <source id="geom-Cylinder001-map1">
          <float_array id="geom-Cylinder001-map1-array" count="153">0.75 0 1 0.8333333 0 1 0.9166667 0 1 3.79455e-8 0 1 0.08333335 0 1 0.1666667 0 1 0.25 0 1 0.3333333 0 1 0.4166666 0 0.9999999 0.4999999 0 1 0.5833333 0 1 0.6666666 0 1 0.75 1 1 0.8333333 1 1 0.9166667 1 1 3.79455e-8 1 1 0.08333335 1 1 0.1666667 1 1 0.25 1 1 0.3333333 1 1 0.4166666 1 0.9999999 0.4999999 1 1 0.5833333 1 1 0.6666666 1 1 -0.08333331 0 1 -0.08333331 1 1 0.8883545 0 0.7320508 0.7559831 0 0.2679491 0.5550213 0 -0.2679491 0.3393165 0 -0.7320507 0.1666668 0 -0.9999999 0.08333337 0 -1 0.1116454 0 -0.7320513 0.2440166 0 -0.2679499 0.8883546 1 0.7320508 0.7559832 1 0.2679493 0.5550213 1 -0.2679491 0.3393165 1 -0.7320509 0.1666667 1 -1 0.08333327 1 -1 0.1116453 1 -0.7320513 0.2440166 1 -0.2679497 0.4449784 1 0.2679488 0.8431486 1 0.9150632 0.6422942 1 -3.22673e-7 0.1568509 1 -0.9150641 0.379605 1 0.06569861 0.6422944 0 6.75646e-9 0.8431488 0 0.9150636 0.514557 0 0.5179498 0.1568512 0 -0.9150635</float_array>
          <technique_common>
            <accessor source="#geom-Cylinder001-map1-array" count="51" stride="3">
              <param name="S" type="float"/>
              <param name="T" type="float"/>
              <param name="P" type="float"/>
            </accessor>
          </technique_common>
        </source>
        <vertices id="geom-Cylinder001-vertices">
          <input semantic="POSITION" source="#geom-Cylinder001-positions"/>
        </vertices>
        <triangles material="ColorMaterial" count="56">
          <input semantic="VERTEX" source="#geom-Cylinder001-vertices" offset="0"/>
          <input semantic="NORMAL" source="#geom-Cylinder001-normals" offset="1"/>
          <input semantic="TEXCOORD" source="#geom-Cylinder001-map1" offset="2" set="0"/>
          <p>13 0 13 1 1 1 0 2 0 0 2 0 12 3 12 13 0 13 14 4 14 2 5 2 1 1 1 1 1 1 13 0 13 14 4 14 15 6 15 3 7 3 2 5 24 2 5 24 14 4 25 15 6 15 16 8 16 4 9 4 3 7 3 3 7 3 15 6 15 16 8 16 17 10 17 5 11 5 4 9 4 4 9 4 16 8 16 17 10 17 18 12 18 6 13 6 5 11 5 5 11 5 17 10 17 18 12 18 19 14 19 7 15 7 6 13 6 6 13 6 18 12 18 19 14 19 20 16 20 8 17 8 7 15 7 7 15 7 19 14 19 20 16 20 21 18 21 9 19 9 8 17 8 8 17 8 20 16 20 21 18 21 22 20 22 10 21 10 9 19 9 9 19 9 21 18 21 22 20 22 23 22 23 11 23 11 10 21 10 10 21 10 22 20 22 23 22 23 12 3 12 0 2 0 11 23 11 11 23 11 23 22 23 12 3 12 24 24 43 14 25 14 13 26 13 27 27 46 24 24 43 13 26 13 27 27 46 13 26 13 12 28 12 27 27 46 12 28 12 23 29 42 24 24 43 25 30 44 16 31 35 24 24 43 16 31 35 15 32 34 24 24 43 15 32 34 14 25 14 25 30 44 26 33 45 19 34 38 25 30 44 19 34 38 18 35 37 25 30 44 18 35 37 17 36 36 25 30 44 17 36 36 16 31 35 26 33 45 27 27 46 22 37 41 26 33 45 22 37 41 21 38 40 26 33 45 21 38 40 20 39 39 26 33 45 20 39 39 19 34 38 7 40 30 8 41 31 31 42 50 27 27 46 23 29 42 22 37 41 28 43 47 29 44 48 2 45 2 28 43 47 2 45 2 3 46 26 28 43 47 3 46 26 4 47 27 28 43 47 4 47 27 5 48 28 31 42 50 28 43 47 5 48 28 31 42 50 5 48 28 6 49 29 31 42 50 6 49 29 7 40 30 29 44 48 30 50 49 11 51 11 29 44 48 11 51 11 0 52 0 29 44 48 0 52 0 1 53 1 29 44 48 1 53 1 2 45 2 30 50 49 10 54 33 11 51 11 30 50 49 31 42 50 8 41 31 30 50 49 8 41 31 9 55 32 30 50 49 9 55 32 10 54 33</p>
        </triangles>
      </mesh>
    </geometry>
  </library_geometries>
  <library_lights>
    <light id="EnvironmentAmbientLight" name="EnvironmentAmbientLight">
      <technique_common>
        <ambient>
          <color>0 0 0</color>
        </ambient>
      </technique_common>
    </light>
  </library_lights>
  <library_visual_scenes>
    <visual_scene id="MaxScene">
      <node name="EnvironmentAmbientLight">
        <instance_light url="#EnvironmentAmbientLight"/>
      </node>
      <node id="node-_Portal002" name="_Portal002">
        <matrix>1 0 0 0 0 1 0 15 0 0 1 12.5 0 0 0 1</matrix>
        <instance_geometry url="#geom-_Portal002">
          <bind_material>
            <technique_common>
              <instance_material symbol="ColorMaterial" target="#ColorEffectR166G229B229-material"/>
            </technique_common>
          </bind_material>
        </instance_geometry>
      </node>
      <node id="node-_Portal001" name="_Portal001">
        <matrix>1 0 0 0 0 1 0 -15 0 0 1 12.5 0 0 0 1</matrix>
        <instance_geometry url="#geom-_Portal001">
          <bind_material>
            <technique_common>
              <instance_material symbol="ColorMaterial" target="#ColorEffectR166G229B229-material"/>
            </technique_common>
          </bind_material>
        </instance_geometry>
      </node>
      <node id="node-Cylinder001" name="Cylinder001">
        <matrix>1 0 0 0 0 -4.37114e-8 1 -15 0 -1 -4.37114e-8 15 0 0 0 1</matrix>
        <instance_geometry url="#geom-Cylinder001">
          <bind_material>
            <technique_common>
              <instance_material symbol="ColorMaterial" target="#ColorEffectR88G177B26-material"/>
            </technique_common>
          </bind_material>
        </instance_geometry>
      </node>
    </visual_scene>
  </library_visual_scenes>
  <scene>
    <instance_visual_scene url="#MaxScene"/>
  </scene>
</COLLADA>