<?xml version="1.0" encoding="utf-8"?>
<COLLADA xmlns="http://www.collada.org/2005/11/COLLADASchema" version="1.4.1">
  <asset>
    <contributor>
      <author>Will</author>
      <authoring_tool>OpenCOLLADA for 3ds Max;  Version: 1.3.0;  Revision: 788M;  Platform: Win32;  Configuration: Release_Max2011_static</authoring_tool>
      <source_data>file:///C:/Users/Will/Documents/3dsMax/scenes/Levels/FinalLevelRooms/SimpleMazeRoom.max</source_data>
    </contributor>
    <created>2011-06-03T06:51:32</created>
    <modified>2011-06-03T06:51:32</modified>
    <unit name="inch" meter="0.0254"/>
    <up_axis>Z_UP</up_axis>
  </asset>
  <library_effects>
    <effect id="ColorEffectR88G199B225">
      <profile_COMMON>
        <technique sid="common">
          <phong>
            <ambient>
              <color>0.345098 0.7803922 0.8823529 1</color>
            </ambient>
            <diffuse>
              <color>0.345098 0.7803922 0.8823529 1</color>
            </diffuse>
            <specular>
              <color>1 1 1 1</color>
            </specular>
            <shininess>
              <float>10</float>
            </shininess>
            <reflective>
              <color>0 0 0 1</color>
            </reflective>
            <transparent>
              <color>1 1 1 1</color>
            </transparent>
            <transparency>
              <float>1</float>
            </transparency>
          </phong>
        </technique>
      </profile_COMMON>
    </effect>
    <effect id="ColorEffectR229G166B215">
      <profile_COMMON>
        <technique sid="common">
          <phong>
            <ambient>
              <color>0.8980392 0.6509804 0.8431373 1</color>
            </ambient>
            <diffuse>
              <color>0.8980392 0.6509804 0.8431373 1</color>
            </diffuse>
            <specular>
              <color>1 1 1 1</color>
            </specular>
            <shininess>
              <float>10</float>
            </shininess>
            <reflective>
              <color>0 0 0 1</color>
            </reflective>
            <transparent>
              <color>1 1 1 1</color>
            </transparent>
            <transparency>
              <float>1</float>
            </transparency>
          </phong>
        </technique>
      </profile_COMMON>
    </effect>
    <effect id="ColorEffectR134G59B8">
      <profile_COMMON>
        <technique sid="common">
          <phong>
            <ambient>
              <color>0.5254902 0.2313725 0.03137255 1</color>
            </ambient>
            <diffuse>
              <color>0.5254902 0.2313725 0.03137255 1</color>
            </diffuse>
            <specular>
              <color>1 1 1 1</color>
            </specular>
            <shininess>
              <float>10</float>
            </shininess>
            <reflective>
              <color>0 0 0 1</color>
            </reflective>
            <transparent>
              <color>1 1 1 1</color>
            </transparent>
            <transparency>
              <float>1</float>
            </transparency>
          </phong>
        </technique>
      </profile_COMMON>
    </effect>
    <effect id="ColorEffectR140G88B225">
      <profile_COMMON>
        <technique sid="common">
          <phong>
            <ambient>
              <color>0.5490196 0.345098 0.8823529 1</color>
            </ambient>
            <diffuse>
              <color>0.5490196 0.345098 0.8823529 1</color>
            </diffuse>
            <specular>
              <color>1 1 1 1</color>
            </specular>
            <shininess>
              <float>10</float>
            </shininess>
            <reflective>
              <color>0 0 0 1</color>
            </reflective>
            <transparent>
              <color>1 1 1 1</color>
            </transparent>
            <transparency>
              <float>1</float>
            </transparency>
          </phong>
        </technique>
      </profile_COMMON>
    </effect>
    <effect id="_7_-_Default">
      <profile_COMMON>
        
        <technique sid="common">
          <blinn>
            <emission>
              <color>0 0 0 1</color>
            </emission>
            <ambient>
              <color>0.5882353 0.5882353 0.5882353 1</color>
            </ambient>
            <diffuse>
               <color>1 1 1 1</color>
            </diffuse>
            <specular>
              <color>0.9 0.9 0.9 1</color>
            </specular>
            <shininess>
              <float>9.999999</float>
            </shininess>
            <reflective>
              <color>0 0 0 1</color>
            </reflective>
            <transparent opaque="A_ONE">
              <color>1 1 1 1</color>
            </transparent>
            <transparency>
              <float>1</float>
            </transparency>
          </blinn>
        </technique>
      </profile_COMMON>
      <extra>
        <technique profile="OpenCOLLADA3dsMax">
          <extended_shader>
            <apply_reflection_dimming>0</apply_reflection_dimming>
            <dim_level>0</dim_level>
            <falloff_type>0</falloff_type>
            <index_of_refraction>1.5</index_of_refraction>
            <opacity_type>0</opacity_type>
            <reflection_level>3</reflection_level>
            <wire_size>1</wire_size>
            <wire_units>0</wire_units>
          </extended_shader>
          <shader>
            <ambient_diffuse_lock>1</ambient_diffuse_lock>
            <ambient_diffuse_texture_lock>1</ambient_diffuse_texture_lock>
            <diffuse_specular_lock>0</diffuse_specular_lock>
            <soften>0.1</soften>
            <use_self_illum_color>0</use_self_illum_color>
          </shader>
        </technique>
      </extra>
    </effect>
  </library_effects>
  <library_materials>
    <material id="ColorEffectR88G199B225-material" name="ColorEffectR88G199B225-material">
      <instance_effect url="#ColorEffectR88G199B225"/>
    </material>
    <material id="ColorEffectR229G166B215-material" name="ColorEffectR229G166B215-material">
      <instance_effect url="#ColorEffectR229G166B215"/>
    </material>
    <material id="ColorEffectR134G59B8-material" name="ColorEffectR134G59B8-material">
      <instance_effect url="#ColorEffectR134G59B8"/>
    </material>
    <material id="ColorEffectR140G88B225-material" name="ColorEffectR140G88B225-material">
      <instance_effect url="#ColorEffectR140G88B225"/>
    </material>
    <material id="_7_-_Default-material" name="_7_-_Default">
      <instance_effect url="#_7_-_Default"/>
    </material>
  </library_materials>
  <library_geometries>
    <geometry id="geom-Box002" name="Box002">
      <mesh>
        <source id="geom-Box002-positions">
          <float_array id="geom-Box002-positions-array" count="735">-15 -15 0 15 -15 0 2.5 -15 10 -2.5 -15 10 -2.5 -15 15 2.5 -15 15 -2.5 -14.75 10 2.5 -14.75 10 -2.5 -14.75 15 2.5 -14.75 15 -10.89814 15 2.141593 -8.923889 15 1.234129 -15 10.89814 2.141593 -15 15 5.078205 -15 8.923887 1.234131 -15 -10.89815 2.141603 -15 -8.923884 1.234131 -10.89812 -15 2.141584 -11.65009 -15 2.679931 -15 -15 5.078203 -8.923889 -15 1.234131 10.89816 -15 2.141611 8.923883 -15 1.234131 15 -10.89811 2.141575 15 -15 5.078205 11.65009 -15 2.679929 15 -8.923889 1.234132 15 10.89818 2.141621 15 8.923882 1.234132 10.89809 15 2.141567 15 15 5.078205 8.923891 15 1.23413 -1.334961 15 0 -4.700593 14.46694 0 -4.873797 15 0.2855876 -8.941057 12.30631 0 -12.30631 8.941058 0 -15 4.873792 0.2855868 -14.46694 4.700589 0 -15 1.334964 0 -15 -4.873803 0.2855874 -15 -1.334965 0 -14.46694 -4.7006 0 -12.30631 -8.941065 0 -8.941051 -12.30632 0 -4.873781 -15 0.2855848 -4.700581 -14.46694 0 -1.334957 -15 0 4.873814 -15 0.28559 1.334973 -15 0 4.700608 -14.46693 0 8.941073 -12.3063 0 12.30632 -8.941042 0 15 -4.873772 0.2855837 14.46694 -4.700571 0 15 -1.334953 0 15 4.873824 0.2855915 15 1.334973 0 14.46693 4.700617 0 12.3063 8.941082 0 8.941033 12.30633 0 4.87376 15 0.2855814 4.700562 14.46695 0 1.334969 15 0 -10.36474 14.26585 1.234131 -14.26585 10.36474 1.234131 -14.26584 -10.36475 1.234131 -10.36473 -14.26585 1.234131 10.36476 -14.26583 1.234131 14.26586 -10.36473 1.234131 14.26583 10.36477 1.234131 10.36472 14.26587 1.234131 -4.700593 14.46694 0 -1.334961 15 0 -12.30631 8.941057 0 -8.941057 12.30631 0 -15 1.334964 0 -14.46694 4.70059 0 -14.46693 -4.700599 0 -15 -1.334965 0 -8.94105 -12.30632 0 -12.30631 -8.941066 0 -1.334955 -15 0 -4.700581 -14.46694 0 4.700608 -14.46693 0 1.334972 -15 0 12.30632 -8.941042 0 8.941073 -12.3063 0 15 -1.334952 0 14.46694 -4.700571 0 14.46693 4.700618 0 15 1.334973 0 8.941034 12.30633 0 12.30629 8.941081 0 1.334969 15 0 4.700562 14.46695 0 15 -15 5.078203 15 -10.89811 2.141576 15 8.923882 1.234131 15 10.89818 2.14162 15 15 5.078206 15 -8.923889 1.234131 15 -4.873771 0.2855835 15 4.873825 0.2855919 -8.923887 15 1.234131 -10.89814 15 2.141594 -15 15 5.078204 10.89809 15 2.141567 8.923891 15 1.234131 -4.873796 15 0.2855872 4.873761 15 0.2855819 -15 10.89814 2.141594 -15 8.923887 1.234131 -15 -8.923885 1.234131 -15 -10.89815 2.141602 -15 -15 5.078202 -15 4.873792 0.2855862 -15 -4.873803 0.2855882 11.65009 -15 2.679929 -10.89812 -15 2.141585 -8.923888 -15 1.234131 8.923883 -15 1.234131 10.89816 -15 2.141611 -4.873781 -15 0.2855845 4.873814 -15 0.2855903 -11.65009 -15 2.679931 -2.5 -2.5 0 2.5 -2.5 0 2.500001 2.5 3.72529e-9 -2.499999 2.5 -3.72529e-9 -2.5 -2.5 0.25 2.5 -2.5 0.25 -2.499999 2.5 0.2499992 2.500001 2.5 0.2499992 2.5 -2.5 30 -2.5 -2.5 30 -2.499999 2.5 30 2.500001 2.5 30 -2.5 -2.5 29.75 2.5 -2.5 29.75 -2.499999 2.5 29.75 2.500001 2.5 29.75 10.89814 15 28.91305 8.923886 15 29.82051 15 10.89814 28.91305 15 15 25.97644 15 8.923883 29.82051 15 -10.89815 28.91304 15 -9.074457 29.7513 15 -8.923883 29.82051 10.89812 -15 28.91306 12.89993 -15 27.47992 15 -15 25.97644 8.923887 -15 29.82051 -10.89817 -15 28.91303 -9.074442 -15 29.7513 -8.923885 -15 29.82051 -15 -15 25.97644 -12.89993 -15 27.47992 -15 -10.89811 28.91307 -15 -8.923894 29.82051 -15 10.89818 28.91302 -15 9.994057 29.32861 -15 9.074453 29.75131 -15 8.923885 29.82051 -10.89809 15 28.91307 -15 15 25.97643 -8.92389 15 29.82051 8.157505 15 30 10.15768 13.98085 30 12.06927 12.06927 30 13.98086 10.1577 30 15 8.157505 30 15 -8.369903 29.95026 15 -8.157511 30 14.74323 -8.661459 30 13.98086 -10.1577 30 12.06927 -12.06927 30 10.15767 -13.98086 30 8.157499 -15 30 -8.369889 -15 29.95026 -8.157503 -15 30 -8.661452 -14.74322 30 -10.1577 -13.98084 30 -12.06927 -12.06927 30 -13.98088 -10.15767 30 -15 -8.157522 30 -15 8.369903 29.95026 -15 8.157513 30 -14.74323 8.661452 30 -13.98084 10.15772 30 -12.06927 12.06927 30 -10.15766 13.98088 30 -8.157497 15 30 -8.369886 15 29.95026 10.36474 14.26585 29.82051 14.26585 10.36474 29.82051 14.26584 -10.36475 29.82051 10.36473 -14.26585 29.82051 -10.36476 -14.26583 29.82051 -14.26586 -10.36473 29.82051 -14.26583 10.36477 29.82051 -10.36472 14.26587 29.82051 -12.89994 -15 27.47992 -15 -15 25.97644 12.89993 -15 27.47992 10.89812 -15 28.91306 -8.923885 -15 29.82051 -10.89817 -15 28.91303 8.923887 -15 29.82051 8.157497 -15 30 -8.157504 -15 30 8.923885 15 29.82051 10.89813 15 28.91305 15 15 25.97644 -15 15 25.97643 -10.89809 15 28.91307 -8.923893 15 29.82051 -8.157497 15 30 8.157504 15 30 -15 -10.89811 28.91307 -15 -8.923893 29.82051 -15 8.923885 29.82051 -15 10.89818 28.91302 -15 -8.157522 30 -15 8.157513 30 15 10.89814 28.91305 15 8.923882 29.82051 15 -8.923882 29.82051 15 -10.89815 28.91304 15 8.157505 30 15 -15 25.97643 15 -8.157509 30 13.98086 10.15769 30 12.06928 12.06928 30 13.98085 -10.1577 30 12.06926 -12.06926 30 -10.15771 -13.98084 30 10.15767 -13.98086 30 -12.06928 -12.06928 30 -13.98084 10.15771 30 -13.98087 -10.15767 30 -12.06927 12.06927 30 10.15768 13.98086 30 -10.15766 13.98088 30</float_array>
          <technique_common>
            <accessor source="#geom-Box002-positions-array" count="245" stride="3">
              <param name="X" type="float"/>
              <param name="Y" type="float"/>
              <param name="Z" type="float"/>
            </accessor>
          </technique_common>
        </source>
        <source id="geom-Box002-normals">
          <float_array id="geom-Box002-normals-array" count="951">1 0 0 1 0 0 1 0 0 1 0 0 0 -1 0 0 -1 0 0 -1 0 0 -1 0 -1 0 0 -1 0 0 -1 0 0 -1 0 0 0 0 1 0 0 1 0 0 1 0 0 1 0 0 -1 0 0 -1 0 0 -1 0 0 -1 0 -1 0 0 -1 0 -4.80258e-8 -1 -2.18101e-7 0 -1 0 0 -1 0 0 -1 0 0 -1 7.86528e-8 0 -1 0 0 -1 0 0 -1 0 -5.37019e-9 -1 5.36942e-10 -2.42228e-9 -0.9999999 -1.23974e-6 -9.38965e-8 -1 -2.12695e-6 0.1402908 -0.4317705 0.8910066 0.1551374 -0.4268883 0.8908978 0.2321129 -0.4555473 0.8594185 0.3513932 -0.4836513 0.8016261 0.2668489 -0.3672859 0.8910066 0.4317705 0.140291 0.8910066 0.4268881 0.1551377 0.8908978 0.4555472 0.2321132 0.8594185 0.4836511 0.3513935 0.801626 0.3672857 0.2668491 0.8910066 -0.1402913 0.4317703 0.8910066 -0.155138 0.426888 0.8908978 -0.2321135 0.4555471 0.8594185 -0.3513938 0.483651 0.8016258 -0.2668492 0.3672856 0.8910065 -0.4317697 -0.1402915 0.8910068 -0.4268873 -0.1551383 0.890898 -0.455547 -0.2321138 0.8594185 -0.4836507 -0.3513941 0.801626 -0.3672854 -0.2668495 0.8910066 0.4836513 -0.3513934 0.8016259 0.3672858 -0.2668488 0.8910066 0.3513928 0.4836517 0.8016258 0.2668486 0.3672863 0.8910066 -0.4836517 0.3513924 0.8016261 -0.3672864 0.2668483 0.8910066 -0.3513923 -0.4836521 0.8016258 -0.2668481 -0.3672865 0.8910066 -0.5391492 0.4591354 0.7060544 -0.4555475 0.2321121 0.8594187 -0.5391479 -0.4591376 0.7060541 -0.5030863 -0.5030885 0.7027134 -0.4591352 -0.5391499 0.706054 -0.4268885 0.1551368 0.8908978 -0.4528214 0.07171938 0.888712 -0.4317707 0.1402902 0.8910065 -0.4528206 -0.0717205 0.8887124 0.4591363 -0.5391487 0.7060542 0.5030874 -0.5030873 0.7027135 0.5391489 -0.4591365 0.706054 -0.2321118 -0.4555476 0.8594187 0.07171986 -0.4528213 0.888712 -0.1551366 -0.4268885 0.8908978 -0.07171941 -0.4528213 0.8887121 -0.1402901 -0.4317707 0.8910066 0.4555471 -0.2321131 0.8594186 0.5391484 0.4591367 0.7060542 0.503087 0.5030876 0.7027135 0.5030867 0.5030875 0.7027139 0.4591358 0.5391491 0.7060542 0.4268876 -0.1551374 0.890898 0.4528207 -0.07171966 0.8887125 0.43177 -0.1402907 0.8910068 0.4528212 0.07172019 0.8887121 -0.5030878 0.5030869 0.7027135 -0.5030876 0.5030873 0.7027133 -0.4591367 0.5391489 0.7060539 0.2321125 0.4555475 0.8594185 0.1551371 0.4268884 0.8908978 0.07171939 0.4528214 0.888712 0.1402904 0.4317707 0.8910066 -0.0717205 0.4528211 0.8887121 0 -1 -3.33931e-6 -3.12639e-14 -1.63913e-7 -1 -3.12639e-14 -1.63913e-7 -1 -3.12639e-14 -1.63913e-7 -1 -3.12639e-14 -1.63913e-7 -1 -1 1.89218e-7 -9.23346e-7 -1 1.90735e-7 -9.53677e-7 -1 1.44568e-7 -3.0331e-8 -1 1.43051e-7 0 1 -1.43051e-7 0 1 -1.43051e-7 0 1 -1.43051e-7 0 0.9999999 -1.43051e-7 0 1.90735e-7 1 0 1.90735e-7 1 0 1.90735e-7 1 0 1.90735e-7 1 0 -1.90735e-7 -1 -5.78519e-15 -1.90735e-7 -1 0 -1.90735e-7 -0.9999999 -1.76114e-13 -1.90735e-7 -1 -1.819e-13 -2.17777e-11 -2.33659e-10 -1 -6.17545e-11 2.01287e-10 -1 0 0 -1 0 0 -1 0 0 -1 0 0 -1 0 0 -1 0 0 -0.9999999 0 0 -1 0 0 -1 0 0 -1 -7.09265e-11 3.50658e-10 -1 -2.32408e-10 -1.92401e-10 -1 -2.94395e-10 -9.19241e-11 -1 -1.63782e-10 7.63115e-11 -1 0 0 -0.9999999 8.86558e-10 5.95427e-9 -1 -6.14926e-11 1.54159e-10 -1 0 0 -1 1.21325e-10 -1.75022e-10 -1 0 0 -1 0 0 -1 0 0 -0.9999999 -5.72118e-11 -2.48895e-10 -1 0 0 -1 0 0 -1 -1.36217e-10 -9.75138e-11 -1 -2.99999e-10 2.12021e-11 -1 1 -1.43051e-7 0 1 -1.43051e-7 0 1 -1.43051e-7 0 1 -1.43051e-7 0 0 0 1 0 0 1 0 0 1 0 0 1 -1 1.43051e-7 0 -1 1.43051e-7 0 -1 1.43051e-7 0 -1 1.43051e-7 0 1.90735e-7 1 0 1.90735e-7 1 0 1.90735e-7 1 0 1.90735e-7 1 0 -1.90735e-7 -1 0 -1.90735e-7 -1 0 -1.90735e-7 -1 0 -1.90735e-7 -1 0 0 -1 0 0 -1 0 0 -1 0 0 -1 0 0 -1 0 0 -1 0 0 -1 0 0 -1 0 0 1 0 0 1 0 0 1 0 0 1 0 0 1 0 0 1 0 0 1 0 0 1 0 -1.62931e-8 1 8.40885e-10 0 1 0 1.25236e-8 1 -7.70102e-8 5.34963e-7 1 -3.2896e-6 -2.9971e-8 1 6.01221e-8 0 1 0 1.57839e-8 0.9999999 5.59129e-7 -4.80084e-7 1 -1.04446e-6 1.84711e-8 1 -3.22725e-8 2.32498e-7 1 0 6.63471e-9 1 -1.64235e-8 1 1.57726e-8 -5.24047e-6 1 0 0 0.9999999 4.94461e-8 -2.28447e-7 1 0 0 1 0 0 1 1.07155e-7 -5.20417e-8 1 1.09032e-8 -6.31202e-9 1 -4.17e-7 -9.07218e-7 1 -2.29484e-8 -9.32965e-8 1 -4.11167e-7 -1.7556e-6 0.9999999 -3.73991e-8 5.3117e-7 1 0 0 0.9999999 -9.13984e-8 5.63867e-8 1 -4.8009e-7 1.04447e-6 1 -8.4656e-8 9.58104e-8 1 2.325e-7 0 1 1.50771e-8 9.50004e-8 1 6.35339e-8 3.76094e-7 0.9999999 4.97688e-8 -2.92504e-7 1 5.34338e-8 -1.25002e-7 -1.46138e-8 3.55345e-8 1 0 0 1 -1.8067e-6 2.75827e-8 1 -5.69437e-9 -2.09708e-7 1 3.31299e-8 1.07115e-8 1 0 1.87156e-6 1 -2.02228e-7 -1.4647e-9 1 -4.98891e-7 -4.98892e-7 1 1.49587e-9 -4.1084e-8 1 0 0 1 9.69892e-8 -2.08737e-8 1 2.49447e-7 -2.49447e-7 1 4.0339e-8 2.85495e-8 1 0 0 0.9999999 0 0 1 0 -1 0 0 -1 0 0 -1 0 0 -1 0 0 -1 0 0 -0.9999999 0 0 -1 0 0 -0.9999999 0 0 0 0.9999999 0 0 0.9999999 0 0 1 0 0 1 0 0 1 0 0 1 0 0 1 -1 -1.5772e-8 -5.24047e-6 -1 0 0 -1 -9.88403e-8 6.35521e-6 -1 -7.96368e-7 -1.77062e-7 -1 2.325e-7 0 -1 3.25771e-8 -8.44587e-8 -1 -3.55564e-7 -7.0931e-8 -1 4.17007e-7 -9.0723e-7 -0.9999999 2.24089e-7 -5.65156e-7 -0.9999999 -1.23794e-7 1.53399e-6 -1 1.09417e-8 2.20939e-9 -1 0 0 -1 0 0 -1 0 0 -1 0 0 -1 0 0 -1 -1.19314e-8 8.89615e-8 -1 -5.3384e-8 3.5832e-7 -1 -5.24601e-8 -1.98376e-6 -0.9999999 -4.99749e-8 -2.9251e-7 -1 -1.06866e-7 -1.23775e-5 2.54484e-7 5.05677e-7 0.9999999 0 0 0.9999999 0 0 0.9999999 0 0 1 2.01597e-8 2.793e-7 1 -0.3513933 0.483651 -0.8016261 -0.2668492 0.3672854 -0.8910067 -0.3241632 0.3241674 -0.8887259 -0.367285 0.2668487 -0.891007 -0.4836511 0.3513939 -0.8016258 0.483652 0.3513924 -0.8016258 0.3672871 0.2668483 -0.8910062 0.3241929 0.3241934 -0.8887057 0.2668494 0.367286 -0.8910063 0.351394 0.4836511 -0.8016258 0.3513922 -0.4836523 -0.8016258 0.2668478 -0.3672868 -0.8910066 0.3241905 -0.3241908 -0.8887074 0.3672861 -0.2668501 -0.8910061 0.4836507 -0.3513941 -0.801626 0.459137 0.5391483 -0.706054 0.503088 0.5030869 -0.7027134 0.5030879 0.5030868 -0.7027134 0.5391492 0.4591354 -0.7060543 -0.4591378 0.5391466 -0.7060549 -0.2321087 0.4555431 -0.8594218 -0.5030872 0.5030884 -0.7027129 -0.5391486 0.4591374 -0.7060536 -0.5030869 0.5030886 -0.7027129 0.2321107 0.4555444 -0.8594208 -0.2321101 -0.4555444 -0.8594208 -0.4591362 -0.539149 -0.706054 -0.3513931 -0.4836519 -0.8016257 -0.503087 -0.5030875 -0.7027138 -0.539149 -0.4591366 -0.7060537 -0.4836521 -0.3513933 -0.8016254 0.4591351 -0.53915 -0.7060539 0.2321102 -0.455546 -0.85942 0.4555498 0.2321142 -0.8594169 0.4555485 -0.232115 -0.8594174 0.5391478 -0.4591376 -0.7060541 0.4084996 0.2081412 -0.8887099 0.5030866 -0.5030888 -0.7027128 -0.4555516 -0.2321152 -0.8594157 -0.4085015 -0.2081424 -0.8887088 -0.3672871 -0.2668488 -0.8910061 -0.4555461 0.232112 -0.8594195 -0.3241868 -0.3241877 -0.8887099 -0.2668482 -0.3672863 -0.8910066 -0.4084941 0.2081376 -0.8887132 0.2081356 0.4084918 -0.8887148 -0.2081336 0.4084904 -0.8887159 0.4084977 -0.2081414 -0.8887108 -0.2081352 -0.4084918 -0.8887149 0.2081359 -0.4084941 -0.8887136</float_array>
          <technique_common>
            <accessor source="#geom-Box002-normals-array" count="317" stride="3">
              <param name="X" type="float"/>
              <param name="Y" type="float"/>
              <param name="Z" type="float"/>
            </accessor>
          </technique_common>
        </source>
        <source id="geom-Box002-map1">
          <float_array id="geom-Box002-map1-array" count="951">0 0 0 1 0 0 0.5833333 0.3333333 0 0.4166667 0.3333333 0 0.4166667 0.5 0 0.5833333 0.5 0 1 0 0 1 1 0 0 0 0 0 1 0 0 0 0 0 1 0 1 0 0 1 1 0 0 0 0 1 0 0 0 1 0 1 1 0 0.5 0 0 0.5 0 0 0.5 1 0 0.5 0 0 0.5 1 0 0.5 1 0 0.5 0 0 0.5 1 0 0.8632712 0.07138642 0 0.7974629 0.04113764 0 0.1367287 0.07138645 0 1 0.1692735 0 0 0.1692735 0 0.2025371 0.04113769 0 0.8632717 0.07138675 0 0.7974628 0.0411377 0 0.1367292 0.07138615 0 0.1116638 0.08933103 0 0 0.1692734 0 1 0.1692734 0 0.202537 0.0411377 0 0.8632721 0.07138702 0 0.7974628 0.0411377 0 0.1367297 0.07138585 0 1 0.1692735 0 0 0.1692735 0 0.8883363 0.08933097 0 0.202537 0.04113773 0 0.8632727 0.07138735 0 0.7974627 0.04113772 0 0.1367303 0.07138558 0 1 0.1692735 0 0 0.1692735 0 0.202537 0.04113768 0 0.5444987 1 0 0.5444987 0 0 0.6566864 0.9822312 0 0.6624599 0.009519588 0 0.7980353 0.9102104 0 0.9102104 0.7980353 0 0.3375403 0.009519561 0 0.9822312 0.6566863 0 1 0.5444988 0 0.4555012 0 0 0.6624601 0.009519579 0 1 0.4555011 0 0.5444989 0 0 0.9822311 0.3433133 0 0.9102102 0.2019645 0 0.798035 0.08978943 0 0.3375406 0.009519494 0 0.656686 0.01776864 0 0.5444986 0 0 0.4555014 0 0 0.6624604 0.009519667 0 0.4555009 0 0 0.5444991 0 0 0.3433131 0.01776895 0 0.2019642 0.08978999 0 0.08978923 0.2019653 0 0.3375409 0.009519458 0 0.01776854 0.3433143 0 0 0.4555016 0 0.4555016 0 0 0.6624608 0.009519719 0 0 0.544499 0 0.544499 0 0 0.01776908 0.6566873 0 0.08979014 0.7980361 0 0.2019656 0.910211 0 0.3375413 0.009519379 0 0.3433146 0.9822316 0 0.455501 1 0 0.455501 0 0 0.1 0.2 0 0.15 0.2 0 0.35 0.2 0 0.4 0.2 0 0.6000001 0.2 0 0.6500001 0.2 0 0.8500001 0.2 0 0.9000002 0.2 0 0.05 0.1710378 0 0.01911736 0.1710378 0 0.15 0.1710378 0 0.1 0.1710378 0 0.2377505 0.1710379 0 0.2 0.1710378 0 0.3 0.1710378 0 0.2691174 0.1710379 0 0.4 0.1710378 0 0.35 0.1710378 0 0.4877506 0.1710378 0 0.45 0.1710378 0 0.5500001 0.1710378 0 0.5191174 0.1710379 0 0.6500001 0.1710378 0 0.6000001 0.1710378 0 0.7377505 0.1710379 0 0.7000001 0.1710378 0 0.8000002 0.1710378 0 0.7691174 0.1710378 0 0.9000001 0.1710378 0 0.8500001 0.1710378 0 0.9877506 0.1710378 0 0.9500002 0.1710378 0 0.6278768 0.2579193 0 0.6500001 0.2136726 0 0.8353441 0.2 0 0.8500001 0.2136733 0 0.8778767 0.2579193 0 0.6646556 0.2 0 0.7000002 0.1777398 0 0.8000002 0.17774 0 0.08534427 0.2 0 0.1 0.2136729 0 0.1278768 0.2579193 0 0.9000002 0.2136725 0 0.9146556 0.2 0 0.05 0.1777399 0 0.9500002 0.1777398 0 0.15 0.2136729 0 0.1646557 0.2 0 0.3353441 0.2 0 0.35 0.213673 0 0.3778767 0.2579192 0 0.2 0.1777399 0 0.3 0.1777399 0 0.6053088 0.2217841 0 0.4 0.2136728 0 0.4146556 0.2 0 0.5853441 0.2 0 0.6000001 0.2136731 0 0.45 0.1777398 0 0.5500001 0.17774 0 0.3959443 0.2217841 0 0.5833333 0.4166667 0 0.4166667 0.4166667 0 0.4166666 0.5833333 0 0.5833333 0.5833334 0 0 0 0 0 1 0 1 0 0 1 1 0 1 0 0 1 1 0 0 0 0 1 0 0 0 1 0 1 1 0 0 0 0 0 1 0 0.5 1 0 0.5 0 0 0.5 0 0 0.5 0 0 0.5000016 0 0 0.5000016 1 0 0.5000017 1 0 0.4999984 1 0 0.5833333 0.4166667 0 0.4166667 0.4166667 0 0.4166667 0.5833334 0 0.5833334 0.5833334 0 1 0 0 1 1 0 0 0 0 0 1 0 0 0 0 0 1 0 1 0 0 1 1 0 0 0 0 1 0 0 0 1 0 1 1 0 0.5 0 0 0.5 0 0 0.5 1 0 0.5 0 0 0.5 1 0 0.5 1 0 0.5 0 0 0.5 1 0 0.1367288 0.9637684 0 0.2025371 0.9940171 0 0.8632712 0.9637682 0 1 0.8658813 0 0 0.8658813 0 0.7974628 0.9940171 0 0.1367282 0.963768 0 0.1975181 0.9917101 0 0.2025372 0.9940172 0 0.8632705 0.9637685 0 0.9299977 0.9159973 0 1 0.8658813 0 0 0.8658813 0 0.7974629 0.9940171 0 0.1367278 0.9637676 0 0.1975186 0.9917101 0 0.2025372 0.9940169 0 0 0.8658813 0 1 0.8658813 0 0.0700022 0.9159974 0 0.8632702 0.9637689 0 0.7974631 0.9940171 0 0.1367273 0.9637675 0 0.1668648 0.9776203 0 0.1975182 0.9917102 0 0.2025372 0.9940171 0 0.8632697 0.963769 0 1 0.8658811 0 0 0.8658811 0 0.797463 0.9940169 0 0.7719169 1 0 0.2280831 1 0 0.8385893 0.9660284 0 0.9023091 0.9023091 0 0.9660288 0.8385898 0 1 0.7719169 0 0.7719169 1 0 0.2210032 0.9983419 0 1 0.2280829 0 0.2280829 1 0 0.9914409 0.2112847 0 0.9660287 0.16141 0 0.902309 0.09769099 0 0.8385888 0.03397147 0 0.7719166 0 0 0.7719166 1 0 0.2210037 0.9983419 0 0.2280832 0 0 0.2280832 1 0 0.2112849 0.008559212 0 0.16141 0.03397211 0 0.09769093 0.09769093 0 0.0339708 0.1614109 0 0 0.2280826 0 0.7719174 1 0 0.2210032 0.9983419 0 0 0.7719171 0 0.2280829 1 0 0.008559041 0.7887151 0 0.03397192 0.8385906 0 0.09769093 0.9023091 0 0.1614113 0.9660293 0 0.2280834 1 0 0.7719166 1 0 0.7789962 0.9983419 0 0.1 0.2 0 0.15 0.2 0 0.35 0.2 0 0.4 0.2 0 0.6000001 0.2 0 0.6500001 0.2 0 0.8500001 0.2 0 0.9000002 0.2 0 0.6148601 0.235266 0 0.6278768 0.2579193 0 0.3892033 0.2352661 0 0.4 0.2136728 0 0.5853441 0.2 0 0.6000001 0.2136731 0 0.4146556 0.2 0 0.4213437 0.1957878 0 0.5796549 0.1957878 0 0.08534426 0.2 0 0.1 0.2136729 0 0.1278768 0.2579193 0 0.8778767 0.2579193 0 0.9000002 0.2136725 0 0.9146556 0.2 0 0.9213437 0.1957878 0 0.07965508 0.1957878 0 0.6500001 0.2136726 0 0.6646556 0.2 0 0.8353441 0.2 0 0.8500001 0.2136732 0 0.6713435 0.1957878 0 0.829655 0.1957878 0 0.15 0.2136729 0 0.1646557 0.2 0 0.3353441 0.2 0 0.35 0.213673 0 0.1713438 0.1957878 0 0.3778767 0.2579193 0 0.329655 0.1957879 0 0.15 0.1957879 0 0.1254994 0.1957879 0 0.35 0.1957879 0 0.3749999 0.1957877 0 0.6000001 0.1957878 0 0.4 0.1957878 0 0.6249999 0.1957879 0 0.8500001 0.1957878 0 0.6500001 0.1957878 0 0.8749999 0.1957878 0 0.1 0.1957878 0 0.9000002 0.1957878 0</float_array>
          <technique_common>
            <accessor source="#geom-Box002-map1-array" count="317" stride="3">
              <param name="S" type="float"/>
              <param name="T" type="float"/>
              <param name="P" type="float"/>
            </accessor>
          </technique_common>
        </source>
        <vertices id="geom-Box002-vertices">
          <input semantic="POSITION" source="#geom-Box002-positions"/>
        </vertices>
        <triangles material="ColorMaterial" count="281">
          <input semantic="VERTEX" source="#geom-Box002-vertices" offset="0"/>
          <input semantic="NORMAL" source="#geom-Box002-normals" offset="1"/>
          <input semantic="TEXCOORD" source="#geom-Box002-map1" offset="2" set="0"/>
          <p>8 0 11 4 1 25 3 2 19 3 2 19 6 3 10 8 0 11 7 4 14 9 5 16 8 6 17 8 6 17 6 7 15 7 4 14 7 8 12 2 9 21 5 10 23 5 10 23 9 11 13 7 8 12 6 12 6 3 13 18 2 14 20 2 14 20 7 15 7 6 12 6 9 16 9 5 17 22 4 18 24 4 18 24 8 19 8 9 16 9 0 20 0 47 21 71 45 22 68 21 23 39 25 24 44 2 25 2 22 26 40 21 23 39 2 25 2 2 25 2 3 27 3 18 28 35 2 25 2 18 28 35 17 29 34 22 26 40 2 25 2 17 29 34 22 26 40 17 29 34 20 30 38 48 31 72 22 26 40 20 30 38 48 31 72 20 30 38 45 22 68 49 32 74 48 31 72 45 22 68 47 21 71 49 32 74 45 22 68 72 33 100 109 34 137 104 35 132 72 33 100 104 35 132 64 36 92 72 33 100 64 36 92 75 37 103 78 38 106 117 39 145 113 40 141 78 38 106 113 40 141 66 41 94 78 38 106 66 41 94 81 42 109 84 43 112 124 44 152 121 45 149 84 43 112 121 45 149 68 46 96 84 43 112 68 46 96 87 47 115 90 48 118 103 49 131 98 50 126 90 48 118 98 50 126 70 51 98 90 48 118 70 51 98 93 52 121 65 53 93 74 54 102 75 37 103 75 37 103 64 36 92 65 53 93 67 55 95 80 56 108 81 42 109 81 42 109 66 41 94 67 55 95 69 57 97 86 58 114 87 47 115 87 47 115 68 46 96 69 57 97 71 59 99 92 60 120 93 52 121 93 52 121 70 51 98 71 59 99 97 61 125 101 62 129 69 57 97 98 50 126 99 63 127 70 51 98 99 63 127 100 64 128 107 65 135 99 63 127 107 65 135 71 59 99 99 63 127 71 59 99 70 51 98 102 66 130 88 67 116 89 68 117 86 58 114 69 57 97 101 62 129 89 68 117 86 58 114 101 62 129 102 66 130 89 68 117 101 62 129 91 69 119 103 49 131 90 48 118 104 35 132 105 70 133 64 36 92 105 70 133 106 71 134 111 72 139 105 70 133 111 72 139 65 53 93 105 70 133 65 53 93 64 36 92 107 65 135 108 73 136 71 59 99 73 74 101 109 34 137 72 33 100 110 75 138 94 76 122 95 77 123 92 60 120 71 59 99 108 73 136 95 77 123 92 60 120 108 73 136 110 75 138 95 77 123 108 73 136 111 72 139 112 78 140 65 53 93 113 40 141 114 79 142 66 41 94 114 79 142 115 80 143 125 81 153 114 79 142 125 81 153 119 82 147 114 79 142 119 82 147 67 55 95 114 79 142 67 55 95 66 41 94 116 83 144 76 84 104 77 85 105 74 54 102 65 53 93 112 78 140 77 85 105 74 54 102 112 78 140 116 83 144 77 85 105 112 78 140 79 86 107 117 39 145 78 38 106 97 61 125 69 57 97 68 46 96 96 87 124 97 61 125 68 46 96 118 88 146 96 87 124 68 46 96 118 88 146 68 46 96 122 89 150 119 82 147 120 90 148 67 55 95 121 45 149 122 89 150 68 46 96 123 91 151 82 92 110 83 93 111 80 56 108 67 55 95 120 90 148 83 93 111 80 56 108 120 90 148 123 91 151 83 93 111 120 90 148 85 94 113 124 44 152 84 43 112 48 31 72 49 32 74 1 95 1 130 96 164 132 97 166 133 98 167 133 98 167 131 99 165 130 96 164 133 100 169 128 101 177 127 102 171 127 102 171 131 103 168 133 100 169 130 104 162 126 105 173 129 106 175 129 106 175 132 107 163 130 104 162 131 108 159 127 109 170 126 110 172 126 110 172 130 111 158 131 108 159 132 112 160 129 113 174 128 114 176 128 114 176 133 115 161 132 112 160 126 116 154 127 117 155 54 118 79 54 118 79 52 119 77 51 120 76 126 116 154 54 118 79 51 120 76 51 120 76 50 121 75 49 122 73 49 122 73 47 123 70 46 124 69 51 120 76 49 122 73 46 124 69 126 116 154 51 120 76 46 124 69 46 124 69 44 125 67 43 126 66 126 116 154 46 124 69 43 126 66 128 127 156 59 128 86 58 129 85 128 127 156 58 129 85 57 130 83 127 117 155 128 127 156 57 130 83 127 117 155 57 130 83 55 131 80 127 117 155 55 131 80 54 118 79 128 127 156 129 132 157 38 133 59 38 133 59 36 134 57 35 135 56 128 127 156 38 133 59 35 135 56 35 135 56 33 136 54 32 137 52 32 137 52 63 138 90 62 139 89 35 135 56 32 137 52 62 139 89 128 127 156 35 135 56 62 139 89 62 139 89 60 140 87 59 128 86 128 127 156 62 139 89 59 128 86 126 116 154 43 126 66 42 141 65 126 116 154 42 141 65 41 142 63 129 132 157 126 116 154 41 142 63 129 132 157 41 142 63 39 143 60 129 132 157 39 143 60 38 133 59 140 144 187 136 145 201 135 146 195 135 146 195 138 147 186 140 144 187 139 148 190 141 149 192 140 150 193 140 150 193 138 151 191 139 148 190 139 152 188 134 153 197 137 154 199 137 154 199 141 155 189 139 152 188 138 156 182 135 157 194 134 158 196 134 158 196 139 159 183 138 156 182 141 160 185 137 161 198 136 162 200 136 162 200 140 163 184 141 160 185 2 25 2 25 24 44 24 164 42 5 165 5 2 25 2 24 164 42 151 166 212 5 165 5 24 164 42 151 166 212 24 164 42 152 167 213 19 168 36 18 28 35 3 27 3 19 168 36 3 27 3 4 169 4 19 168 36 4 169 4 158 170 221 157 171 219 19 168 36 158 170 221 194 172 266 193 173 265 168 174 233 194 172 266 168 174 233 143 175 203 167 176 231 194 172 266 143 175 203 165 177 228 167 176 231 143 175 203 142 178 202 145 179 206 30 180 50 143 175 203 142 178 202 30 180 50 30 180 50 29 181 48 31 182 51 31 182 51 61 183 88 63 184 91 30 180 50 31 182 51 63 184 91 63 184 91 32 185 53 34 186 55 34 186 55 11 187 27 10 188 26 63 184 91 34 186 55 10 188 26 30 180 50 63 184 91 10 188 26 10 188 26 13 189 29 166 190 229 30 180 50 10 188 26 166 190 229 143 175 203 30 180 50 166 190 229 165 177 228 143 175 203 166 190 229 172 191 238 174 192 241 173 193 239 147 194 208 152 195 214 24 196 43 148 197 209 147 194 208 24 196 43 24 196 43 23 198 41 26 199 45 148 197 209 24 196 43 26 199 45 26 199 45 53 200 78 55 201 81 55 201 81 57 202 84 56 203 82 26 199 45 55 201 81 56 203 82 148 197 209 26 199 45 56 203 82 56 203 82 28 204 47 27 205 46 27 205 46 30 206 49 145 207 205 56 203 82 27 205 46 145 207 205 148 197 209 56 203 82 145 207 205 148 197 209 145 207 205 144 208 204 148 197 209 144 208 204 146 209 207 149 210 210 148 197 209 146 209 207 173 193 239 149 210 210 146 209 207 172 191 238 173 193 239 146 209 207 175 211 242 174 212 240 172 213 237 175 211 242 172 213 237 171 214 236 168 215 232 193 216 264 192 217 263 192 217 263 191 218 262 136 219 180 168 215 232 192 217 263 136 219 180 169 220 234 168 215 232 136 219 180 169 220 234 136 219 180 137 221 181 170 222 235 169 220 234 137 221 181 171 214 236 170 222 235 137 221 181 171 214 236 137 221 181 134 223 178 175 211 242 171 214 236 134 223 178 134 223 178 177 224 244 176 225 243 175 211 242 134 223 178 176 225 243 179 226 247 181 227 250 180 228 248 154 229 216 158 170 221 4 169 4 155 230 217 154 229 216 4 169 4 4 169 4 5 165 5 151 166 212 4 169 4 151 166 212 150 231 211 155 230 217 4 169 4 150 231 211 155 230 217 150 231 211 153 232 215 156 233 218 155 230 217 153 232 215 180 228 248 156 233 218 153 232 215 179 226 247 180 228 248 153 232 215 182 234 251 181 235 249 179 236 246 182 234 251 179 236 246 178 237 245 178 237 245 177 224 244 134 223 178 178 237 245 134 223 178 135 238 179 182 234 251 178 237 245 135 238 179 135 238 179 184 239 253 183 240 252 182 234 251 135 238 179 183 240 252 186 241 256 188 242 259 187 243 257 161 244 224 166 245 230 13 246 30 162 247 225 161 244 224 13 246 30 13 246 30 12 248 28 14 249 31 14 249 31 37 250 58 39 251 61 13 246 30 14 249 31 39 251 61 39 251 61 41 252 64 40 253 62 40 253 62 16 254 33 15 255 32 39 251 61 40 253 62 15 255 32 13 246 30 39 251 61 15 255 32 15 255 32 19 256 37 157 257 220 13 246 30 15 255 32 157 257 220 162 247 225 13 246 30 157 257 220 162 247 225 157 257 220 159 258 222 163 259 226 162 247 225 159 258 222 163 259 226 159 258 222 160 260 223 164 261 227 163 259 226 160 260 223 187 243 257 164 261 227 160 260 223 186 241 256 187 243 257 160 260 223 189 262 260 188 263 258 186 264 255 189 262 260 186 264 255 185 265 254 185 265 254 184 239 253 135 238 179 185 265 254 135 238 179 136 219 180 189 262 260 185 265 254 136 219 180 136 219 180 191 218 262 190 266 261 189 262 260 136 219 180 190 266 261 198 267 270 238 268 310 236 269 308 198 267 270 236 269 308 235 270 307 197 271 269 198 267 270 235 270 307 200 272 272 241 273 313 239 274 311 200 272 272 239 274 311 237 275 309 199 276 271 200 272 272 237 275 309 202 277 274 244 278 316 242 279 314 202 277 274 242 279 314 240 280 312 201 281 273 202 277 274 240 280 312 199 276 271 208 282 280 203 283 275 203 283 275 204 284 276 220 285 292 199 276 271 203 283 275 220 285 292 199 276 271 220 285 292 200 272 272 206 286 278 209 287 281 198 267 270 205 288 277 206 286 278 198 267 270 198 267 270 197 271 269 229 289 301 205 288 277 198 267 270 229 289 301 205 288 277 229 289 301 231 290 303 207 291 279 208 282 280 199 276 271 212 292 284 213 293 285 195 294 267 213 293 285 214 295 286 226 296 298 213 293 285 226 296 298 196 297 268 213 293 285 196 297 268 195 294 267 216 298 288 217 299 289 202 277 274 220 285 292 221 300 293 200 272 272 222 301 294 223 302 295 201 281 273 221 300 293 224 303 296 241 273 313 241 273 313 200 272 272 221 300 293 223 302 295 215 304 287 216 298 288 223 302 295 216 298 288 202 277 274 223 302 295 202 277 274 201 281 273 227 305 299 230 306 302 233 307 305 233 307 305 196 297 268 227 305 299 226 296 298 227 305 299 196 297 268 228 308 300 229 289 301 197 271 269 234 309 306 243 310 315 195 294 267 234 309 306 195 294 267 196 297 268 233 307 305 234 309 306 196 297 268 235 270 307 232 311 304 228 308 300 228 308 300 197 271 269 235 270 307 237 275 309 211 312 283 207 291 279 207 291 279 199 276 271 237 275 309 209 287 281 210 313 282 238 268 310 238 268 310 198 267 270 209 287 281 240 280 312 225 314 297 222 301 294 222 301 294 201 281 273 240 280 312 243 310 315 219 315 291 212 292 284 212 292 284 195 294 267 243 310 315 217 299 289 218 316 290 244 278 316 244 278 316 202 277 274 217 299 289</p>
        </triangles>
      </mesh>
    </geometry>
    <geometry id="geom-_Portal001" name="_Portal001">
      <mesh>
        <source id="geom-_Portal001-positions">
          <float_array id="geom-_Portal001-positions-array" count="24">-0.25 -2.5 0 0.25 -2.5 0 -0.25 2.5 0 0.25 2.5 0 -0.25 -2.5 5 0.25 -2.5 5 -0.25 2.5 5 0.25 2.5 5</float_array>
          <technique_common>
            <accessor source="#geom-_Portal001-positions-array" count="8" stride="3">
              <param name="X" type="float"/>
              <param name="Y" type="float"/>
              <param name="Z" type="float"/>
            </accessor>
          </technique_common>
        </source>
        <source id="geom-_Portal001-normals">
          <float_array id="geom-_Portal001-normals-array" count="72">0 0 -1 0 0 -1 0 0 -1 0 0 -1 0 0 1 0 0 1 0 0 1 0 0 1 0 -1 0 0 -1 0 0 -1 0 0 -1 0 1 0 0 1 0 0 1 0 0 1 0 0 0 1 0 0 1 0 0 1 0 0 1 0 -1 0 0 -1 0 0 -1 0 0 -1 0 0</float_array>
          <technique_common>
            <accessor source="#geom-_Portal001-normals-array" count="24" stride="3">
              <param name="X" type="float"/>
              <param name="Y" type="float"/>
              <param name="Z" type="float"/>
            </accessor>
          </technique_common>
        </source>
        <source id="geom-_Portal001-map1">
          <float_array id="geom-_Portal001-map1-array" count="36">0 0 0 1 0 0 0 1 0 1 1 0 0 0 0 1 0 0 0 1 0 1 1 0 0 0 0 1 0 0 0 1 0 1 1 0</float_array>
          <technique_common>
            <accessor source="#geom-_Portal001-map1-array" count="12" stride="3">
              <param name="S" type="float"/>
              <param name="T" type="float"/>
              <param name="P" type="float"/>
            </accessor>
          </technique_common>
        </source>
        <vertices id="geom-_Portal001-vertices">
          <input semantic="POSITION" source="#geom-_Portal001-positions"/>
        </vertices>
        <triangles material="ColorMaterial" count="12">
          <input semantic="VERTEX" source="#geom-_Portal001-vertices" offset="0"/>
          <input semantic="NORMAL" source="#geom-_Portal001-normals" offset="1"/>
          <input semantic="TEXCOORD" source="#geom-_Portal001-map1" offset="2" set="0"/>
          <p>0 0 9 2 1 11 3 2 10 3 2 10 1 3 8 0 0 9 4 4 8 5 5 9 7 6 11 7 6 11 6 7 10 4 4 8 0 8 4 1 9 5 5 10 7 5 10 7 4 11 6 0 8 4 1 12 0 3 13 1 7 14 3 7 14 3 5 15 2 1 12 0 3 16 4 2 17 5 6 18 7 6 18 7 7 19 6 3 16 4 2 20 0 0 21 1 4 22 3 4 22 3 6 23 2 2 20 0</p>
        </triangles>
      </mesh>
      <extra>
        <technique profile="OpenCOLLADA3dsMax">
          <max_box>
            <generateuvs>1</generateuvs>
            <height>5</height>
            <heightsegments>1</heightsegments>
            <length>5</length>
            <lengthsegments>1</lengthsegments>
            <width>0.5</width>
            <widthsegments>1</widthsegments>
          </max_box>
        </technique>
      </extra>
    </geometry>
    <geometry id="geom-_Portal002" name="_Portal002">
      <mesh>
        <source id="geom-_Portal002-positions">
          <float_array id="geom-_Portal002-positions-array" count="24">-0.25 -2.5 0 0.25 -2.5 0 -0.25 2.5 0 0.25 2.5 0 -0.25 -2.5 5 0.25 -2.5 5 -0.25 2.5 5 0.25 2.5 5</float_array>
          <technique_common>
            <accessor source="#geom-_Portal002-positions-array" count="8" stride="3">
              <param name="X" type="float"/>
              <param name="Y" type="float"/>
              <param name="Z" type="float"/>
            </accessor>
          </technique_common>
        </source>
        <source id="geom-_Portal002-normals">
          <float_array id="geom-_Portal002-normals-array" count="72">0 0 -1 0 0 -1 0 0 -1 0 0 -1 0 0 1 0 0 1 0 0 1 0 0 1 0 -1 0 0 -1 0 0 -1 0 0 -1 0 1 0 0 1 0 0 1 0 0 1 0 0 0 1 0 0 1 0 0 1 0 0 1 0 -1 0 0 -1 0 0 -1 0 0 -1 0 0</float_array>
          <technique_common>
            <accessor source="#geom-_Portal002-normals-array" count="24" stride="3">
              <param name="X" type="float"/>
              <param name="Y" type="float"/>
              <param name="Z" type="float"/>
            </accessor>
          </technique_common>
        </source>
        <source id="geom-_Portal002-map1">
          <float_array id="geom-_Portal002-map1-array" count="36">0 0 0 1 0 0 0 1 0 1 1 0 0 0 0 1 0 0 0 1 0 1 1 0 0 0 0 1 0 0 0 1 0 1 1 0</float_array>
          <technique_common>
            <accessor source="#geom-_Portal002-map1-array" count="12" stride="3">
              <param name="S" type="float"/>
              <param name="T" type="float"/>
              <param name="P" type="float"/>
            </accessor>
          </technique_common>
        </source>
        <vertices id="geom-_Portal002-vertices">
          <input semantic="POSITION" source="#geom-_Portal002-positions"/>
        </vertices>
        <triangles material="ColorMaterial" count="12">
          <input semantic="VERTEX" source="#geom-_Portal002-vertices" offset="0"/>
          <input semantic="NORMAL" source="#geom-_Portal002-normals" offset="1"/>
          <input semantic="TEXCOORD" source="#geom-_Portal002-map1" offset="2" set="0"/>
          <p>0 0 9 2 1 11 3 2 10 3 2 10 1 3 8 0 0 9 4 4 8 5 5 9 7 6 11 7 6 11 6 7 10 4 4 8 0 8 4 1 9 5 5 10 7 5 10 7 4 11 6 0 8 4 1 12 0 3 13 1 7 14 3 7 14 3 5 15 2 1 12 0 3 16 4 2 17 5 6 18 7 6 18 7 7 19 6 3 16 4 2 20 0 0 21 1 4 22 3 4 22 3 6 23 2 2 20 0</p>
        </triangles>
      </mesh>
      <extra>
        <technique profile="OpenCOLLADA3dsMax">
          <max_box>
            <generateuvs>1</generateuvs>
            <height>5</height>
            <heightsegments>1</heightsegments>
            <length>5</length>
            <lengthsegments>1</lengthsegments>
            <width>0.5</width>
            <widthsegments>1</widthsegments>
          </max_box>
        </technique>
      </extra>
    </geometry>
    <geometry id="geom-_Portal003" name="_Portal003">
      <mesh>
        <source id="geom-_Portal003-positions">
          <float_array id="geom-_Portal003-positions-array" count="24">-0.25 -2.5 0 0.25 -2.5 0 -0.25 2.5 0 0.25 2.5 0 -0.25 -2.5 5 0.25 -2.5 5 -0.25 2.5 5 0.25 2.5 5</float_array>
          <technique_common>
            <accessor source="#geom-_Portal003-positions-array" count="8" stride="3">
              <param name="X" type="float"/>
              <param name="Y" type="float"/>
              <param name="Z" type="float"/>
            </accessor>
          </technique_common>
        </source>
        <source id="geom-_Portal003-normals">
          <float_array id="geom-_Portal003-normals-array" count="72">0 0 -1 0 0 -1 0 0 -1 0 0 -1 0 0 1 0 0 1 0 0 1 0 0 1 0 -1 0 0 -1 0 0 -1 0 0 -1 0 1 0 0 1 0 0 1 0 0 1 0 0 0 1 0 0 1 0 0 1 0 0 1 0 -1 0 0 -1 0 0 -1 0 0 -1 0 0</float_array>
          <technique_common>
            <accessor source="#geom-_Portal003-normals-array" count="24" stride="3">
              <param name="X" type="float"/>
              <param name="Y" type="float"/>
              <param name="Z" type="float"/>
            </accessor>
          </technique_common>
        </source>
        <source id="geom-_Portal003-map1">
          <float_array id="geom-_Portal003-map1-array" count="36">0 0 0 1 0 0 0 1 0 1 1 0 0 0 0 1 0 0 0 1 0 1 1 0 0 0 0 1 0 0 0 1 0 1 1 0</float_array>
          <technique_common>
            <accessor source="#geom-_Portal003-map1-array" count="12" stride="3">
              <param name="S" type="float"/>
              <param name="T" type="float"/>
              <param name="P" type="float"/>
            </accessor>
          </technique_common>
        </source>
        <vertices id="geom-_Portal003-vertices">
          <input semantic="POSITION" source="#geom-_Portal003-positions"/>
        </vertices>
        <triangles material="ColorMaterial" count="12">
          <input semantic="VERTEX" source="#geom-_Portal003-vertices" offset="0"/>
          <input semantic="NORMAL" source="#geom-_Portal003-normals" offset="1"/>
          <input semantic="TEXCOORD" source="#geom-_Portal003-map1" offset="2" set="0"/>
          <p>0 0 9 2 1 11 3 2 10 3 2 10 1 3 8 0 0 9 4 4 8 5 5 9 7 6 11 7 6 11 6 7 10 4 4 8 0 8 4 1 9 5 5 10 7 5 10 7 4 11 6 0 8 4 1 12 0 3 13 1 7 14 3 7 14 3 5 15 2 1 12 0 3 16 4 2 17 5 6 18 7 6 18 7 7 19 6 3 16 4 2 20 0 0 21 1 4 22 3 4 22 3 6 23 2 2 20 0</p>
        </triangles>
      </mesh>
      <extra>
        <technique profile="OpenCOLLADA3dsMax">
          <max_box>
            <generateuvs>1</generateuvs>
            <height>5</height>
            <heightsegments>1</heightsegments>
            <length>5</length>
            <lengthsegments>1</lengthsegments>
            <width>0.5</width>
            <widthsegments>1</widthsegments>
          </max_box>
        </technique>
      </extra>
    </geometry>
    <geometry id="geom-Box003" name="Box003">
      <mesh>
        <source id="geom-Box003-positions">
          <float_array id="geom-Box003-positions-array" count="144">-15 -15 0 -7.5 -15 0 0 -15 0 7.5 -15 0 15 -15 0 -15 -7.5 0 -7.5 -7.5 0 0 -7.5 0 7.5 -7.5 0 15 -7.5 0 -15 0 0 -7.5 0 0 0 0 0 7.5 0 0 15 0 0 -15 7.5 0 -7.5 7.5 0 0 7.5 0 7.5 7.5 0 15 7.5 0 -15 15 0 -7.5 15 0 0 15 0 7.5 15 0 -15 -15 1 -7.5 -15 1 0 -15 1 7.5 -15 1 15 -15 1 -15 -7.5 1 -7.5 -7.5 1 0 -7.5 1 7.5 -7.5 1 15 -7.5 1 -15 0 1 -7.5 0 1 0 0 1 7.5 0 1 15 0 1 -15 7.5 1 -7.5 7.5 1 0 7.5 1 7.5 7.5 1 15 7.5 1 -15 15 1 -7.5 15 1 0 15 1 7.5 15 1</float_array>
          <technique_common>
            <accessor source="#geom-Box003-positions-array" count="48" stride="3">
              <param name="X" type="float"/>
              <param name="Y" type="float"/>
              <param name="Z" type="float"/>
            </accessor>
          </technique_common>
        </source>
        <source id="geom-Box003-normals">
          <float_array id="geom-Box003-normals-array" count="168">0 0 -1 0 0 -1 0 0 -1 0 0 -1 0 0 -1 0 0 -1 0 0 -1 0 0 -1 0 0 -1 0 0 -1 0 0 -1 0 0 -1 0 0 -1 0 0 -1 0 0 -1 0 0 -1 0 0 -1 0 0 -1 0 0 -1 0 0 -1 0 0 -1 0 0 -1 0 0 -1 0 0 -1 0 0 1 0 0 1 0 0 1 0 0 1 0 0 1 0 0 1 0 0 1 0 0 1 0 0 1 0 0 1 0 0 1 0 0 1 0 0 1 0 0 1 0 0 1 0 0 1 0 0 1 0 0 1 0 0 1 0 0 1 0 0 1 0 0 1 0 0 1 0 0 1 1 0 0 1 0 0 1 0 0 1 0 0 0 1 0 0 1 0 0 1 0 0 1 0</float_array>
          <technique_common>
            <accessor source="#geom-Box003-normals-array" count="56" stride="3">
              <param name="X" type="float"/>
              <param name="Y" type="float"/>
              <param name="Z" type="float"/>
            </accessor>
          </technique_common>
        </source>
        <source id="geom-Box003-map1">
          <float_array id="geom-Box003-map1-array" count="144">1 0 0 0.75 0 0 0.5 0 0 0.25 0 0 0 0 0 1 0.25 0 0.75 0.25 0 0.5 0.25 0 0.25 0.25 0 0 0.25 0 1 0.5 0 0.75 0.5 0 0.5 0.5 0 0.25 0.5 0 0 0.5 0 1 0.75 0 0.75 0.75 0 0.5 0.75 0 0.25 0.75 0 0 0.75 0 1 1 0 0.75 1 0 0.5 1 0 0.25 1 0 0 0 0 0.25 0 0 0.5 0 0 0.75 0 0 1 0 0 0 0.25 0 0.25 0.25 0 0.5 0.25 0 0.75 0.25 0 1 0.25 0 0 0.5 0 0.25 0.5 0 0.5 0.5 0 0.75 0.5 0 1 0.5 0 0 0.75 0 0.25 0.75 0 0.5 0.75 0 0.75 0.75 0 1 0.75 0 0 1 0 0.25 1 0 0.5 1 0 0.75 1 0</float_array>
          <technique_common>
            <accessor source="#geom-Box003-map1-array" count="48" stride="3">
              <param name="S" type="float"/>
              <param name="T" type="float"/>
              <param name="P" type="float"/>
            </accessor>
          </technique_common>
        </source>
        <vertices id="geom-Box003-vertices">
          <input semantic="POSITION" source="#geom-Box003-positions"/>
        </vertices>
        <triangles material="ColorMaterial" count="64">
          <input semantic="VERTEX" source="#geom-Box003-vertices" offset="0"/>
          <input semantic="NORMAL" source="#geom-Box003-normals" offset="1"/>
          <input semantic="TEXCOORD" source="#geom-Box003-map1" offset="2" set="0"/>
          <p>0 0 0 5 1 5 6 2 6 6 2 6 1 3 1 0 0 0 1 3 1 6 2 6 7 4 7 7 4 7 2 5 2 1 3 1 2 5 2 7 4 7 8 6 8 8 6 8 3 7 3 2 5 2 3 7 3 8 6 8 9 8 9 9 8 9 4 9 4 3 7 3 5 1 5 10 10 10 11 11 11 11 11 11 6 2 6 5 1 5 6 2 6 11 11 11 12 12 12 12 12 12 7 4 7 6 2 6 7 4 7 12 12 12 13 13 13 13 13 13 8 6 8 7 4 7 8 6 8 13 13 13 14 14 14 14 14 14 9 8 9 8 6 8 10 10 10 15 15 15 16 16 16 16 16 16 11 11 11 10 10 10 11 11 11 16 16 16 17 17 17 17 17 17 12 12 12 11 11 11 12 12 12 17 17 17 18 18 18 18 18 18 13 13 13 12 12 12 13 13 13 18 18 18 19 19 19 19 19 19 14 14 14 13 13 13 15 15 15 20 20 20 21 21 21 21 21 21 16 16 16 15 15 15 16 16 16 21 21 21 22 22 22 22 22 22 17 17 17 16 16 16 17 17 17 22 22 22 23 23 23 23 23 23 18 18 18 17 17 17 24 24 24 25 25 25 30 26 30 30 26 30 29 27 29 24 24 24 25 25 25 26 28 26 31 29 31 31 29 31 30 26 30 25 25 25 26 28 26 27 30 27 32 31 32 32 31 32 31 29 31 26 28 26 27 30 27 28 32 28 33 33 33 33 33 33 32 31 32 27 30 27 29 27 29 30 26 30 35 34 35 35 34 35 34 35 34 29 27 29 30 26 30 31 29 31 36 36 36 36 36 36 35 34 35 30 26 30 31 29 31 32 31 32 37 37 37 37 37 37 36 36 36 31 29 31 32 31 32 33 33 33 38 38 38 38 38 38 37 37 37 32 31 32 34 35 34 35 34 35 40 39 40 40 39 40 39 40 39 34 35 34 35 34 35 36 36 36 41 41 41 41 41 41 40 39 40 35 34 35 36 36 36 37 37 37 42 42 42 42 42 42 41 41 41 36 36 36 37 37 37 38 38 38 43 43 43 43 43 43 42 42 42 37 37 37 39 40 39 40 39 40 45 44 45 45 44 45 44 45 44 39 40 39 40 39 40 41 41 41 46 46 46 46 46 46 45 44 45 40 39 40 41 41 41 42 42 42 47 47 47 47 47 47 46 46 46 41 41 41 42 48 42 18 49 18 23 50 23 23 50 23 47 51 47 42 48 42 43 52 43 19 53 19 18 54 18 18 54 18 42 55 42 43 52 43</p>
        </triangles>
      </mesh>
    </geometry>
    <geometry id="geom-Box004" name="Box004">
      <mesh>
        <source id="geom-Box004-positions">
          <float_array id="geom-Box004-positions-array" count="144">-15 -15 0 -7.5 -15 0 0 -15 0 7.5 -15 0 15 -15 0 -15 -7.5 0 -7.5 -7.5 0 0 -7.5 0 7.5 -7.5 0 15 -7.5 0 -15 0 0 -7.5 0 0 0 0 0 7.5 0 0 15 0 0 -15 7.5 0 -7.5 7.5 0 0 7.5 0 7.5 7.5 0 15 7.5 0 -7.5 15 0 0 15 0 7.5 15 0 15 15 0 -15 -15 1 -7.5 -15 1 0 -15 1 7.5 -15 1 15 -15 1 -15 -7.5 1 -7.5 -7.5 1 0 -7.5 1 7.5 -7.5 1 15 -7.5 1 -15 0 1 -7.5 0 1 0 0 1 7.5 0 1 15 0 1 -15 7.5 1 -7.5 7.5 1 0 7.5 1 7.5 7.5 1 15 7.5 1 -7.5 15 1 0 15 1 7.5 15 1 15 15 1</float_array>
          <technique_common>
            <accessor source="#geom-Box004-positions-array" count="48" stride="3">
              <param name="X" type="float"/>
              <param name="Y" type="float"/>
              <param name="Z" type="float"/>
            </accessor>
          </technique_common>
        </source>
        <source id="geom-Box004-normals">
          <float_array id="geom-Box004-normals-array" count="168">0 0 -1 0 0 -1 0 0 -1 0 0 -1 0 0 -1 0 0 -1 0 0 -1 0 0 -1 0 0 -1 0 0 -1 0 0 -1 0 0 -1 0 0 -1 0 0 -1 0 0 -1 0 0 -1 0 0 -1 0 0 -1 0 0 -1 0 0 -1 0 0 -1 0 0 -1 0 0 -1 0 0 -1 0 0 1 0 0 1 0 0 1 0 0 1 0 0 1 0 0 1 0 0 1 0 0 1 0 0 1 0 0 1 0 0 1 0 0 1 0 0 1 0 0 1 0 0 1 0 0 1 0 0 1 0 0 1 0 0 1 0 0 1 0 0 1 0 0 1 0 0 1 0 0 1 0 1 0 0 1 0 0 1 0 0 1 0 -1 0 0 -1 0 0 -1 0 0 -1 0 0</float_array>
          <technique_common>
            <accessor source="#geom-Box004-normals-array" count="56" stride="3">
              <param name="X" type="float"/>
              <param name="Y" type="float"/>
              <param name="Z" type="float"/>
            </accessor>
          </technique_common>
        </source>
        <source id="geom-Box004-map1">
          <float_array id="geom-Box004-map1-array" count="144">1 0 0 0.75 0 0 0.5 0 0 0.25 0 0 0 0 0 1 0.25 0 0.75 0.25 0 0.5 0.25 0 0.25 0.25 0 0 0.25 0 1 0.5 0 0.75 0.5 0 0.5 0.5 0 0.25 0.5 0 0 0.5 0 1 0.75 0 0.75 0.75 0 0.5 0.75 0 0.25 0.75 0 0 0.75 0 0.75 1 0 0.5 1 0 0.25 1 0 0 1 0 0 0 0 0.25 0 0 0.5 0 0 0.75 0 0 1 0 0 0 0.25 0 0.25 0.25 0 0.5 0.25 0 0.75 0.25 0 1 0.25 0 0 0.5 0 0.25 0.5 0 0.5 0.5 0 0.75 0.5 0 1 0.5 0 0 0.75 0 0.25 0.75 0 0.5 0.75 0 0.75 0.75 0 1 0.75 0 0.25 1 0 0.5 1 0 0.75 1 0 1 1 0</float_array>
          <technique_common>
            <accessor source="#geom-Box004-map1-array" count="48" stride="3">
              <param name="S" type="float"/>
              <param name="T" type="float"/>
              <param name="P" type="float"/>
            </accessor>
          </technique_common>
        </source>
        <vertices id="geom-Box004-vertices">
          <input semantic="POSITION" source="#geom-Box004-positions"/>
        </vertices>
        <triangles material="ColorMaterial" count="64">
          <input semantic="VERTEX" source="#geom-Box004-vertices" offset="0"/>
          <input semantic="NORMAL" source="#geom-Box004-normals" offset="1"/>
          <input semantic="TEXCOORD" source="#geom-Box004-map1" offset="2" set="0"/>
          <p>0 0 0 5 1 5 6 2 6 6 2 6 1 3 1 0 0 0 1 3 1 6 2 6 7 4 7 7 4 7 2 5 2 1 3 1 2 5 2 7 4 7 8 6 8 8 6 8 3 7 3 2 5 2 3 7 3 8 6 8 9 8 9 9 8 9 4 9 4 3 7 3 5 1 5 10 10 10 11 11 11 11 11 11 6 2 6 5 1 5 6 2 6 11 11 11 12 12 12 12 12 12 7 4 7 6 2 6 7 4 7 12 12 12 13 13 13 13 13 13 8 6 8 7 4 7 8 6 8 13 13 13 14 14 14 14 14 14 9 8 9 8 6 8 10 10 10 15 15 15 16 16 16 16 16 16 11 11 11 10 10 10 11 11 11 16 16 16 17 17 17 17 17 17 12 12 12 11 11 11 12 12 12 17 17 17 18 18 18 18 18 18 13 13 13 12 12 12 13 13 13 18 18 18 19 19 19 19 19 19 14 14 14 13 13 13 16 16 16 20 20 20 21 21 21 21 21 21 17 17 17 16 16 16 17 17 17 21 21 21 22 22 22 22 22 22 18 18 18 17 17 17 18 18 18 22 22 22 23 23 23 23 23 23 19 19 19 18 18 18 24 24 24 25 25 25 30 26 30 30 26 30 29 27 29 24 24 24 25 25 25 26 28 26 31 29 31 31 29 31 30 26 30 25 25 25 26 28 26 27 30 27 32 31 32 32 31 32 31 29 31 26 28 26 27 30 27 28 32 28 33 33 33 33 33 33 32 31 32 27 30 27 29 27 29 30 26 30 35 34 35 35 34 35 34 35 34 29 27 29 30 26 30 31 29 31 36 36 36 36 36 36 35 34 35 30 26 30 31 29 31 32 31 32 37 37 37 37 37 37 36 36 36 31 29 31 32 31 32 33 33 33 38 38 38 38 38 38 37 37 37 32 31 32 34 35 34 35 34 35 40 39 40 40 39 40 39 40 39 34 35 34 35 34 35 36 36 36 41 41 41 41 41 41 40 39 40 35 34 35 36 36 36 37 37 37 42 42 42 42 42 42 41 41 41 36 36 36 37 37 37 38 38 38 43 43 43 43 43 43 42 42 42 37 37 37 40 39 40 41 41 41 45 44 45 45 44 45 44 45 44 40 39 40 41 41 41 42 42 42 46 46 46 46 46 46 45 44 45 41 41 41 42 42 42 43 43 43 47 47 47 47 47 47 46 46 46 42 42 42 40 48 40 16 49 16 15 50 15 15 50 15 39 51 39 40 48 40 44 52 44 20 53 20 16 54 16 16 54 16 40 55 40 44 52 44</p>
        </triangles>
      </mesh>
    </geometry>
    <geometry id="geom-Box005" name="Box005">
      <mesh>
        <source id="geom-Box005-positions">
          <float_array id="geom-Box005-positions-array" count="108">-15 -0.5 0 -7.5 -0.5 0 0 -0.5 0 7.5 -0.5 0 15 -0.5 0 -15 0.5 0 -7.5 0.5 0 0 0.5 0 7.5 0.5 0 15 0.5 0 -7.5 -0.5 19 0 -0.5 19 7.5 -0.5 19 -7.5 0.5 19 0 0.5 19 7.5 0.5 19 -15 -0.5 6.333333 -7.5 -0.5 6.333333 0 -0.5 6.333333 7.5 -0.5 6.333333 15 -0.5 6.333333 15 0.5 6.333333 7.5 0.5 6.333333 0 0.5 6.333333 -7.5 0.5 6.333333 -15 0.5 6.333333 -15 -0.5 12.66667 -7.5 -0.5 12.66667 0 -0.5 12.66667 7.5 -0.5 12.66667 15 -0.5 12.66667 15 0.5 12.66667 7.5 0.5 12.66667 0 0.5 12.66667 -7.5 0.5 12.66667 -15 0.5 12.66667</float_array>
          <technique_common>
            <accessor source="#geom-Box005-positions-array" count="36" stride="3">
              <param name="X" type="float"/>
              <param name="Y" type="float"/>
              <param name="Z" type="float"/>
            </accessor>
          </technique_common>
        </source>
        <source id="geom-Box005-normals">
          <float_array id="geom-Box005-normals-array" count="156">0 -0.9999999 0 0 -1 0 0 -0.9999999 0 0 -1 0 0 -1 0 0 -0.9999999 0 0 -1 0 0 -0.9999999 0 0 -1 0 0 -0.9999999 0 0 -1 0 0 -1 0 0 -0.9999999 0 0 -1 0 0 -0.9999999 0 0 -1 0 0 -1 0 0 -1 0 0 0.9999999 0 0 1 0 0 0.9999999 0 0 1 0 0 1 0 0 0.9999999 0 0 1 0 0 0.9999999 0 0 1 0 0 0.9999999 0 0 1 0 0 1 0 0 0.9999999 0 0 1 0 0 0.9999999 0 0 1 0 0 1 0 0 1 0 0 0 1 0 0 1 0 0 1 0 0 1 1 0 0 1 0 0 1 0 0 1 0 0 0 0 1 0 0 1 0 0 1 0 0 1 -1 0 0 -1 0 0 -1 0 0 -1 0 0</float_array>
          <technique_common>
            <accessor source="#geom-Box005-normals-array" count="52" stride="3">
              <param name="X" type="float"/>
              <param name="Y" type="float"/>
              <param name="Z" type="float"/>
            </accessor>
          </technique_common>
        </source>
        <source id="geom-Box005-map1">
          <float_array id="geom-Box005-map1-array" count="108">0 0 0 0.25 0 0 0.5 0 0 0.75 0 0 1 0 0 0 0.3333333 0 0.25 0.3333333 0 0.5 0.3333333 0 0.75 0.3333333 0 1 0.3333333 0 0 0.6666667 0 0.25 0.6666667 0 0.5 0.6666667 0 0.75 0.6666667 0 1 0.6666667 0 0.25 1 0 0.5 1 0 0.75 1 0 0 0 0 0.25 0 0 0.5 0 0 0.75 0 0 1 0 0 0 0.3333333 0 0.25 0.3333333 0 0.5 0.3333333 0 0.75 0.3333333 0 1 0.3333333 0 0 0.6666667 0 0.25 0.6666667 0 0.5 0.6666667 0 0.75 0.6666667 0 1 0.6666667 0 0.25 1 0 0.5 1 0 0.75 1 0</float_array>
          <technique_common>
            <accessor source="#geom-Box005-map1-array" count="36" stride="3">
              <param name="S" type="float"/>
              <param name="T" type="float"/>
              <param name="P" type="float"/>
            </accessor>
          </technique_common>
        </source>
        <vertices id="geom-Box005-vertices">
          <input semantic="POSITION" source="#geom-Box005-positions"/>
        </vertices>
        <triangles material="ColorMaterial" count="48">
          <input semantic="VERTEX" source="#geom-Box005-vertices" offset="0"/>
          <input semantic="NORMAL" source="#geom-Box005-normals" offset="1"/>
          <input semantic="TEXCOORD" source="#geom-Box005-map1" offset="2" set="0"/>
          <p>0 0 0 1 1 1 17 2 6 17 2 6 16 3 5 0 0 0 1 1 1 2 4 2 18 5 7 18 5 7 17 2 6 1 1 1 2 4 2 3 6 3 19 7 8 19 7 8 18 5 7 2 4 2 3 6 3 4 8 4 20 9 9 20 9 9 19 7 8 3 6 3 16 3 5 17 2 6 27 10 11 27 10 11 26 11 10 16 3 5 17 2 6 18 5 7 28 12 12 28 12 12 27 10 11 17 2 6 18 5 7 19 7 8 29 13 13 29 13 13 28 12 12 18 5 7 19 7 8 20 9 9 30 14 14 30 14 14 29 13 13 19 7 8 27 10 11 28 12 12 11 15 16 11 15 16 10 16 15 27 10 11 28 12 12 29 13 13 12 17 17 12 17 17 11 15 16 28 12 12 9 18 18 8 19 19 22 20 24 22 20 24 21 21 23 9 18 18 8 19 19 7 22 20 23 23 25 23 23 25 22 20 24 8 19 19 7 22 20 6 24 21 24 25 26 24 25 26 23 23 25 7 22 20 6 24 21 5 26 22 25 27 27 25 27 27 24 25 26 6 24 21 21 21 23 22 20 24 32 28 29 32 28 29 31 29 28 21 21 23 22 20 24 23 23 25 33 30 30 33 30 30 32 28 29 22 20 24 23 23 25 24 25 26 34 31 31 34 31 31 33 30 30 23 23 25 24 25 26 25 27 27 35 32 32 35 32 32 34 31 31 24 25 26 32 28 29 33 30 30 14 33 34 14 33 34 15 34 33 32 28 29 33 30 30 34 31 31 13 35 35 13 35 35 14 33 34 33 30 30 32 36 32 29 37 29 30 38 30 30 38 30 31 39 31 32 36 32 15 40 15 12 41 12 29 42 29 29 42 29 32 43 32 15 40 15 35 44 35 26 45 26 27 46 27 27 46 27 34 47 34 35 44 35 34 48 34 27 49 27 10 50 10 10 50 10 13 51 13 34 48 34</p>
        </triangles>
      </mesh>
    </geometry>
    <geometry id="geom-Box006" name="Box006">
      <mesh>
        <source id="geom-Box006-positions">
          <float_array id="geom-Box006-positions-array" count="24">-12.25 -0.5 0 12.25 -0.5 0 -12.25 0.5 0 12.25 0.5 0 -12.25 -0.5 19 12.25 -0.5 19 -12.25 0.5 19 12.25 0.5 19</float_array>
          <technique_common>
            <accessor source="#geom-Box006-positions-array" count="8" stride="3">
              <param name="X" type="float"/>
              <param name="Y" type="float"/>
              <param name="Z" type="float"/>
            </accessor>
          </technique_common>
        </source>
        <source id="geom-Box006-normals">
          <float_array id="geom-Box006-normals-array" count="24">0 -1 0 0 -1 0 0 -1 0 0 -1 0 0 1 0 0 1 0 0 1 0 0 1 0</float_array>
          <technique_common>
            <accessor source="#geom-Box006-normals-array" count="8" stride="3">
              <param name="X" type="float"/>
              <param name="Y" type="float"/>
              <param name="Z" type="float"/>
            </accessor>
          </technique_common>
        </source>
        <source id="geom-Box006-map1">
          <float_array id="geom-Box006-map1-array" count="24">0 0 0 1 0 0 0 1 0 1 1 0 0 0 0 1 0 0 0 1 0 1 1 0</float_array>
          <technique_common>
            <accessor source="#geom-Box006-map1-array" count="8" stride="3">
              <param name="S" type="float"/>
              <param name="T" type="float"/>
              <param name="P" type="float"/>
            </accessor>
          </technique_common>
        </source>
        <vertices id="geom-Box006-vertices">
          <input semantic="POSITION" source="#geom-Box006-positions"/>
        </vertices>
        <triangles material="ColorMaterial" count="4">
          <input semantic="VERTEX" source="#geom-Box006-vertices" offset="0"/>
          <input semantic="NORMAL" source="#geom-Box006-normals" offset="1"/>
          <input semantic="TEXCOORD" source="#geom-Box006-map1" offset="2" set="0"/>
          <p>0 0 0 1 1 1 5 2 3 5 2 3 4 3 2 0 0 0 3 4 4 2 5 5 6 6 7 6 6 7 7 7 6 3 4 4</p>
        </triangles>
      </mesh>
    </geometry>
    <geometry id="geom-Pyramid001" name="Pyramid001">
      <mesh>
        <source id="geom-Pyramid001-positions">
          <float_array id="geom-Pyramid001-positions-array" count="15">0 0 5 -1.5 -1.5 0 1.5 -1.5 0 1.5 1.5 0 -1.5 1.5 0</float_array>
          <technique_common>
            <accessor source="#geom-Pyramid001-positions-array" count="5" stride="3">
              <param name="X" type="float"/>
              <param name="Y" type="float"/>
              <param name="Z" type="float"/>
            </accessor>
          </technique_common>
        </source>
        <source id="geom-Pyramid001-normals">
          <float_array id="geom-Pyramid001-normals-array" count="36">0 -0.9578263 0.2873479 0 -0.9578263 0.2873479 0 -0.9578263 0.2873479 0.9578263 0 0.2873479 0.9578263 0 0.2873479 0.9578263 0 0.2873479 0 0.9578263 0.2873479 0 0.9578263 0.2873479 0 0.9578263 0.2873479 -0.9578263 0 0.2873479 -0.9578263 0 0.2873479 -0.9578263 0 0.2873479</float_array>
          <technique_common>
            <accessor source="#geom-Pyramid001-normals-array" count="12" stride="3">
              <param name="X" type="float"/>
              <param name="Y" type="float"/>
              <param name="Z" type="float"/>
            </accessor>
          </technique_common>
        </source>
        <source id="geom-Pyramid001-map1">
          <float_array id="geom-Pyramid001-map1-array" count="21">0.5 0.9995005 0 0.25 4.99517e-4 1.412801 0.5 4.99517e-4 1.412801 0.75 4.99517e-4 1.412801 0.9999999 4.99517e-4 1.412801 1.25 4.99517e-4 1.412801 1.5 0.9995005 0</float_array>
          <technique_common>
            <accessor source="#geom-Pyramid001-map1-array" count="7" stride="3">
              <param name="S" type="float"/>
              <param name="T" type="float"/>
              <param name="P" type="float"/>
            </accessor>
          </technique_common>
        </source>
        <vertices id="geom-Pyramid001-vertices">
          <input semantic="POSITION" source="#geom-Pyramid001-positions"/>
        </vertices>
        <triangles material="_7_-_Default_1" count="4">
          <input semantic="VERTEX" source="#geom-Pyramid001-vertices" offset="0"/>
          <input semantic="NORMAL" source="#geom-Pyramid001-normals" offset="1"/>
          <input semantic="TEXCOORD" source="#geom-Pyramid001-map1" offset="2" set="0"/>
          <p>0 0 0 1 1 1 2 2 2 0 3 0 2 4 2 3 5 3 0 6 0 3 7 3 4 8 4 0 9 6 4 10 4 1 11 5</p>
        </triangles>
      </mesh>
    </geometry>
    <geometry id="geom-Pyramid002" name="Pyramid002">
      <mesh>
        <source id="geom-Pyramid002-positions">
          <float_array id="geom-Pyramid002-positions-array" count="15">0 0 5 -1.5 -1.5 0 1.5 -1.5 0 1.5 1.5 0 -1.5 1.5 0</float_array>
          <technique_common>
            <accessor source="#geom-Pyramid002-positions-array" count="5" stride="3">
              <param name="X" type="float"/>
              <param name="Y" type="float"/>
              <param name="Z" type="float"/>
            </accessor>
          </technique_common>
        </source>
        <source id="geom-Pyramid002-normals">
          <float_array id="geom-Pyramid002-normals-array" count="36">0 -0.9578263 0.2873479 0 -0.9578263 0.2873479 0 -0.9578263 0.2873479 0.9578263 0 0.2873479 0.9578263 0 0.2873479 0.9578263 0 0.2873479 0 0.9578263 0.2873479 0 0.9578263 0.2873479 0 0.9578263 0.2873479 -0.9578263 0 0.2873479 -0.9578263 0 0.2873479 -0.9578263 0 0.2873479</float_array>
          <technique_common>
            <accessor source="#geom-Pyramid002-normals-array" count="12" stride="3">
              <param name="X" type="float"/>
              <param name="Y" type="float"/>
              <param name="Z" type="float"/>
            </accessor>
          </technique_common>
        </source>
        <source id="geom-Pyramid002-map1">
          <float_array id="geom-Pyramid002-map1-array" count="21">0.5 0.9995005 0 0.7638889 4.99487e-4 1.412801 0.01388889 4.99487e-4 1.412801 0.2638889 4.99487e-4 1.412801 0.5138889 4.99487e-4 1.412801 1.013889 4.99487e-4 1.412801 1.5 0.9995005 0</float_array>
          <technique_common>
            <accessor source="#geom-Pyramid002-map1-array" count="7" stride="3">
              <param name="S" type="float"/>
              <param name="T" type="float"/>
              <param name="P" type="float"/>
            </accessor>
          </technique_common>
        </source>
        <vertices id="geom-Pyramid002-vertices">
          <input semantic="POSITION" source="#geom-Pyramid002-positions"/>
        </vertices>
        <triangles material="_7_-_Default" count="4">
          <input semantic="VERTEX" source="#geom-Pyramid002-vertices" offset="0"/>
          <input semantic="NORMAL" source="#geom-Pyramid002-normals" offset="1"/>
          <input semantic="TEXCOORD" source="#geom-Pyramid002-map1" offset="2" set="0"/>
          <p>0 0 6 1 1 1 2 2 5 0 3 0 2 4 2 3 5 3 0 6 0 3 7 3 4 8 4 0 9 0 4 10 4 1 11 1</p>
        </triangles>
      </mesh>
    </geometry>
  </library_geometries>
  <library_lights>
    <light id="EnvironmentAmbientLight" name="EnvironmentAmbientLight">
      <technique_common>
        <ambient>
          <color>0 0 0</color>
        </ambient>
      </technique_common>
    </light>
  </library_lights>
  <library_images>
    <image id="asphaltArrowUp_jpg">
      <init_from>./images/asphaltArrowUp.jpg</init_from>
    </image>
  </library_images>
  <library_visual_scenes>
    <visual_scene id="MaxScene">
      <node name="EnvironmentAmbientLight">
        <instance_light url="#EnvironmentAmbientLight"/>
      </node>
      <node id="node-Box002" name="Box002">
        <matrix>1 0 0 0 0 1 0 0 0 0 1 0 0 0 0 1</matrix>
        <instance_geometry url="#geom-Box002">
          <bind_material>
            <technique_common>
              <instance_material symbol="ColorMaterial" target="#ColorEffectR88G199B225-material"/>
            </technique_common>
          </bind_material>
        </instance_geometry>
      </node>
      <node id="node-_Portal001" name="_Portal001">
        <matrix>-4.37114e-8 1 0 0 -1 -4.37114e-8 0 -15 0 0 1 10 0 0 0 1</matrix>
        <instance_geometry url="#geom-_Portal001">
          <bind_material>
            <technique_common>
              <instance_material symbol="ColorMaterial" target="#ColorEffectR229G166B215-material"/>
            </technique_common>
          </bind_material>
        </instance_geometry>
      </node>
      <node id="node-_Portal002" name="_Portal002">
        <matrix>1.91069e-15 1 4.37114e-8 0 4.37114e-8 -4.37114e-8 1 -2.5 1 0 -4.37114e-8 0 0 0 0 1</matrix>
        <instance_geometry url="#geom-_Portal002">
          <bind_material>
            <technique_common>
              <instance_material symbol="ColorMaterial" target="#ColorEffectR229G166B215-material"/>
            </technique_common>
          </bind_material>
        </instance_geometry>
      </node>
      <node id="node-_Portal003" name="_Portal003">
        <matrix>1.91069e-15 1 4.37114e-8 0 4.37114e-8 -4.37114e-8 1 -2.5 1 0 -4.37114e-8 30 0 0 0 1</matrix>
        <instance_geometry url="#geom-_Portal003">
          <bind_material>
            <technique_common>
              <instance_material symbol="ColorMaterial" target="#ColorEffectR229G166B215-material"/>
            </technique_common>
          </bind_material>
        </instance_geometry>
      </node>
      <node id="node-Box003" name="Box003">
        <matrix>1 0 0 -2.93732e-4 0 1 0 0 0 0 1 5 0 0 0 1</matrix>
        <instance_geometry url="#geom-Box003">
          <bind_material>
            <technique_common>
              <instance_material symbol="ColorMaterial" target="#ColorEffectR134G59B8-material"/>
            </technique_common>
          </bind_material>
        </instance_geometry>
      </node>
      <node id="node-Box004" name="Box004">
        <matrix>1 0 0 -2.93732e-4 0 1 0 0 0 0 1 25 0 0 0 1</matrix>
        <instance_geometry url="#geom-Box004">
          <bind_material>
            <technique_common>
              <instance_material symbol="ColorMaterial" target="#ColorEffectR134G59B8-material"/>
            </technique_common>
          </bind_material>
        </instance_geometry>
      </node>
      <node id="node-Box005" name="Box005">
        <matrix>1 0 0 0 0 1 0 -10 0 0 1 6 0 0 0 1</matrix>
        <instance_geometry url="#geom-Box005">
          <bind_material>
            <technique_common>
              <instance_material symbol="ColorMaterial" target="#ColorEffectR140G88B225-material"/>
            </technique_common>
          </bind_material>
        </instance_geometry>
      </node>
      <node id="node-Box006" name="Box006">
        <matrix>-4.37114e-8 1 0 0 -1 -4.37114e-8 0 2.75 0 0 1 6 0 0 0 1</matrix>
        <instance_geometry url="#geom-Box006">
          <bind_material>
            <technique_common>
              <instance_material symbol="ColorMaterial" target="#ColorEffectR140G88B225-material"/>
            </technique_common>
          </bind_material>
        </instance_geometry>
      </node>
      <node id="node-Pyramid001" name="Pyramid001">
        <matrix>-1 0 -1.50996e-7 12 0 1 0 12 1.50996e-7 0 -1 25 0 0 0 1</matrix>
        <instance_geometry url="#geom-Pyramid001">
          <bind_material>
            <technique_common>
              <instance_material symbol="_7_-_Default_1" target="#_7_-_Default-material">
                <bind_vertex_input semantic="CHANNEL1" input_semantic="TEXCOORD" input_set="0"/>
              </instance_material>
            </technique_common>
          </bind_material>
        </instance_geometry>
      </node>
      <node id="node-Pyramid002" name="Pyramid002">
        <matrix>-1 2.27997e-14 1.50996e-7 -12 0 -1 1.50996e-7 12 1.50996e-7 1.50996e-7 1 6 0 0 0 1</matrix>
        <instance_geometry url="#geom-Pyramid002">
          <bind_material>
            <technique_common>
              <instance_material symbol="_7_-_Default" target="#_7_-_Default-material">
                <bind_vertex_input semantic="CHANNEL1" input_semantic="TEXCOORD" input_set="0"/>
              </instance_material>
            </technique_common>
          </bind_material>
        </instance_geometry>
      </node>
    </visual_scene>
  </library_visual_scenes>
  <scene>
    <instance_visual_scene url="#MaxScene"/>
  </scene>
</COLLADA>