<?xml version="1.0" encoding="utf-8"?>
<COLLADA xmlns="http://www.collada.org/2005/11/COLLADASchema" version="1.4.1">
  <asset>
    <contributor>
      <author>rlgross</author>
      <authoring_tool>OpenCOLLADA for 3ds Max;  Version: 1.3.0;  Revision: 788M;  Platform: x64;  Configuration: Release_Max2011_static</authoring_tool>
    </contributor>
    <created>2011-05-27T11:21:14</created>
    <modified>2011-05-27T11:21:14</modified>
    <unit name="inch" meter="0.0254"/>
    <up_axis>Z_UP</up_axis>
  </asset>
  <library_effects>
    <effect id="ColorEffectR229G166B215-material">
      <profile_COMMON>
        <technique sid="common">
          <phong>
            <emission>
              <color>0 0 0 1</color>
            </emission>
            <ambient>
              <color>0.8980392 0.6509804 0.8431373 1</color>
            </ambient>
            <diffuse>
              <color>0.8980392 0.6509804 0.8431373 1</color>
            </diffuse>
            <specular>
              <color>1 1 1 1</color>
            </specular>
            <shininess>
              <float>33.21928</float>
            </shininess>
            <reflective>
              <color>0 0 0 1</color>
            </reflective>
            <transparent opaque="A_ONE">
              <color>1 1 1 1</color>
            </transparent>
            <transparency>
              <float>1</float>
            </transparency>
          </phong>
        </technique>
      </profile_COMMON>
      <extra>
        <technique profile="OpenCOLLADA3dsMax">
          <extended_shader>
            <apply_reflection_dimming>0</apply_reflection_dimming>
            <dim_level>0</dim_level>
            <falloff_type>0</falloff_type>
            <index_of_refraction>1.5</index_of_refraction>
            <opacity_type>0</opacity_type>
            <reflection_level>3</reflection_level>
            <wire_size>1</wire_size>
            <wire_units>0</wire_units>
          </extended_shader>
          <shader>
            <ambient_diffuse_lock>1</ambient_diffuse_lock>
            <ambient_diffuse_texture_lock>1</ambient_diffuse_texture_lock>
            <diffuse_specular_lock>0</diffuse_specular_lock>
            <soften>0.1</soften>
            <use_self_illum_color>0</use_self_illum_color>
          </shader>
        </technique>
      </extra>
    </effect>
    <effect id="ColorEffectR228G214B153-material">
      <profile_COMMON>
        <technique sid="common">
          <phong>
            <emission>
              <color>0 0 0 1</color>
            </emission>
            <ambient>
              <color>0.8941176 0.8392157 0.6 1</color>
            </ambient>
            <diffuse>
              <color>0.8941176 0.8392157 0.6 1</color>
            </diffuse>
            <specular>
              <color>1 1 1 1</color>
            </specular>
            <shininess>
              <float>33.21928</float>
            </shininess>
            <reflective>
              <color>0 0 0 1</color>
            </reflective>
            <transparent opaque="A_ONE">
              <color>1 1 1 1</color>
            </transparent>
            <transparency>
              <float>1</float>
            </transparency>
          </phong>
        </technique>
      </profile_COMMON>
      <extra>
        <technique profile="OpenCOLLADA3dsMax">
          <extended_shader>
            <apply_reflection_dimming>0</apply_reflection_dimming>
            <dim_level>0</dim_level>
            <falloff_type>0</falloff_type>
            <index_of_refraction>1.5</index_of_refraction>
            <opacity_type>0</opacity_type>
            <reflection_level>3</reflection_level>
            <wire_size>1</wire_size>
            <wire_units>0</wire_units>
          </extended_shader>
          <shader>
            <ambient_diffuse_lock>1</ambient_diffuse_lock>
            <ambient_diffuse_texture_lock>1</ambient_diffuse_texture_lock>
            <diffuse_specular_lock>0</diffuse_specular_lock>
            <soften>0.1</soften>
            <use_self_illum_color>0</use_self_illum_color>
          </shader>
        </technique>
      </extra>
    </effect>
    <effect id="ColorEffectR228G153B184-material">
      <profile_COMMON>
        <technique sid="common">
          <phong>
            <emission>
              <color>0 0 0 1</color>
            </emission>
            <ambient>
              <color>0.8941176 0.6 0.7215686 1</color>
            </ambient>
            <diffuse>
              <color>0.8941176 0.6 0.7215686 1</color>
            </diffuse>
            <specular>
              <color>1 1 1 1</color>
            </specular>
            <shininess>
              <float>33.21928</float>
            </shininess>
            <reflective>
              <color>0 0 0 1</color>
            </reflective>
            <transparent opaque="A_ONE">
              <color>1 1 1 1</color>
            </transparent>
            <transparency>
              <float>1</float>
            </transparency>
          </phong>
        </technique>
      </profile_COMMON>
      <extra>
        <technique profile="OpenCOLLADA3dsMax">
          <extended_shader>
            <apply_reflection_dimming>0</apply_reflection_dimming>
            <dim_level>0</dim_level>
            <falloff_type>0</falloff_type>
            <index_of_refraction>1.5</index_of_refraction>
            <opacity_type>0</opacity_type>
            <reflection_level>3</reflection_level>
            <wire_size>1</wire_size>
            <wire_units>0</wire_units>
          </extended_shader>
          <shader>
            <ambient_diffuse_lock>1</ambient_diffuse_lock>
            <ambient_diffuse_texture_lock>1</ambient_diffuse_texture_lock>
            <diffuse_specular_lock>0</diffuse_specular_lock>
            <soften>0.1</soften>
            <use_self_illum_color>0</use_self_illum_color>
          </shader>
        </technique>
      </extra>
    </effect>
  </library_effects>
  <library_materials>
    <material id="ColorEffectR229G166B215-material-material" name="ColorEffectR229G166B215-material">
      <instance_effect url="#ColorEffectR229G166B215-material"/>
    </material>
    <material id="ColorEffectR228G214B153-material-material" name="ColorEffectR228G214B153-material">
      <instance_effect url="#ColorEffectR228G214B153-material"/>
    </material>
    <material id="ColorEffectR228G153B184-material-material" name="ColorEffectR228G153B184-material">
      <instance_effect url="#ColorEffectR228G153B184-material"/>
    </material>
  </library_materials>
  <library_geometries>
    <geometry id="geom-Plane001" name="Plane001">
      <mesh>
        <source id="geom-Plane001-positions">
          <float_array id="geom-Plane001-positions-array" count="12">-7.5 -10 0 7.5 -10 0 -7.5 10 0 7.5 10 0</float_array>
          <technique_common>
            <accessor source="#geom-Plane001-positions-array" count="4" stride="3">
              <param name="X" type="float"/>
              <param name="Y" type="float"/>
              <param name="Z" type="float"/>
            </accessor>
          </technique_common>
        </source>
        <source id="geom-Plane001-normals">
          <float_array id="geom-Plane001-normals-array" count="12">0 0 1 0 0 0.9999999 0 0 0.9999999 0 0 1</float_array>
          <technique_common>
            <accessor source="#geom-Plane001-normals-array" count="4" stride="3">
              <param name="X" type="float"/>
              <param name="Y" type="float"/>
              <param name="Z" type="float"/>
            </accessor>
          </technique_common>
        </source>
        <source id="geom-Plane001-map1">
          <float_array id="geom-Plane001-map1-array" count="24">0 0 0 1 0 0 0 0 0 1 0 0 0 0 0 1 0 0 0 1 0 1 1 0</float_array>
          <technique_common>
            <accessor source="#geom-Plane001-map1-array" count="8" stride="3">
              <param name="S" type="float"/>
              <param name="T" type="float"/>
              <param name="P" type="float"/>
            </accessor>
          </technique_common>
        </source>
        <vertices id="geom-Plane001-vertices">
          <input semantic="POSITION" source="#geom-Plane001-positions"/>
        </vertices>
        <triangles material="ColorEffectR229G166B215-material" count="2">
          <input semantic="VERTEX" source="#geom-Plane001-vertices" offset="0"/>
          <input semantic="NORMAL" source="#geom-Plane001-normals" offset="1"/>
          <input semantic="TEXCOORD" source="#geom-Plane001-map1" offset="2" set="0"/>
          <p>2 0 6 0 1 4 3 2 7 1 3 5 3 2 7 0 1 4</p>
        </triangles>
      </mesh>
    </geometry>
    <geometry id="geom-Plane002" name="Plane002">
      <mesh>
        <source id="geom-Plane002-positions">
          <float_array id="geom-Plane002-positions-array" count="12">-3.75 -10 0 3.75 -10 0 -3.75 10 0 3.75 10 0</float_array>
          <technique_common>
            <accessor source="#geom-Plane002-positions-array" count="4" stride="3">
              <param name="X" type="float"/>
              <param name="Y" type="float"/>
              <param name="Z" type="float"/>
            </accessor>
          </technique_common>
        </source>
        <source id="geom-Plane002-normals">
          <float_array id="geom-Plane002-normals-array" count="12">0 0 1 0 0 0.9999999 0 0 0.9999999 0 0 1</float_array>
          <technique_common>
            <accessor source="#geom-Plane002-normals-array" count="4" stride="3">
              <param name="X" type="float"/>
              <param name="Y" type="float"/>
              <param name="Z" type="float"/>
            </accessor>
          </technique_common>
        </source>
        <source id="geom-Plane002-map1">
          <float_array id="geom-Plane002-map1-array" count="24">0 0 0 1 0 0 0 0 0 1 0 0 0 0 0 1 0 0 0 1 0 1 1 0</float_array>
          <technique_common>
            <accessor source="#geom-Plane002-map1-array" count="8" stride="3">
              <param name="S" type="float"/>
              <param name="T" type="float"/>
              <param name="P" type="float"/>
            </accessor>
          </technique_common>
        </source>
        <vertices id="geom-Plane002-vertices">
          <input semantic="POSITION" source="#geom-Plane002-positions"/>
        </vertices>
        <triangles material="ColorEffectR228G214B153-material" count="2">
          <input semantic="VERTEX" source="#geom-Plane002-vertices" offset="0"/>
          <input semantic="NORMAL" source="#geom-Plane002-normals" offset="1"/>
          <input semantic="TEXCOORD" source="#geom-Plane002-map1" offset="2" set="0"/>
          <p>2 0 6 0 1 4 3 2 7 1 3 5 3 2 7 0 1 4</p>
        </triangles>
      </mesh>
    </geometry>
    <geometry id="geom-Plane003" name="Plane003">
      <mesh>
        <source id="geom-Plane003-positions">
          <float_array id="geom-Plane003-positions-array" count="12">-3.75 -10 0 3.75 -10 0 -3.75 10 0 3.75 10 0</float_array>
          <technique_common>
            <accessor source="#geom-Plane003-positions-array" count="4" stride="3">
              <param name="X" type="float"/>
              <param name="Y" type="float"/>
              <param name="Z" type="float"/>
            </accessor>
          </technique_common>
        </source>
        <source id="geom-Plane003-normals">
          <float_array id="geom-Plane003-normals-array" count="12">0 0 1 0 0 0.9999999 0 0 0.9999999 0 0 1</float_array>
          <technique_common>
            <accessor source="#geom-Plane003-normals-array" count="4" stride="3">
              <param name="X" type="float"/>
              <param name="Y" type="float"/>
              <param name="Z" type="float"/>
            </accessor>
          </technique_common>
        </source>
        <source id="geom-Plane003-map1">
          <float_array id="geom-Plane003-map1-array" count="24">0 0 0 1 0 0 0 0 0 1 0 0 0 0 0 1 0 0 0 1 0 1 1 0</float_array>
          <technique_common>
            <accessor source="#geom-Plane003-map1-array" count="8" stride="3">
              <param name="S" type="float"/>
              <param name="T" type="float"/>
              <param name="P" type="float"/>
            </accessor>
          </technique_common>
        </source>
        <vertices id="geom-Plane003-vertices">
          <input semantic="POSITION" source="#geom-Plane003-positions"/>
        </vertices>
        <triangles material="ColorEffectR228G214B153-material" count="2">
          <input semantic="VERTEX" source="#geom-Plane003-vertices" offset="0"/>
          <input semantic="NORMAL" source="#geom-Plane003-normals" offset="1"/>
          <input semantic="TEXCOORD" source="#geom-Plane003-map1" offset="2" set="0"/>
          <p>2 0 6 0 1 4 3 2 7 1 3 5 3 2 7 0 1 4</p>
        </triangles>
      </mesh>
    </geometry>
    <geometry id="geom-Plane004" name="Plane004">
      <mesh>
        <source id="geom-Plane004-positions">
          <float_array id="geom-Plane004-positions-array" count="12">-7.5 -10 0 7.5 -10 0 -7.5 10 0 7.5 10 0</float_array>
          <technique_common>
            <accessor source="#geom-Plane004-positions-array" count="4" stride="3">
              <param name="X" type="float"/>
              <param name="Y" type="float"/>
              <param name="Z" type="float"/>
            </accessor>
          </technique_common>
        </source>
        <source id="geom-Plane004-normals">
          <float_array id="geom-Plane004-normals-array" count="12">0 0 1 0 0 0.9999999 0 0 0.9999999 0 0 1</float_array>
          <technique_common>
            <accessor source="#geom-Plane004-normals-array" count="4" stride="3">
              <param name="X" type="float"/>
              <param name="Y" type="float"/>
              <param name="Z" type="float"/>
            </accessor>
          </technique_common>
        </source>
        <source id="geom-Plane004-map1">
          <float_array id="geom-Plane004-map1-array" count="24">0 0 0 1 0 0 0 0 0 1 0 0 0 0 0 1 0 0 0 1 0 1 1 0</float_array>
          <technique_common>
            <accessor source="#geom-Plane004-map1-array" count="8" stride="3">
              <param name="S" type="float"/>
              <param name="T" type="float"/>
              <param name="P" type="float"/>
            </accessor>
          </technique_common>
        </source>
        <vertices id="geom-Plane004-vertices">
          <input semantic="POSITION" source="#geom-Plane004-positions"/>
        </vertices>
        <triangles material="ColorEffectR229G166B215-material" count="2">
          <input semantic="VERTEX" source="#geom-Plane004-vertices" offset="0"/>
          <input semantic="NORMAL" source="#geom-Plane004-normals" offset="1"/>
          <input semantic="TEXCOORD" source="#geom-Plane004-map1" offset="2" set="0"/>
          <p>2 0 6 0 1 4 3 2 7 1 3 5 3 2 7 0 1 4</p>
        </triangles>
      </mesh>
    </geometry>
    <geometry id="geom-Plane005" name="Plane005">
      <mesh>
        <source id="geom-Plane005-positions">
          <float_array id="geom-Plane005-positions-array" count="30">-3.75 -7.5 0 3.75 -7.5 0 -3.75 7.5 0 3.75 7.5 0 -3.75 2.499999 0 -3.75 -2.500001 0 1.25 7.39098e-6 0 1.25 -2.500001 0 1.25 2.5 0 -1.25 -2.500001 0</float_array>
          <technique_common>
            <accessor source="#geom-Plane005-positions-array" count="10" stride="3">
              <param name="X" type="float"/>
              <param name="Y" type="float"/>
              <param name="Z" type="float"/>
            </accessor>
          </technique_common>
        </source>
        <source id="geom-Plane005-normals">
          <float_array id="geom-Plane005-normals-array" count="72">0 0 1 0 0 1 0 0 1 0 0 1 0 0 1 0 0 1 0 0 1 0 0 1 0 0 1 0 0 1 0 0 1 0 0 1 0 0 1 0 0 1 0 0 1 0 0 1 0 0 1 0 0 1 0 0 1 0 0 1 0 0 1 0 0 1 0 0 1 0 0 1</float_array>
          <technique_common>
            <accessor source="#geom-Plane005-normals-array" count="24" stride="3">
              <param name="X" type="float"/>
              <param name="Y" type="float"/>
              <param name="Z" type="float"/>
            </accessor>
          </technique_common>
        </source>
        <source id="geom-Plane005-map1">
          <float_array id="geom-Plane005-map1-array" count="30">0 0 0 1 0 0 0 1 0 1 1 0 0 0.6666666 0 0 0.3333333 0 0.6666667 0.5000005 0 0.6666667 0.3333333 0 0.6666667 0.6666667 0 0.3333333 0.3333333 0</float_array>
          <technique_common>
            <accessor source="#geom-Plane005-map1-array" count="10" stride="3">
              <param name="S" type="float"/>
              <param name="T" type="float"/>
              <param name="P" type="float"/>
            </accessor>
          </technique_common>
        </source>
        <vertices id="geom-Plane005-vertices">
          <input semantic="POSITION" source="#geom-Plane005-positions"/>
        </vertices>
        <triangles material="ColorEffectR229G166B215-material" count="8">
          <input semantic="VERTEX" source="#geom-Plane005-vertices" offset="0"/>
          <input semantic="NORMAL" source="#geom-Plane005-normals" offset="1"/>
          <input semantic="TEXCOORD" source="#geom-Plane005-map1" offset="2" set="0"/>
          <p>3 0 3 8 1 8 6 2 6 1 3 1 3 4 3 6 5 6 1 6 1 6 7 6 7 8 7 7 9 7 9 10 9 0 11 0 1 12 1 7 13 7 0 14 0 4 15 4 8 16 8 3 17 3 3 18 3 2 19 2 4 20 4 0 21 0 9 22 9 5 23 5</p>
        </triangles>
      </mesh>
    </geometry>
    <geometry id="geom-Plane006" name="Plane006">
      <mesh>
        <source id="geom-Plane006-positions">
          <float_array id="geom-Plane006-positions-array" count="12">-3.75 -7.5 0 3.75 -7.5 0 -3.75 7.5 0 3.75 7.5 0</float_array>
          <technique_common>
            <accessor source="#geom-Plane006-positions-array" count="4" stride="3">
              <param name="X" type="float"/>
              <param name="Y" type="float"/>
              <param name="Z" type="float"/>
            </accessor>
          </technique_common>
        </source>
        <source id="geom-Plane006-normals">
          <float_array id="geom-Plane006-normals-array" count="12">0 0 1 0 0 1 0 0 1 0 0 1</float_array>
          <technique_common>
            <accessor source="#geom-Plane006-normals-array" count="4" stride="3">
              <param name="X" type="float"/>
              <param name="Y" type="float"/>
              <param name="Z" type="float"/>
            </accessor>
          </technique_common>
        </source>
        <source id="geom-Plane006-map1">
          <float_array id="geom-Plane006-map1-array" count="24">0 0 0 1 0 0 0 0 0 1 0 0 0 0 0 1 0 0 0 1 0 1 1 0</float_array>
          <technique_common>
            <accessor source="#geom-Plane006-map1-array" count="8" stride="3">
              <param name="S" type="float"/>
              <param name="T" type="float"/>
              <param name="P" type="float"/>
            </accessor>
          </technique_common>
        </source>
        <vertices id="geom-Plane006-vertices">
          <input semantic="POSITION" source="#geom-Plane006-positions"/>
        </vertices>
        <triangles material="ColorEffectR229G166B215-material" count="2">
          <input semantic="VERTEX" source="#geom-Plane006-vertices" offset="0"/>
          <input semantic="NORMAL" source="#geom-Plane006-normals" offset="1"/>
          <input semantic="TEXCOORD" source="#geom-Plane006-map1" offset="2" set="0"/>
          <p>2 0 6 0 1 4 3 2 7 1 3 5 3 2 7 0 1 4</p>
        </triangles>
      </mesh>
    </geometry>
    <geometry id="geom-_Portal001" name="_Portal001">
      <mesh>
        <source id="geom-_Portal001-positions">
          <float_array id="geom-_Portal001-positions-array" count="24">-2.5 -0.25 0 2.5 -0.25 0 -2.5 0.25 0 2.5 0.25 0 -2.5 -0.25 5 2.5 -0.25 5 -2.5 0.25 5 2.5 0.25 5</float_array>
          <technique_common>
            <accessor source="#geom-_Portal001-positions-array" count="8" stride="3">
              <param name="X" type="float"/>
              <param name="Y" type="float"/>
              <param name="Z" type="float"/>
            </accessor>
          </technique_common>
        </source>
        <source id="geom-_Portal001-normals">
          <float_array id="geom-_Portal001-normals-array" count="72">0 0 -1 0 0 -1 0 0 -1 0 0 -1 0 0 1 0 0 1 0 0 1 0 0 1 0 -1 0 0 -1 0 0 -1 0 0 -1 0 1 0 0 1 0 0 1 0 0 1 0 0 0 1 0 0 1 0 0 1 0 0 1 0 -1 0 0 -1 0 0 -1 0 0 -1 0 0</float_array>
          <technique_common>
            <accessor source="#geom-_Portal001-normals-array" count="24" stride="3">
              <param name="X" type="float"/>
              <param name="Y" type="float"/>
              <param name="Z" type="float"/>
            </accessor>
          </technique_common>
        </source>
        <source id="geom-_Portal001-map1">
          <float_array id="geom-_Portal001-map1-array" count="36">0 0 0 1 0 0 0 1 0 1 1 0 0 0 0 1 0 0 0 1 0 1 1 0 0 0 0 1 0 0 0 1 0 1 1 0</float_array>
          <technique_common>
            <accessor source="#geom-_Portal001-map1-array" count="12" stride="3">
              <param name="S" type="float"/>
              <param name="T" type="float"/>
              <param name="P" type="float"/>
            </accessor>
          </technique_common>
        </source>
        <vertices id="geom-_Portal001-vertices">
          <input semantic="POSITION" source="#geom-_Portal001-positions"/>
        </vertices>
        <triangles material="ColorEffectR228G153B184-material" count="12">
          <input semantic="VERTEX" source="#geom-_Portal001-vertices" offset="0"/>
          <input semantic="NORMAL" source="#geom-_Portal001-normals" offset="1"/>
          <input semantic="TEXCOORD" source="#geom-_Portal001-map1" offset="2" set="0"/>
          <p>0 0 9 2 1 11 3 2 10 3 2 10 1 3 8 0 0 9 4 4 8 5 5 9 7 6 11 7 6 11 6 7 10 4 4 8 0 8 4 1 9 5 5 10 7 5 10 7 4 11 6 0 8 4 1 12 0 3 13 1 7 14 3 7 14 3 5 15 2 1 12 0 3 16 4 2 17 5 6 18 7 6 18 7 7 19 6 3 16 4 2 20 0 0 21 1 4 22 3 4 22 3 6 23 2 2 20 0</p>
        </triangles>
      </mesh>
    </geometry>
  </library_geometries>
  <library_lights>
    <light id="EnvironmentAmbientLight" name="EnvironmentAmbientLight">
      <technique_common>
        <ambient>
          <color>0 0 0</color>
        </ambient>
      </technique_common>
    </light>
  </library_lights>
  <library_visual_scenes>
    <visual_scene id="MaxScene">
      <node name="EnvironmentAmbientLight">
        <instance_light url="#EnvironmentAmbientLight"/>
      </node>
      <node id="node-EnvironmentAmbientLight" name="EnvironmentAmbientLight">
        <matrix>1 0 0 0 0 1 0 0 0 0 1 0 0 0 0 1</matrix>
      </node>
      <node id="node-Plane001" name="Plane001">
        <matrix>1 0 0 0 0 1 0 -5 0 0 1 12.5 0 0 0 1</matrix>
        <instance_geometry url="#geom-Plane001">
          <bind_material>
            <technique_common>
              <instance_material symbol="ColorEffectR229G166B215-material" target="#ColorEffectR229G166B215-material-material"/>
            </technique_common>
          </bind_material>
        </instance_geometry>
      </node>
      <node id="node-Plane002" name="Plane002">
        <matrix>-4.37114e-8 0 -1 7.5 0 1 0 -5 1 0 -4.37114e-8 16.25 0 0 0 1</matrix>
        <instance_geometry url="#geom-Plane002">
          <bind_material>
            <technique_common>
              <instance_material symbol="ColorEffectR228G214B153-material" target="#ColorEffectR228G214B153-material-material"/>
            </technique_common>
          </bind_material>
        </instance_geometry>
      </node>
      <node id="node-Plane003" name="Plane003">
        <matrix>-4.37114e-8 3.89414e-7 1 -7.5 0 -1 3.89414e-7 -5 1 1.70218e-14 4.37114e-8 16.25 0 0 0 1</matrix>
        <instance_geometry url="#geom-Plane003">
          <bind_material>
            <technique_common>
              <instance_material symbol="ColorEffectR228G214B153-material" target="#ColorEffectR228G214B153-material-material"/>
            </technique_common>
          </bind_material>
        </instance_geometry>
      </node>
      <node id="node-Plane004" name="Plane004">
        <matrix>-1 -8.74228e-8 -1.50996e-7 0 -8.74228e-8 1 -8.74228e-8 -5 1.50996e-7 -8.74228e-8 -1 20 0 0 0 1</matrix>
        <instance_geometry url="#geom-Plane004">
          <bind_material>
            <technique_common>
              <instance_material symbol="ColorEffectR229G166B215-material" target="#ColorEffectR229G166B215-material-material"/>
            </technique_common>
          </bind_material>
        </instance_geometry>
      </node>
      <node id="node-Plane005" name="Plane005">
        <matrix>-4.37114e-8 1 4.37114e-8 0 0 -4.37114e-8 1 -15 1 4.37114e-8 1.91069e-15 16.25 0 0 0 1</matrix>
        <instance_geometry url="#geom-Plane005">
          <bind_material>
            <technique_common>
              <instance_material symbol="ColorEffectR229G166B215-material" target="#ColorEffectR229G166B215-material-material"/>
            </technique_common>
          </bind_material>
        </instance_geometry>
      </node>
      <node id="node-Plane006" name="Plane006">
        <matrix>-4.37114e-8 -1 -1.94707e-7 0 0 1.94707e-7 -1 5 1 -4.37114e-8 -8.51092e-15 16.25 0 0 0 1</matrix>
        <instance_geometry url="#geom-Plane006">
          <bind_material>
            <technique_common>
              <instance_material symbol="ColorEffectR229G166B215-material" target="#ColorEffectR229G166B215-material-material"/>
            </technique_common>
          </bind_material>
        </instance_geometry>
      </node>
      <node id="node-_Portal001" name="_Portal001">
        <matrix>-1 -3.89414e-7 0 0 3.89414e-7 -1 0 -15 0 0 1 12.5 0 0 0 1</matrix>
        <instance_geometry url="#geom-_Portal001">
          <bind_material>
            <technique_common>
              <instance_material symbol="ColorEffectR228G153B184-material" target="#ColorEffectR228G153B184-material-material"/>
            </technique_common>
          </bind_material>
        </instance_geometry>
      </node>
    </visual_scene>
  </library_visual_scenes>
  <scene>
    <instance_visual_scene url="#MaxScene"/>
  </scene>
</COLLADA>