<?xml version="1.0" encoding="utf-8"?>
<COLLADA xmlns="http://www.collada.org/2005/11/COLLADASchema" version="1.4.1">
  <asset>
    <contributor>
      <author>Will</author>
      <authoring_tool>OpenCOLLADA for 3ds Max;  Version: 1.3.0;  Revision: 788M;  Platform: Win32;  Configuration: Release_Max2011_static</authoring_tool>
      <source_data>file:///C:/Users/Will/Documents/3dsMax/scenes/Levels/FirstZeroGravOrientRoom.max</source_data>
    </contributor>
    <created>2011-06-02T16:41:16</created>
    <modified>2011-06-02T16:41:16</modified>
    <unit name="inch" meter="0.0254"/>
    <up_axis>Z_UP</up_axis>
  </asset>
  <library_effects>
    <effect id="ColorEffectR228G153B184">
      <profile_COMMON>
        <technique sid="common">
          <phong>
            <ambient>
              <color>0.8941176 0.6 0.7215686 1</color>
            </ambient>
            <diffuse>
              <color>0.8941176 0.6 0.7215686 1</color>
            </diffuse>
            <specular>
              <color>1 1 1 1</color>
            </specular>
            <shininess>
              <float>10</float>
            </shininess>
            <reflective>
              <color>0 0 0 1</color>
            </reflective>
            <transparent>
              <color>1 1 1 1</color>
            </transparent>
            <transparency>
              <float>1</float>
            </transparency>
          </phong>
        </technique>
      </profile_COMMON>
    </effect>
    <effect id="ColorEffectR228G184B153">
      <profile_COMMON>
        <technique sid="common">
          <phong>
            <ambient>
              <color>0.8941176 0.7215686 0.6 1</color>
            </ambient>
            <diffuse>
              <color>0.8941176 0.7215686 0.6 1</color>
            </diffuse>
            <specular>
              <color>1 1 1 1</color>
            </specular>
            <shininess>
              <float>10</float>
            </shininess>
            <reflective>
              <color>0 0 0 1</color>
            </reflective>
            <transparent>
              <color>1 1 1 1</color>
            </transparent>
            <transparency>
              <float>1</float>
            </transparency>
          </phong>
        </technique>
      </profile_COMMON>
    </effect>
    <effect id="ColorEffectR28G89B177">
      <profile_COMMON>
        <technique sid="common">
          <phong>
            <ambient>
              <color>0.1098039 0.3490196 0.6941176 1</color>
            </ambient>
            <diffuse>
              <color>0.1098039 0.3490196 0.6941176 1</color>
            </diffuse>
            <specular>
              <color>1 1 1 1</color>
            </specular>
            <shininess>
              <float>10</float>
            </shininess>
            <reflective>
              <color>0 0 0 1</color>
            </reflective>
            <transparent>
              <color>1 1 1 1</color>
            </transparent>
            <transparency>
              <float>1</float>
            </transparency>
          </phong>
        </technique>
      </profile_COMMON>
    </effect>
    <effect id="ColorEffectR153G228B184">
      <profile_COMMON>
        <technique sid="common">
          <phong>
            <ambient>
              <color>0.6 0.8941176 0.7215686 1</color>
            </ambient>
            <diffuse>
              <color>0.6 0.8941176 0.7215686 1</color>
            </diffuse>
            <specular>
              <color>1 1 1 1</color>
            </specular>
            <shininess>
              <float>10</float>
            </shininess>
            <reflective>
              <color>0 0 0 1</color>
            </reflective>
            <transparent>
              <color>1 1 1 1</color>
            </transparent>
            <transparency>
              <float>1</float>
            </transparency>
          </phong>
        </technique>
      </profile_COMMON>
    </effect>
    <effect id="ColorEffectR154G154B229">
      <profile_COMMON>
        <technique sid="common">
          <phong>
            <ambient>
              <color>0.6039216 0.6039216 0.8980392 1</color>
            </ambient>
            <diffuse>
              <color>0.6039216 0.6039216 0.8980392 1</color>
            </diffuse>
            <specular>
              <color>1 1 1 1</color>
            </specular>
            <shininess>
              <float>10</float>
            </shininess>
            <reflective>
              <color>0 0 0 1</color>
            </reflective>
            <transparent>
              <color>1 1 1 1</color>
            </transparent>
            <transparency>
              <float>1</float>
            </transparency>
          </phong>
        </technique>
      </profile_COMMON>
    </effect>
    <effect id="ColorEffectR153G228B214">
      <profile_COMMON>
        <technique sid="common">
          <phong>
            <ambient>
              <color>0.6 0.8941176 0.8392157 1</color>
            </ambient>
            <diffuse>
              <color>0.6 0.8941176 0.8392157 1</color>
            </diffuse>
            <specular>
              <color>1 1 1 1</color>
            </specular>
            <shininess>
              <float>10</float>
            </shininess>
            <reflective>
              <color>0 0 0 1</color>
            </reflective>
            <transparent>
              <color>1 1 1 1</color>
            </transparent>
            <transparency>
              <float>1</float>
            </transparency>
          </phong>
        </technique>
      </profile_COMMON>
    </effect>
    <effect id="ColorEffectR87G224B87">
      <profile_COMMON>
        <technique sid="common">
          <phong>
            <ambient>
              <color>0.3411765 0.8784314 0.3411765 1</color>
            </ambient>
            <diffuse>
              <color>0.3411765 0.8784314 0.3411765 1</color>
            </diffuse>
            <specular>
              <color>1 1 1 1</color>
            </specular>
            <shininess>
              <float>10</float>
            </shininess>
            <reflective>
              <color>0 0 0 1</color>
            </reflective>
            <transparent>
              <color>1 1 1 1</color>
            </transparent>
            <transparency>
              <float>1</float>
            </transparency>
          </phong>
        </technique>
      </profile_COMMON>
    </effect>
  </library_effects>
  <library_materials>
    <material id="ColorEffectR228G153B184-material" name="ColorEffectR228G153B184-material">
      <instance_effect url="#ColorEffectR228G153B184"/>
    </material>
    <material id="ColorEffectR228G184B153-material" name="ColorEffectR228G184B153-material">
      <instance_effect url="#ColorEffectR228G184B153"/>
    </material>
    <material id="ColorEffectR28G89B177-material" name="ColorEffectR28G89B177-material">
      <instance_effect url="#ColorEffectR28G89B177"/>
    </material>
    <material id="ColorEffectR153G228B184-material" name="ColorEffectR153G228B184-material">
      <instance_effect url="#ColorEffectR153G228B184"/>
    </material>
    <material id="ColorEffectR154G154B229-material" name="ColorEffectR154G154B229-material">
      <instance_effect url="#ColorEffectR154G154B229"/>
    </material>
    <material id="ColorEffectR153G228B214-material" name="ColorEffectR153G228B214-material">
      <instance_effect url="#ColorEffectR153G228B214"/>
    </material>
    <material id="ColorEffectR87G224B87-material" name="ColorEffectR87G224B87-material">
      <instance_effect url="#ColorEffectR87G224B87"/>
    </material>
  </library_materials>
  <library_geometries>
    <geometry id="geom-Box001" name="Box001">
      <mesh>
        <source id="geom-Box001-positions">
          <float_array id="geom-Box001-positions-array" count="60">-15 -15 0 15 -15 0 -15 15 0 15 15 0 -15 -15 30 15 -15 30 -15 15 30 15 15 30 2.5 2.5 30 -2.5 2.5 30 -2.5 -2.5 30 2.5 -2.5 30 -2.5 -15 10 2.5 -15 10 2.5 -15 15 -2.5 -15 15 -2.5 2.5 0 2.5 2.5 0 2.5 -2.5 0 -2.5 -2.5 0</float_array>
          <technique_common>
            <accessor source="#geom-Box001-positions-array" count="20" stride="3">
              <param name="X" type="float"/>
              <param name="Y" type="float"/>
              <param name="Z" type="float"/>
            </accessor>
          </technique_common>
        </source>
        <source id="geom-Box001-normals">
          <float_array id="geom-Box001-normals-array" count="108">-1 0 0 -1 0 0 -1 0 0 -1 0 0 0 -1 0 0 -1 0 0 -1 0 0 -1 0 1 0 0 1 0 0 1 0 0 1 0 0 0 0 -0.9999999 0 0 -1 0 0 -1 0 0 -1 0 0 -0.9999999 0 0 -1 0 0 -1 0 0 -1 0 1 0 0 1 0 0 1 0 0 1 0 0 0.9999999 0 0 1 0 0 1 0 0 0.9999999 0 0 0 0.9999999 0 0 1 0 0 1 0 0 1 0 0 0.9999999 0 0 1 0 0 1 0 0 1</float_array>
          <technique_common>
            <accessor source="#geom-Box001-normals-array" count="36" stride="3">
              <param name="X" type="float"/>
              <param name="Y" type="float"/>
              <param name="Z" type="float"/>
            </accessor>
          </technique_common>
        </source>
        <source id="geom-Box001-map1">
          <float_array id="geom-Box001-map1-array" count="108">1 0 0 0 0 0 1 1 0 0 1 0 0 0 0 1 0 0 0 1 0 1 1 0 0 0 0 1 0 0 0 1 0 1 1 0 0 0 0 1 0 0 0 1 0 1 1 0 0 0 0 1 0 0 0 1 0 1 1 0 0 0 0 1 0 0 0 1 0 1 1 0 0.5833333 0.5833333 0 0.4166667 0.5833333 0 0.4166667 0.4166667 0 0.5833333 0.4166667 0 0.4166667 0.3333333 0 0.5833334 0.3333333 0 0.5833334 0.5 0 0.4166667 0.5 0 0.5833333 0.5833333 0 0.4166667 0.5833333 0 0.4166667 0.4166667 0 0.5833333 0.4166667 0</float_array>
          <technique_common>
            <accessor source="#geom-Box001-map1-array" count="36" stride="3">
              <param name="S" type="float"/>
              <param name="T" type="float"/>
              <param name="P" type="float"/>
            </accessor>
          </technique_common>
        </source>
        <vertices id="geom-Box001-vertices">
          <input semantic="POSITION" source="#geom-Box001-positions"/>
        </vertices>
        <triangles material="ColorMaterial" count="30">
          <input semantic="VERTEX" source="#geom-Box001-vertices" offset="0"/>
          <input semantic="NORMAL" source="#geom-Box001-normals" offset="1"/>
          <input semantic="TEXCOORD" source="#geom-Box001-map1" offset="2" set="0"/>
          <p>1 0 12 5 1 14 7 2 15 7 2 15 3 3 13 1 0 12 3 4 16 7 5 18 6 6 19 6 6 19 2 7 17 3 4 16 2 8 20 6 9 22 4 10 23 4 10 23 0 11 21 2 8 20 6 12 6 7 13 7 8 14 24 8 14 24 9 15 25 6 12 6 4 16 4 6 12 6 9 15 25 9 15 25 10 17 26 4 16 4 10 17 26 11 18 27 5 19 5 5 19 5 4 16 4 10 17 26 8 14 24 7 13 7 5 19 5 5 19 5 11 18 27 8 14 24 1 20 9 0 21 8 12 22 28 12 22 28 13 23 29 1 20 9 5 24 11 1 20 9 13 23 29 13 23 29 14 25 30 5 24 11 14 25 30 15 26 31 4 27 10 4 27 10 5 24 11 14 25 30 12 22 28 0 21 8 4 27 10 4 27 10 15 26 31 12 22 28 3 28 3 2 29 2 16 30 32 16 30 32 17 31 33 3 28 3 1 32 1 3 28 3 17 31 33 17 31 33 18 33 34 1 32 1 0 34 0 1 32 1 18 33 34 18 33 34 19 35 35 0 34 0 0 34 0 19 35 35 16 30 32 16 30 32 2 29 2 0 34 0</p>
        </triangles>
      </mesh>
    </geometry>
    <geometry id="geom-_Portal001" name="_Portal001">
      <mesh>
        <source id="geom-_Portal001-positions">
          <float_array id="geom-_Portal001-positions-array" count="24">-2.5 -0.25 0 2.5 -0.25 0 -2.5 0.25 0 2.5 0.25 0 -2.5 -0.25 5 2.5 -0.25 5 -2.5 0.25 5 2.5 0.25 5</float_array>
          <technique_common>
            <accessor source="#geom-_Portal001-positions-array" count="8" stride="3">
              <param name="X" type="float"/>
              <param name="Y" type="float"/>
              <param name="Z" type="float"/>
            </accessor>
          </technique_common>
        </source>
        <source id="geom-_Portal001-normals">
          <float_array id="geom-_Portal001-normals-array" count="72">0 0 -1 0 0 -1 0 0 -1 0 0 -1 0 0 1 0 0 1 0 0 1 0 0 1 0 -1 0 0 -1 0 0 -1 0 0 -1 0 1 0 0 1 0 0 1 0 0 1 0 0 0 1 0 0 1 0 0 1 0 0 1 0 -1 0 0 -1 0 0 -1 0 0 -1 0 0</float_array>
          <technique_common>
            <accessor source="#geom-_Portal001-normals-array" count="24" stride="3">
              <param name="X" type="float"/>
              <param name="Y" type="float"/>
              <param name="Z" type="float"/>
            </accessor>
          </technique_common>
        </source>
        <source id="geom-_Portal001-map1">
          <float_array id="geom-_Portal001-map1-array" count="36">0 0 0 1 0 0 0 1 0 1 1 0 0 0 0 1 0 0 0 1 0 1 1 0 0 0 0 1 0 0 0 1 0 1 1 0</float_array>
          <technique_common>
            <accessor source="#geom-_Portal001-map1-array" count="12" stride="3">
              <param name="S" type="float"/>
              <param name="T" type="float"/>
              <param name="P" type="float"/>
            </accessor>
          </technique_common>
        </source>
        <vertices id="geom-_Portal001-vertices">
          <input semantic="POSITION" source="#geom-_Portal001-positions"/>
        </vertices>
        <triangles material="ColorMaterial" count="12">
          <input semantic="VERTEX" source="#geom-_Portal001-vertices" offset="0"/>
          <input semantic="NORMAL" source="#geom-_Portal001-normals" offset="1"/>
          <input semantic="TEXCOORD" source="#geom-_Portal001-map1" offset="2" set="0"/>
          <p>0 0 9 2 1 11 3 2 10 3 2 10 1 3 8 0 0 9 4 4 8 5 5 9 7 6 11 7 6 11 6 7 10 4 4 8 0 8 4 1 9 5 5 10 7 5 10 7 4 11 6 0 8 4 1 12 0 3 13 1 7 14 3 7 14 3 5 15 2 1 12 0 3 16 4 2 17 5 6 18 7 6 18 7 7 19 6 3 16 4 2 20 0 0 21 1 4 22 3 4 22 3 6 23 2 2 20 0</p>
        </triangles>
      </mesh>
      <extra>
        <technique profile="OpenCOLLADA3dsMax">
          <max_box>
            <generateuvs>1</generateuvs>
            <height>5</height>
            <heightsegments>1</heightsegments>
            <length>0.5</length>
            <lengthsegments>1</lengthsegments>
            <width>5</width>
            <widthsegments>1</widthsegments>
          </max_box>
        </technique>
      </extra>
    </geometry>
    <geometry id="geom-_Portal002" name="_Portal002">
      <mesh>
        <source id="geom-_Portal002-positions">
          <float_array id="geom-_Portal002-positions-array" count="24">-2.5 -0.25 0 2.5 -0.25 0 -2.5 0.25 0 2.5 0.25 0 -2.5 -0.25 5 2.5 -0.25 5 -2.5 0.25 5 2.5 0.25 5</float_array>
          <technique_common>
            <accessor source="#geom-_Portal002-positions-array" count="8" stride="3">
              <param name="X" type="float"/>
              <param name="Y" type="float"/>
              <param name="Z" type="float"/>
            </accessor>
          </technique_common>
        </source>
        <source id="geom-_Portal002-normals">
          <float_array id="geom-_Portal002-normals-array" count="72">0 0 -1 0 0 -1 0 0 -1 0 0 -1 0 0 1 0 0 1 0 0 1 0 0 1 0 -1 0 0 -1 0 0 -1 0 0 -1 0 1 0 0 1 0 0 1 0 0 1 0 0 0 1 0 0 1 0 0 1 0 0 1 0 -1 0 0 -1 0 0 -1 0 0 -1 0 0</float_array>
          <technique_common>
            <accessor source="#geom-_Portal002-normals-array" count="24" stride="3">
              <param name="X" type="float"/>
              <param name="Y" type="float"/>
              <param name="Z" type="float"/>
            </accessor>
          </technique_common>
        </source>
        <source id="geom-_Portal002-map1">
          <float_array id="geom-_Portal002-map1-array" count="36">0 0 0 1 0 0 0 1 0 1 1 0 0 0 0 1 0 0 0 1 0 1 1 0 0 0 0 1 0 0 0 1 0 1 1 0</float_array>
          <technique_common>
            <accessor source="#geom-_Portal002-map1-array" count="12" stride="3">
              <param name="S" type="float"/>
              <param name="T" type="float"/>
              <param name="P" type="float"/>
            </accessor>
          </technique_common>
        </source>
        <vertices id="geom-_Portal002-vertices">
          <input semantic="POSITION" source="#geom-_Portal002-positions"/>
        </vertices>
        <triangles material="ColorMaterial" count="12">
          <input semantic="VERTEX" source="#geom-_Portal002-vertices" offset="0"/>
          <input semantic="NORMAL" source="#geom-_Portal002-normals" offset="1"/>
          <input semantic="TEXCOORD" source="#geom-_Portal002-map1" offset="2" set="0"/>
          <p>0 0 9 2 1 11 3 2 10 3 2 10 1 3 8 0 0 9 4 4 8 5 5 9 7 6 11 7 6 11 6 7 10 4 4 8 0 8 4 1 9 5 5 10 7 5 10 7 4 11 6 0 8 4 1 12 0 3 13 1 7 14 3 7 14 3 5 15 2 1 12 0 3 16 4 2 17 5 6 18 7 6 18 7 7 19 6 3 16 4 2 20 0 0 21 1 4 22 3 4 22 3 6 23 2 2 20 0</p>
        </triangles>
      </mesh>
      <extra>
        <technique profile="OpenCOLLADA3dsMax">
          <max_box>
            <generateuvs>1</generateuvs>
            <height>5</height>
            <heightsegments>1</heightsegments>
            <length>0.5</length>
            <lengthsegments>1</lengthsegments>
            <width>5</width>
            <widthsegments>1</widthsegments>
          </max_box>
        </technique>
      </extra>
    </geometry>
    <geometry id="geom-_Portal003" name="_Portal003">
      <mesh>
        <source id="geom-_Portal003-positions">
          <float_array id="geom-_Portal003-positions-array" count="24">-2.5 -0.25 0 2.5 -0.25 0 -2.5 0.25 0 2.5 0.25 0 -2.5 -0.25 5 2.5 -0.25 5 -2.5 0.25 5 2.5 0.25 5</float_array>
          <technique_common>
            <accessor source="#geom-_Portal003-positions-array" count="8" stride="3">
              <param name="X" type="float"/>
              <param name="Y" type="float"/>
              <param name="Z" type="float"/>
            </accessor>
          </technique_common>
        </source>
        <source id="geom-_Portal003-normals">
          <float_array id="geom-_Portal003-normals-array" count="72">0 0 -1 0 0 -1 0 0 -1 0 0 -1 0 0 1 0 0 1 0 0 1 0 0 1 0 -1 0 0 -1 0 0 -1 0 0 -1 0 1 0 0 1 0 0 1 0 0 1 0 0 0 1 0 0 1 0 0 1 0 0 1 0 -1 0 0 -1 0 0 -1 0 0 -1 0 0</float_array>
          <technique_common>
            <accessor source="#geom-_Portal003-normals-array" count="24" stride="3">
              <param name="X" type="float"/>
              <param name="Y" type="float"/>
              <param name="Z" type="float"/>
            </accessor>
          </technique_common>
        </source>
        <source id="geom-_Portal003-map1">
          <float_array id="geom-_Portal003-map1-array" count="36">0 0 0 1 0 0 0 1 0 1 1 0 0 0 0 1 0 0 0 1 0 1 1 0 0 0 0 1 0 0 0 1 0 1 1 0</float_array>
          <technique_common>
            <accessor source="#geom-_Portal003-map1-array" count="12" stride="3">
              <param name="S" type="float"/>
              <param name="T" type="float"/>
              <param name="P" type="float"/>
            </accessor>
          </technique_common>
        </source>
        <vertices id="geom-_Portal003-vertices">
          <input semantic="POSITION" source="#geom-_Portal003-positions"/>
        </vertices>
        <triangles material="ColorMaterial" count="12">
          <input semantic="VERTEX" source="#geom-_Portal003-vertices" offset="0"/>
          <input semantic="NORMAL" source="#geom-_Portal003-normals" offset="1"/>
          <input semantic="TEXCOORD" source="#geom-_Portal003-map1" offset="2" set="0"/>
          <p>0 0 9 2 1 11 3 2 10 3 2 10 1 3 8 0 0 9 4 4 8 5 5 9 7 6 11 7 6 11 6 7 10 4 4 8 0 8 4 1 9 5 5 10 7 5 10 7 4 11 6 0 8 4 1 12 0 3 13 1 7 14 3 7 14 3 5 15 2 1 12 0 3 16 4 2 17 5 6 18 7 6 18 7 7 19 6 3 16 4 2 20 0 0 21 1 4 22 3 4 22 3 6 23 2 2 20 0</p>
        </triangles>
      </mesh>
      <extra>
        <technique profile="OpenCOLLADA3dsMax">
          <max_box>
            <generateuvs>1</generateuvs>
            <height>5</height>
            <heightsegments>1</heightsegments>
            <length>0.5</length>
            <lengthsegments>1</lengthsegments>
            <width>5</width>
            <widthsegments>1</widthsegments>
          </max_box>
        </technique>
      </extra>
    </geometry>
    <geometry id="geom-Box002" name="Box002">
      <mesh>
        <source id="geom-Box002-positions">
          <float_array id="geom-Box002-positions-array" count="180">-15 -0.05 0 -7.5 -0.05 0 0 -0.05 0 7.5 -0.05 0 -15 0.05 0 -7.5 0.05 0 0 0.05 0 7.5 0.05 0 -15 -0.05 30 -7.5 -0.05 30 0 -0.05 30 7.5 -0.05 30 15 -0.05 30 -15 0.05 30 -7.5 0.05 30 0 0.05 30 7.5 0.05 30 15 0.05 30 -15 -0.05 6 -7.5 -0.05 6 0 -0.05 6 7.5 -0.05 6 15 -0.05 6 15 0.05 6 7.5 0.05 6 0 0.05 6 -7.5 0.05 6 -15 0.05 6 -15 -0.05 12 -7.5 -0.05 12 0 -0.05 12 7.5 -0.05 12 15 -0.05 12 15 0.05 12 7.5 0.05 12 0 0.05 12 -7.5 0.05 12 -15 0.05 12 -15 -0.05 18 -7.5 -0.05 18 0 -0.05 18 7.5 -0.05 18 15 -0.05 18 15 0.05 18 7.5 0.05 18 0 0.05 18 -7.5 0.05 18 -15 0.05 18 -15 -0.05 24 -7.5 -0.05 24 0 -0.05 24 7.5 -0.05 24 15 -0.05 24 15 0.05 24 7.5 0.05 24 0 0.05 24 -7.5 0.05 24 -15 0.05 24 0 -0.05 24 0 0.05 24</float_array>
          <technique_common>
            <accessor source="#geom-Box002-positions-array" count="60" stride="3">
              <param name="X" type="float"/>
              <param name="Y" type="float"/>
              <param name="Z" type="float"/>
            </accessor>
          </technique_common>
        </source>
        <source id="geom-Box002-normals">
          <float_array id="geom-Box002-normals-array" count="444">0 0 -0.9999999 0 0 -1 0 0 -0.9999999 0 0 -1 0 0 -0.9999999 0 0 -1 0 0 -0.9999999 0 0 -1 0 0 0.9999999 0 0 1 0 0 0.9999999 0 0 1 0 0 0.9999999 0 0 0.9999999 0 0 0.9999999 0 0 1 0 0 1 0 0 0.9999999 0 -0.9999999 0 0 -1 0 0 -1 0 0 -1 0 0 -1 0 0 -0.9999999 0 0 -1 0 0 -1 0 0 -0.9999999 0 0 -1 0 0 -0.9999999 0 0 -1 0 0 -0.9999999 0 0 -0.9999999 0 0 -0.9999999 0 0 -1 0 0 -1 0 0 -1 0 0 -0.9999999 0 0 -1 0 0 -1 0 0 -0.9999999 0 0 -0.9999999 0 0 -1 0 0 -0.9999999 0 0 -1 0 0 -0.9999999 0 0 -0.9999999 0 0 -1 0 0 -0.9999999 0 1 0 0 1 0 0 1 0 0 1 0 0 1 0 0 1 0 0 1 0 0 1 0 0 1 0 0 1 0 0 0 0.9999999 0 0 1 0 0 0.9999999 0 0 1 0 0 1 0 0 1 0 0 1 0 0 0.9999999 0 0 0.9999999 0 0 0.9999999 0 0 1 0 0 0.9999999 0 0 1 0 0 1 0 0 1 0 0 1 0 0 0.9999999 0 0 1 0 0 0.9999999 0 0 1 0 0 1 0 0 1 0 0 1 0 0 0.9999999 0 0 0.9999999 0 0 1 0 0 1 0 0 0.9999999 0 0 0.9999999 0 0 1 0 -1 0 0 -1 0 0 -1 0 0 -1 0 0 -1 0 0 -1 0 0 -1 0 0 -1 0 0 -1 0 0 -1 0 0 -1 0 0 -1 0 0 -1 0 0 -1 0 0 -1 0 0 -1 0 0 0 0 0.9999999 0 0 1 0 0 0.9999999 0 0 1 -1 0 0 -1 0 0 -1 0 0 -1 0 0 0 0 0.9999999 0 0 1 0 0 0.9999999 0 0 1 1 0 0 1 0 0 1 0 0 1 0 0 1 0 0 1 0 0 1 0 0 1 0 0 0 0 0.9999999 0 0 1 0 0 0.9999999 0 0 1 0 0 -0.9999999 0 0 -1 0 0 -0.9999999 0 0 -1 -1 0 0 -1 0 0 -1 0 0 -1 0 0 0 0 -0.9999999 0 0 -1 0 0 -0.9999999 0 0 -1 1 0 0 1 0 0 1 0 0 1 0 0 0 0 -0.9999999 0 0 -1 0 0 -0.9999999 0 0 -1</float_array>
          <technique_common>
            <accessor source="#geom-Box002-normals-array" count="148" stride="3">
              <param name="X" type="float"/>
              <param name="Y" type="float"/>
              <param name="Z" type="float"/>
            </accessor>
          </technique_common>
        </source>
        <source id="geom-Box002-map1">
          <float_array id="geom-Box002-map1-array" count="294">1 0 0 0.75 0 0 0.5 0 0 0.25 0 0 1 1 0 0.75 1 0 0.5 1 0 0.25 1 0 0 0 0 0.25 0 0 0.5 0 0 0.75 0 0 1 0 0 0 1 0 0.25 1 0 0.5 1 0 0.75 1 0 1 1 0 0 0 0 0.25 0 0 0.5 0 0 0.75 0 0 0 0.2 0 0.25 0.2 0 0.5 0.2 0 0.75 0.2 0 1 0.2 0 0 0.4 0 0.25 0.4 0 0.5 0.4 0 0.75 0.4 0 1 0.4 0 0 0.6 0 0.25 0.6 0 0.5 0.6 0 0.75 0.6 0 1 0.6 0 0 0.8 0 0.25 0.8 0 0.5 0.8 0 0.75 0.8 0 1 0.8 0 0 1 0 0.25 1 0 0.5 1 0 0.75 1 0 1 1 0 0 0.2 0 1 0.2 0 0 0.4 0 1 0.4 0 0 0.6 0 1 0.6 0 0 0.8 0 1 0.8 0 0 1 0 1 1 0 0.25 0 0 0.5 0 0 0.75 0 0 1 0 0 0 0.2 0 0.25 0.2 0 0.5 0.2 0 0.75 0.2 0 1 0.2 0 0 0.4 0 0.25 0.4 0 0.5 0.4 0 0.75 0.4 0 1 0.4 0 0 0.6 0 0.25 0.6 0 0.5 0.6 0 0.75 0.6 0 1 0.6 0 0 0.8 0 0.25 0.8 0 0.5 0.8 0 0.75 0.8 0 1 0.8 0 0 1 0 0.25 1 0 0.5 1 0 0.75 1 0 1 1 0 0 0 0 1 0 0 0 0.2 0 1 0.2 0 0 0.4 0 1 0.4 0 0 0.6 0 1 0.6 0 0 0.8 0 1 0.8 0 0 1 0 1 1 0</float_array>
          <technique_common>
            <accessor source="#geom-Box002-map1-array" count="98" stride="3">
              <param name="S" type="float"/>
              <param name="T" type="float"/>
              <param name="P" type="float"/>
            </accessor>
          </technique_common>
        </source>
        <vertices id="geom-Box002-vertices">
          <input semantic="POSITION" source="#geom-Box002-positions"/>
        </vertices>
        <triangles material="ColorMaterial" count="116">
          <input semantic="VERTEX" source="#geom-Box002-vertices" offset="0"/>
          <input semantic="NORMAL" source="#geom-Box002-normals" offset="1"/>
          <input semantic="TEXCOORD" source="#geom-Box002-map1" offset="2" set="0"/>
          <p>0 0 0 4 1 4 5 2 5 5 2 5 1 3 1 0 0 0 1 3 1 5 2 5 6 4 6 6 4 6 2 5 2 1 3 1 2 5 2 6 4 6 7 6 7 7 6 7 3 7 3 2 5 2 8 8 8 9 9 9 14 10 14 14 10 14 13 11 13 8 8 8 10 12 10 11 13 11 16 14 16 16 14 16 15 15 15 10 12 10 11 13 11 12 16 12 17 17 17 17 17 17 16 14 16 11 13 11 0 18 18 1 19 19 19 20 23 19 20 23 18 21 22 0 18 18 1 19 19 2 22 20 20 23 24 20 23 24 19 20 23 1 19 19 2 22 20 3 24 21 21 25 25 21 25 25 20 23 24 2 22 20 19 20 23 20 23 24 30 26 29 30 26 29 29 27 28 19 20 23 20 23 24 21 25 25 31 28 30 31 28 30 30 26 29 20 23 24 21 25 25 22 29 26 32 30 31 32 30 31 31 28 30 21 25 25 28 31 27 29 27 28 39 32 33 39 32 33 38 33 32 28 31 27 29 27 28 30 26 29 40 34 34 40 34 34 39 32 33 29 27 28 30 26 29 31 28 30 41 35 35 41 35 35 40 34 34 30 26 29 31 28 30 32 30 31 42 36 36 42 36 36 41 35 35 31 28 30 38 33 32 39 32 33 49 37 38 49 37 38 48 38 37 38 33 32 39 32 33 40 34 34 50 39 39 50 39 39 49 37 38 39 32 33 41 35 35 42 36 36 52 40 41 52 40 41 51 41 40 41 35 35 48 38 37 49 37 38 9 42 43 9 42 43 8 43 42 48 38 37 58 44 39 51 41 40 11 45 45 11 45 45 10 46 44 58 44 39 51 41 40 52 40 41 12 47 46 12 47 46 11 45 45 51 41 40 22 48 47 23 49 48 33 50 50 33 50 50 32 51 49 22 48 47 32 51 49 33 50 50 43 52 52 43 52 52 42 53 51 32 51 49 42 53 51 43 52 52 53 54 54 53 54 54 52 55 53 42 53 51 52 55 53 53 54 54 17 56 56 17 56 56 12 57 55 52 55 53 7 58 57 6 59 58 25 60 63 25 60 63 24 61 62 7 58 57 6 59 58 5 62 59 26 63 64 26 63 64 25 60 63 6 59 58 5 62 59 4 64 60 27 65 65 27 65 65 26 63 64 5 62 59 23 66 61 24 61 62 34 67 67 34 67 67 33 68 66 23 66 61 24 61 62 25 60 63 35 69 68 35 69 68 34 67 67 24 61 62 25 60 63 26 63 64 36 70 69 36 70 69 35 69 68 25 60 63 33 68 66 34 67 67 44 71 72 44 71 72 43 72 71 33 68 66 34 67 67 35 69 68 45 73 73 45 73 73 44 71 72 34 67 67 35 69 68 36 70 69 46 74 74 46 74 74 45 73 73 35 69 68 36 70 69 37 75 70 47 76 75 47 76 75 46 74 74 36 70 69 43 72 71 44 71 72 54 77 77 54 77 77 53 78 76 43 72 71 45 73 73 46 74 74 56 79 79 56 79 79 55 80 78 45 73 73 46 74 74 47 76 75 57 81 80 57 81 80 56 79 79 46 74 74 53 78 76 54 77 77 16 82 82 16 82 82 17 83 81 53 78 76 54 77 77 59 84 78 15 85 83 15 85 83 16 82 82 54 77 77 56 79 79 57 81 80 13 86 85 13 86 85 14 87 84 56 79 79 4 88 86 0 89 87 18 90 89 18 90 89 27 91 88 4 88 86 37 92 90 28 93 91 38 94 93 38 94 93 47 95 92 37 92 90 47 95 92 38 94 93 48 96 95 48 96 95 57 97 94 47 95 92 57 97 94 48 96 95 8 98 97 8 98 97 13 99 96 57 97 94 59 100 59 58 101 58 10 102 10 10 102 10 15 103 15 59 100 59 56 104 56 49 105 49 50 106 50 50 106 50 55 107 55 56 104 56 44 108 44 41 109 41 51 110 51 51 110 51 54 111 54 44 108 44 45 112 45 40 113 40 41 114 41 41 114 41 44 115 44 45 112 45 55 116 55 50 117 50 40 118 40 40 118 40 45 119 45 55 116 55 14 120 14 9 121 9 49 122 49 49 122 49 56 123 56 14 120 14 27 124 27 18 125 18 19 126 19 19 126 19 26 127 26 27 124 27 54 128 54 51 129 51 58 130 58 58 130 58 59 131 59 54 128 54 26 132 26 19 133 19 29 134 29 29 134 29 36 135 36 26 132 26 36 136 36 29 137 29 28 138 28 28 138 28 37 139 37 36 136 36 24 140 24 21 141 21 3 142 3 3 142 3 7 143 7 24 140 24 23 144 23 22 145 22 21 146 21 21 146 21 24 147 24 23 144 23</p>
        </triangles>
      </mesh>
    </geometry>
    <geometry id="geom-Box003" name="Box003">
      <mesh>
        <source id="geom-Box003-positions">
          <float_array id="geom-Box003-positions-array" count="24">-3 -3 0 3 -3 0 -3 2.645553 0 3 2.645553 0 -3 -3 5.99 3 -3 5.99 -3 2.645553 5.99 3 2.645553 5.99</float_array>
          <technique_common>
            <accessor source="#geom-Box003-positions-array" count="8" stride="3">
              <param name="X" type="float"/>
              <param name="Y" type="float"/>
              <param name="Z" type="float"/>
            </accessor>
          </technique_common>
        </source>
        <source id="geom-Box003-normals">
          <float_array id="geom-Box003-normals-array" count="48">0 0 -1 0 0 -1 0 0 -1 0 0 -1 0 1 0 0 1 0 0 1 0 0 1 0 -0.9999999 0 0 -1 0 0 -0.9999999 0 0 -1 0 0 0 -1 0 0 -1 0 0 -1 0 0 -1 0</float_array>
          <technique_common>
            <accessor source="#geom-Box003-normals-array" count="16" stride="3">
              <param name="X" type="float"/>
              <param name="Y" type="float"/>
              <param name="Z" type="float"/>
            </accessor>
          </technique_common>
        </source>
        <source id="geom-Box003-map1">
          <float_array id="geom-Box003-map1-array" count="36">0 0 0 1 0 0 0 1 0 1 1 0 0 0 0 1 0 0 0 1 0 1 1 0 0 0 0 1 0 0 0 1 0 1 1 0</float_array>
          <technique_common>
            <accessor source="#geom-Box003-map1-array" count="12" stride="3">
              <param name="S" type="float"/>
              <param name="T" type="float"/>
              <param name="P" type="float"/>
            </accessor>
          </technique_common>
        </source>
        <vertices id="geom-Box003-vertices">
          <input semantic="POSITION" source="#geom-Box003-positions"/>
        </vertices>
        <triangles material="ColorMaterial" count="8">
          <input semantic="VERTEX" source="#geom-Box003-vertices" offset="0"/>
          <input semantic="NORMAL" source="#geom-Box003-normals" offset="1"/>
          <input semantic="TEXCOORD" source="#geom-Box003-map1" offset="2" set="0"/>
          <p>4 0 8 6 1 10 7 2 11 7 2 11 5 3 9 4 0 8 0 4 4 4 5 6 5 6 7 5 6 7 1 7 5 0 4 4 1 8 0 5 9 2 7 10 3 7 10 3 3 11 1 1 8 0 3 12 4 7 13 6 6 14 7 6 14 7 2 15 5 3 12 4</p>
        </triangles>
      </mesh>
    </geometry>
    <geometry id="geom-Box004" name="Box004">
      <mesh>
        <source id="geom-Box004-positions">
          <float_array id="geom-Box004-positions-array" count="69">-3 -3 0.01000023 3 -3 0.01100159 -3 3 0.01000023 3 3 0.01100159 -3 -3 6 3 -3 6 -3 3 6 3 3 6 7.514584 -10 0 15 -10 0 7.514584 10 0 15 10 0 7.514584 -10 6 7.514584 10 6 15 10 6 7.514584 3.114657 0.001001358 7.514584 3.114657 6 7.514584 4.94474 0 15 4.94474 0 15 -2.970227 0 7.514584 -2.970227 0 7.514584 -3.208156 6 7.514584 -3.208155 0.001001358</float_array>
          <technique_common>
            <accessor source="#geom-Box004-positions-array" count="23" stride="3">
              <param name="X" type="float"/>
              <param name="Y" type="float"/>
              <param name="Z" type="float"/>
            </accessor>
          </technique_common>
        </source>
        <source id="geom-Box004-normals">
          <float_array id="geom-Box004-normals-array" count="150">-1.66893e-4 0 1 -1.66893e-4 0 1 -1.66893e-4 0 1 -1.66893e-4 0 1 0 1 0 0 1 0 0 1 0 0 0.9999999 0 0 -1 0 0 -1 0 0 -1 0 0 -1 0 1 0 0 1 0 0 1 0 0 1 0 0 0 0 0.9999999 0 0 1 0 0 0.9999999 0 0 1 0 -0.9999999 0 0 -1 0 0 -0.9999999 0 0 -1 0 1 -3.23403e-8 4.28716e-8 1 0 7.94861e-8 1 -3.78706e-8 3.66105e-8 1 -7.02073e-8 0 0.9999999 0 0 1 0 0 1 0 0 1 0 0 1 0 0 7.19965e-5 -7.66631e-5 1 0 0 1 6.36633e-5 1.73553e-5 0.9999999 7.0631e-5 0.00198654 0.9999981 0 0.004208619 0.9999911 0.04605842 0.9989388 1.78482e-8 0.04605839 0.9989388 0 0.04605843 0.9989387 2.55388e-8 0.04605845 0.9989387 4.33619e-8 0.02538888 -0.9996776 0 0.02538887 -0.9996776 0 0.02538888 -0.9996777 0 0.02538888 -0.9996777 0 0.002215089 6.87474e-11 0.9999975 0.002215089 0 0.9999975 0.002215089 1.01343e-10 0.9999976 0.002215089 1.67052e-10 0.9999976</float_array>
          <technique_common>
            <accessor source="#geom-Box004-normals-array" count="50" stride="3">
              <param name="X" type="float"/>
              <param name="Y" type="float"/>
              <param name="Z" type="float"/>
            </accessor>
          </technique_common>
        </source>
        <source id="geom-Box004-map1">
          <float_array id="geom-Box004-map1-array" count="102">0 0 0 1 0 0 0 1 0 1 1 0 0 0 0 1 0 0 0 1 0 1 1 0 0 0 0 1 0 0 0 1 0 1 1 0 0 0 0 1 0 0 0 1 0 1 1 0 0 0 0 1 0 0 0 1 0 1 1 0 0 0 0 1 0 0 0 1 0 1 1 0 0.3442672 0 0 0.3442672 1 0 1 0.747237 0 0.252763 0 0 0 0.747237 0 0 0.3514886 0 1 0.3514886 0 0.6604078 1 0 1 0.3395922 0 0.6604078 0 0</float_array>
          <technique_common>
            <accessor source="#geom-Box004-map1-array" count="34" stride="3">
              <param name="S" type="float"/>
              <param name="T" type="float"/>
              <param name="P" type="float"/>
            </accessor>
          </technique_common>
        </source>
        <vertices id="geom-Box004-vertices">
          <input semantic="POSITION" source="#geom-Box004-positions"/>
        </vertices>
        <triangles material="ColorMaterial" count="26">
          <input semantic="VERTEX" source="#geom-Box004-vertices" offset="0"/>
          <input semantic="NORMAL" source="#geom-Box004-normals" offset="1"/>
          <input semantic="TEXCOORD" source="#geom-Box004-map1" offset="2" set="0"/>
          <p>0 0 9 1 1 8 3 2 10 3 2 10 2 3 11 0 0 9 0 4 4 4 5 6 5 6 7 5 6 7 1 7 5 0 4 4 3 8 4 7 9 6 6 10 7 6 10 7 2 11 5 3 8 4 2 12 0 6 13 2 4 14 3 4 14 3 0 15 1 2 12 0 17 16 26 18 17 28 11 18 22 11 18 22 10 19 23 17 16 26 11 20 16 14 21 18 13 22 19 13 22 19 10 23 17 11 20 16 22 24 33 21 25 31 12 26 15 12 26 15 8 27 13 22 24 33 10 28 12 13 29 14 16 30 25 17 31 27 10 28 12 16 30 25 15 32 24 17 31 27 16 30 25 8 33 21 9 34 20 19 35 29 22 36 32 8 33 21 19 35 29 20 37 30 22 36 32 19 35 29 22 38 22 1 39 1 5 40 5 5 40 5 21 41 21 22 38 22 16 42 16 7 43 7 3 44 3 3 44 3 15 45 15 16 42 16 15 46 15 3 47 3 1 48 1 1 48 1 22 49 22 15 46 15</p>
        </triangles>
      </mesh>
    </geometry>
    <geometry id="geom-Box005" name="Box005">
      <mesh>
        <source id="geom-Box005-positions">
          <float_array id="geom-Box005-positions-array" count="27">-7.5 -3 0 0 -3 0 7.5 -3 0 -7.5 3 0 0 3 0 7.5 3 0 7.5 -3 6 0 3 6 7.5 3 6</float_array>
          <technique_common>
            <accessor source="#geom-Box005-positions-array" count="9" stride="3">
              <param name="X" type="float"/>
              <param name="Y" type="float"/>
              <param name="Z" type="float"/>
            </accessor>
          </technique_common>
        </source>
        <source id="geom-Box005-normals">
          <float_array id="geom-Box005-normals-array" count="42">0 0 0.9999999 0 0 1 0 0 0.9999999 0 0 1 0 0 1 0 0 0.9999999 -1 0 0 -1 0 0 -1 0 0 -1 0 0 0 -0.9999999 0 0 -1 0 0 -0.9999999 0 0 -1 0</float_array>
          <technique_common>
            <accessor source="#geom-Box005-normals-array" count="14" stride="3">
              <param name="X" type="float"/>
              <param name="Y" type="float"/>
              <param name="Z" type="float"/>
            </accessor>
          </technique_common>
        </source>
        <source id="geom-Box005-map1">
          <float_array id="geom-Box005-map1-array" count="42">0 0 0 1 0 0 0 1 0 1 1 0 0 0 0 0.5 0 0 0 1 0 0.5 1 0 0 0 0 0.5 0 0 1 0 0 0 1 0 0.5 1 0 1 1 0</float_array>
          <technique_common>
            <accessor source="#geom-Box005-map1-array" count="14" stride="3">
              <param name="S" type="float"/>
              <param name="T" type="float"/>
              <param name="P" type="float"/>
            </accessor>
          </technique_common>
        </source>
        <vertices id="geom-Box005-vertices">
          <input semantic="POSITION" source="#geom-Box005-positions"/>
        </vertices>
        <triangles material="ColorMaterial" count="8">
          <input semantic="VERTEX" source="#geom-Box005-vertices" offset="0"/>
          <input semantic="NORMAL" source="#geom-Box005-normals" offset="1"/>
          <input semantic="TEXCOORD" source="#geom-Box005-map1" offset="2" set="0"/>
          <p>0 0 10 1 1 9 4 2 12 4 2 12 3 3 13 0 0 10 1 1 9 2 4 8 5 5 11 5 5 11 4 2 12 1 1 9 2 6 0 6 7 2 8 8 3 8 8 3 5 9 1 2 6 0 5 10 4 8 11 6 7 12 7 7 12 7 4 13 5 5 10 4</p>
        </triangles>
      </mesh>
    </geometry>
    <geometry id="geom-Box006" name="Box006">
      <mesh>
        <source id="geom-Box006-positions">
          <float_array id="geom-Box006-positions-array" count="33">-3.75 -7.5 0 3.75 -7.5 0 -3.75 7.5 0 3.75 7.5 0 3.75 -7.5 6 -3.75 7.5 6 3.75 7.5 6 3.75 -0.2117424 0 3.75 -0.2117424 6 3.75 7.172098 0 3.75 7.172098 6</float_array>
          <technique_common>
            <accessor source="#geom-Box006-positions-array" count="11" stride="3">
              <param name="X" type="float"/>
              <param name="Y" type="float"/>
              <param name="Z" type="float"/>
            </accessor>
          </technique_common>
        </source>
        <source id="geom-Box006-normals">
          <float_array id="geom-Box006-normals-array" count="54">0 0 0.9999999 0 0 1 0 0 1 0 0 1 0 0 1 0 0 1 -0.9999999 0 0 -1 0 0 -0.9999999 0 0 -1 0 0 0 -0.9999999 0 0 -1 0 0 -0.9999999 0 0 -1 0 -0.9999999 0 0 -1 0 0 -0.9999999 0 0 -1 0 0</float_array>
          <technique_common>
            <accessor source="#geom-Box006-normals-array" count="18" stride="3">
              <param name="X" type="float"/>
              <param name="Y" type="float"/>
              <param name="Z" type="float"/>
            </accessor>
          </technique_common>
        </source>
        <source id="geom-Box006-map1">
          <float_array id="geom-Box006-map1-array" count="54">0 0 0 1 0 0 0 1 0 1 1 0 0 0 0 1 0 0 0 1 0 1 1 0 0 0 0 1 0 0 0 1 0 1 1 0 0 0.4858838 0 0.4858838 0 0 0.4858838 1 0 0 0.9781399 0 0.9781399 0 0 0.9781399 1 0</float_array>
          <technique_common>
            <accessor source="#geom-Box006-map1-array" count="18" stride="3">
              <param name="S" type="float"/>
              <param name="T" type="float"/>
              <param name="P" type="float"/>
            </accessor>
          </technique_common>
        </source>
        <vertices id="geom-Box006-vertices">
          <input semantic="POSITION" source="#geom-Box006-positions"/>
        </vertices>
        <triangles material="ColorMaterial" count="10">
          <input semantic="VERTEX" source="#geom-Box006-vertices" offset="0"/>
          <input semantic="NORMAL" source="#geom-Box006-normals" offset="1"/>
          <input semantic="TEXCOORD" source="#geom-Box006-map1" offset="2" set="0"/>
          <p>0 0 9 1 1 8 7 2 12 0 0 9 7 2 12 9 3 15 0 0 9 9 3 15 3 4 10 2 5 11 0 0 9 3 4 10 9 6 16 10 7 17 6 8 3 6 8 3 3 9 1 9 6 16 3 10 4 6 11 6 5 12 7 5 12 7 2 13 5 3 10 4 1 14 0 4 15 2 8 16 14 8 16 14 7 17 13 1 14 0</p>
        </triangles>
      </mesh>
    </geometry>
    <geometry id="geom-Box007" name="Box007">
      <mesh>
        <source id="geom-Box007-positions">
          <float_array id="geom-Box007-positions-array" count="18">0 -3 0 7.5 -3 0 0 3 0 7.5 3 0 0 3 6 7.5 3 6</float_array>
          <technique_common>
            <accessor source="#geom-Box007-positions-array" count="6" stride="3">
              <param name="X" type="float"/>
              <param name="Y" type="float"/>
              <param name="Z" type="float"/>
            </accessor>
          </technique_common>
        </source>
        <source id="geom-Box007-normals">
          <float_array id="geom-Box007-normals-array" count="24">0 0 0.9999999 0 0 1 0 0 0.9999999 0 0 1 0 -0.9999999 0 0 -1 0 0 -0.9999999 0 0 -1 0</float_array>
          <technique_common>
            <accessor source="#geom-Box007-normals-array" count="8" stride="3">
              <param name="X" type="float"/>
              <param name="Y" type="float"/>
              <param name="Z" type="float"/>
            </accessor>
          </technique_common>
        </source>
        <source id="geom-Box007-map1">
          <float_array id="geom-Box007-map1-array" count="24">0 0 0 0.5 0 0 0 1 0 0.5 1 0 0 0 0 0.5 0 0 0 1 0 0.5 1 0</float_array>
          <technique_common>
            <accessor source="#geom-Box007-map1-array" count="8" stride="3">
              <param name="S" type="float"/>
              <param name="T" type="float"/>
              <param name="P" type="float"/>
            </accessor>
          </technique_common>
        </source>
        <vertices id="geom-Box007-vertices">
          <input semantic="POSITION" source="#geom-Box007-positions"/>
        </vertices>
        <triangles material="ColorMaterial" count="4">
          <input semantic="VERTEX" source="#geom-Box007-vertices" offset="0"/>
          <input semantic="NORMAL" source="#geom-Box007-normals" offset="1"/>
          <input semantic="TEXCOORD" source="#geom-Box007-map1" offset="2" set="0"/>
          <p>0 0 5 1 1 4 3 2 6 3 2 6 2 3 7 0 0 5 3 4 0 5 5 2 4 6 3 4 6 3 2 7 1 3 4 0</p>
        </triangles>
      </mesh>
    </geometry>
    <geometry id="geom-Box008" name="Box008">
      <mesh>
        <source id="geom-Box008-positions">
          <float_array id="geom-Box008-positions-array" count="48">-3.75 -11 0 3.75 -11 0 -3.75 11 0 3.75 11 0 -3.75 -11 6 3.75 -11 6 -3.75 11 6 3.75 11 6 3.75 2.372274 6 -3.75 2.372272 6 3.75 9.655118 6 -3.75 9.655119 6 3.75 -5.105932 0 3.75 -5.105932 6 3.75 -10.87086 0 3.75 -10.87086 6</float_array>
          <technique_common>
            <accessor source="#geom-Box008-positions-array" count="16" stride="3">
              <param name="X" type="float"/>
              <param name="Y" type="float"/>
              <param name="Z" type="float"/>
            </accessor>
          </technique_common>
        </source>
        <source id="geom-Box008-normals">
          <float_array id="geom-Box008-normals-array" count="108">0 0 1 0 0 1 0 0 1 0 0 1 0 0 1 0 0 1 0 0 -1 0 0 -0.9999999 0 0 -1 0 0 -1 0 0 -1 0 0 -1 -1 0 0 -1 0 0 -0.9999999 0 0 -1 0 0 -1 0 0 -1 0 0 0 -0.9999999 0 0 -1 0 0 -0.9999999 0 0 -1 0 0.9999999 0 0 1 0 0 1 0 0 1 0 0 1 0 0 1 0 0 0 0 -0.9999999 0 0 -1 0 0 -0.9999999 0 0 -0.9999999 -0.9999999 0 0 -1 0 0 -0.9999999 0 0 -0.9999999 0 0</float_array>
          <technique_common>
            <accessor source="#geom-Box008-normals-array" count="36" stride="3">
              <param name="X" type="float"/>
              <param name="Y" type="float"/>
              <param name="Z" type="float"/>
            </accessor>
          </technique_common>
        </source>
        <source id="geom-Box008-map1">
          <float_array id="geom-Box008-map1-array" count="84">0 0 0 1 0 0 0 1 0 1 1 0 0 0 0 1 0 0 0 1 0 1 1 0 0 0 0 1 0 0 0 1 0 1 1 0 1 0.6078306 0 0.6078306 1 0 0 0.6078306 0 0.3921694 1 0 1 0.938869 0 0.938869 1 0 0 0.9388691 0 0.06113096 1 0 0 0.2679122 0 0.2679122 0 0 1 0.2679122 0 0.2679122 1 0 0 0.005870126 0 0.005870126 0 0 1 0.005870119 0 0.005870119 1 0</float_array>
          <technique_common>
            <accessor source="#geom-Box008-map1-array" count="28" stride="3">
              <param name="S" type="float"/>
              <param name="T" type="float"/>
              <param name="P" type="float"/>
            </accessor>
          </technique_common>
        </source>
        <vertices id="geom-Box008-vertices">
          <input semantic="POSITION" source="#geom-Box008-positions"/>
        </vertices>
        <triangles material="ColorMaterial" count="22">
          <input semantic="VERTEX" source="#geom-Box008-vertices" offset="0"/>
          <input semantic="NORMAL" source="#geom-Box008-normals" offset="1"/>
          <input semantic="TEXCOORD" source="#geom-Box008-map1" offset="2" set="0"/>
          <p>0 0 9 1 1 8 14 2 24 0 0 9 14 2 24 12 3 20 0 0 9 12 3 20 3 4 10 2 5 11 0 0 9 3 4 10 4 6 8 9 7 14 8 8 12 4 6 8 8 8 12 13 9 22 4 6 8 13 9 22 15 10 26 5 11 9 4 6 8 15 10 26 3 12 1 12 13 21 13 14 23 3 12 1 13 14 23 8 15 13 3 12 1 8 15 13 10 16 17 3 12 1 10 16 17 7 17 3 3 18 4 7 19 6 6 20 7 6 20 7 2 21 5 3 18 4 2 22 0 6 23 2 11 24 19 2 22 0 11 24 19 9 25 15 2 22 0 9 25 15 4 26 3 0 27 1 2 22 0 4 26 3 6 28 10 7 29 11 10 30 16 10 30 16 11 31 18 6 28 10 1 32 0 5 33 2 15 34 27 15 34 27 14 35 25 1 32 0</p>
        </triangles>
      </mesh>
    </geometry>
    <geometry id="geom-Box009" name="Box009">
      <mesh>
        <source id="geom-Box009-positions">
          <float_array id="geom-Box009-positions-array" count="42">-3.75 -7.4 0 3.75 -7.4 0 -3.75 7.5 0 3.75 7.5 0 -3.75 -7.4 6 3.75 -7.4 6 -3.75 7.5 6 3.75 7.5 6 -3.75 -0.02739859 0 3.75 -0.02739859 0 3.75 -7.447299 0 -3.75 -7.447299 0 -3.75 3.090031 0 3.75 3.090031 0</float_array>
          <technique_common>
            <accessor source="#geom-Box009-positions-array" count="14" stride="3">
              <param name="X" type="float"/>
              <param name="Y" type="float"/>
              <param name="Z" type="float"/>
            </accessor>
          </technique_common>
        </source>
        <source id="geom-Box009-normals">
          <float_array id="geom-Box009-normals-array" count="78">0 0.9999999 0 0 1 0 0 0.9999999 0 0 1 0 -1 0 0 1 0 0 -1 0 0 -0.9999999 0 0 -1 0 0 -1 0 0 -1 0 0 1 0 0 1 0 0 1 0 0 1 0 0 1 0 0 0.9999999 0 0 1 0 0 0 0 -1 0 0 -1 0 0 -1 0 0 -1 0 0 0.9999999 0 0 1 0 0 1 0 0 1</float_array>
          <technique_common>
            <accessor source="#geom-Box009-normals-array" count="26" stride="3">
              <param name="X" type="float"/>
              <param name="Y" type="float"/>
              <param name="Z" type="float"/>
            </accessor>
          </technique_common>
        </source>
        <source id="geom-Box009-map1">
          <float_array id="geom-Box009-map1-array" count="66">0 0 0 1 0 0 0 1 0 1 1 0 0 0 0 1 0 0 0 1 0 1 1 0 0 0 0 1 0 0 1 0.4981734 0 0.5018266 0 0 0 0.4981734 0 0.4981734 0 0 0 0.003513368 0 0.003513368 0 0 1 0.003513359 0 0.9964867 0 0 1 0.7060021 0 0.2939979 0 0 0 0.7060021 0 0.7060021 0 0</float_array>
          <technique_common>
            <accessor source="#geom-Box009-map1-array" count="22" stride="3">
              <param name="S" type="float"/>
              <param name="T" type="float"/>
              <param name="P" type="float"/>
            </accessor>
          </technique_common>
        </source>
        <vertices id="geom-Box009-vertices">
          <input semantic="POSITION" source="#geom-Box009-positions"/>
        </vertices>
        <triangles material="ColorMaterial" count="16">
          <input semantic="VERTEX" source="#geom-Box009-vertices" offset="0"/>
          <input semantic="NORMAL" source="#geom-Box009-normals" offset="1"/>
          <input semantic="TEXCOORD" source="#geom-Box009-map1" offset="2" set="0"/>
          <p>0 0 4 4 1 6 5 2 7 5 2 7 1 3 5 0 0 4 9 4 13 10 5 15 1 6 0 9 4 13 1 6 0 5 7 2 13 8 21 9 4 13 5 7 2 3 9 1 13 8 21 5 7 2 3 9 1 5 7 2 7 10 3 0 11 1 11 12 17 8 13 11 12 14 19 2 15 0 6 16 2 8 13 11 12 14 19 6 16 2 0 11 1 8 13 11 6 16 2 0 11 1 6 16 2 4 17 3 0 18 9 1 19 8 10 20 14 10 20 14 11 21 16 0 18 9 8 22 10 9 23 12 13 24 20 13 24 20 12 25 18 8 22 10</p>
        </triangles>
      </mesh>
    </geometry>
    <geometry id="geom-Box010" name="Box010">
      <mesh>
        <source id="geom-Box010-positions">
          <float_array id="geom-Box010-positions-array" count="24">-3.75 -9 0 3.75 -9 0 -3.75 9 0 3.75 9 0 -3.75 -9 6 3.75 -9 6 -3.75 9 6 3.75 9 6</float_array>
          <technique_common>
            <accessor source="#geom-Box010-positions-array" count="8" stride="3">
              <param name="X" type="float"/>
              <param name="Y" type="float"/>
              <param name="Z" type="float"/>
            </accessor>
          </technique_common>
        </source>
        <source id="geom-Box010-normals">
          <float_array id="geom-Box010-normals-array" count="48">0 0 1 0 0 1 0 0 1 0 0 1 0 0 -1 0 0 -1 0 0 -1 0 0 -1 -1 0 0 -1 0 0 -1 0 0 -1 0 0 1 0 0 1 0 0 1 0 0 1 0 0</float_array>
          <technique_common>
            <accessor source="#geom-Box010-normals-array" count="16" stride="3">
              <param name="X" type="float"/>
              <param name="Y" type="float"/>
              <param name="Z" type="float"/>
            </accessor>
          </technique_common>
        </source>
        <source id="geom-Box010-map1">
          <float_array id="geom-Box010-map1-array" count="24">0 0 0 1 0 0 0 1 0 1 1 0 0 0 0 1 0 0 0 1 0 1 1 0</float_array>
          <technique_common>
            <accessor source="#geom-Box010-map1-array" count="8" stride="3">
              <param name="S" type="float"/>
              <param name="T" type="float"/>
              <param name="P" type="float"/>
            </accessor>
          </technique_common>
        </source>
        <vertices id="geom-Box010-vertices">
          <input semantic="POSITION" source="#geom-Box010-positions"/>
        </vertices>
        <triangles material="ColorMaterial" count="8">
          <input semantic="VERTEX" source="#geom-Box010-vertices" offset="0"/>
          <input semantic="NORMAL" source="#geom-Box010-normals" offset="1"/>
          <input semantic="TEXCOORD" source="#geom-Box010-map1" offset="2" set="0"/>
          <p>0 0 5 1 1 4 3 2 6 3 2 6 2 3 7 0 0 5 4 4 4 6 5 6 7 6 7 7 6 7 5 7 5 4 4 4 1 8 0 5 9 2 7 10 3 7 10 3 3 11 1 1 8 0 2 12 0 6 13 2 4 14 3 4 14 3 0 15 1 2 12 0</p>
        </triangles>
      </mesh>
    </geometry>
    <geometry id="geom-Box011" name="Box011">
      <mesh>
        <source id="geom-Box011-positions">
          <float_array id="geom-Box011-positions-array" count="42">-3 -7 0 3 -7 0 -3 7 0 3 7 0 -3 -7 5.99 3 -7 5.99 -3 7 6 3 7 6 3 -1.356281 0 3 -1.356281 6 3 -0.7017277 6 -3 -0.7017281 5.994499 3 6.672411 6 -3 6.672411 5.999766</float_array>
          <technique_common>
            <accessor source="#geom-Box011-positions-array" count="14" stride="3">
              <param name="X" type="float"/>
              <param name="Y" type="float"/>
              <param name="Z" type="float"/>
            </accessor>
          </technique_common>
        </source>
        <source id="geom-Box011-normals">
          <float_array id="geom-Box011-normals-array" count="87">5.02432e-4 0.001197623 -0.9999992 9.16798e-4 7.14391e-4 -0.9999993 0.001280174 3.68224e-4 -0.9999991 0.001233799 4.60233e-4 -0.9999992 0 0.001771919 -0.9999984 0 1 0 0 1 0 0 1 0 0 1 0 -1 0 0 -1 0 0 -1 0 0 -1 0 0 -1 0 0 -1 0 0 0 -1 0 0 -1 0 0 -1 0 0 -1 0 1 0 0 1 0 0 1 0 0 1 0 0 1 0 0 1 0 0 3.76662e-5 6.8988e-4 -0.9999998 0 0 -1 1.35495e-6 2.48168e-5 -0.9999999 3.90212e-5 7.14697e-4 -0.9999998</float_array>
          <technique_common>
            <accessor source="#geom-Box011-normals-array" count="29" stride="3">
              <param name="X" type="float"/>
              <param name="Y" type="float"/>
              <param name="Z" type="float"/>
            </accessor>
          </technique_common>
        </source>
        <source id="geom-Box011-map1">
          <float_array id="geom-Box011-map1-array" count="69">0 0 0 1 0 0 0 1 0 1 1 0 0 0 0 1 0 0 0 1 0 1 1 0 0 0 0 1 0 0 0 1 0 1 1 0 0.4267415 0 0 1 0.4267415 0 0.4267415 1 0 1 0.4498766 0 0.4498766 1 0 0 0.4498766 0 0.5501235 1 0 1 0.9766008 0 0.9766008 1 0 0 0.9766008 0 0.02339921 1 0</float_array>
          <technique_common>
            <accessor source="#geom-Box011-map1-array" count="23" stride="3">
              <param name="S" type="float"/>
              <param name="T" type="float"/>
              <param name="P" type="float"/>
            </accessor>
          </technique_common>
        </source>
        <vertices id="geom-Box011-vertices">
          <input semantic="POSITION" source="#geom-Box011-positions"/>
        </vertices>
        <triangles material="ColorMaterial" count="17">
          <input semantic="VERTEX" source="#geom-Box011-vertices" offset="0"/>
          <input semantic="NORMAL" source="#geom-Box011-normals" offset="1"/>
          <input semantic="TEXCOORD" source="#geom-Box011-map1" offset="2" set="0"/>
          <p>4 0 8 11 1 17 10 2 15 4 0 8 10 2 15 9 3 13 5 4 9 4 0 8 9 3 13 0 5 4 4 6 6 5 7 7 5 7 7 1 8 5 0 5 4 8 9 12 9 10 14 10 11 16 8 9 12 10 11 16 12 12 20 8 9 12 12 12 20 7 13 3 3 14 1 8 9 12 7 13 3 3 15 4 7 16 6 6 17 7 6 17 7 2 18 5 3 15 4 2 19 0 6 20 2 13 21 22 2 19 0 13 21 22 11 22 18 2 19 0 11 22 18 4 23 3 0 24 1 2 19 0 4 23 3 6 25 10 7 26 11 12 27 19 12 27 19 13 28 21 6 25 10</p>
        </triangles>
      </mesh>
    </geometry>
    <geometry id="geom-Box012" name="Box012">
      <mesh>
        <source id="geom-Box012-positions">
          <float_array id="geom-Box012-positions-array" count="33">-3.75 -10 0 -3.75 10 0 3.75 10 0 -3.75 -10 6 3.75 -10 6 -3.75 10 6 3.75 10 6 -3.75 2.829162 0 -3.75 2.829162 6 -3.75 8.674307 0 -3.75 8.674307 6</float_array>
          <technique_common>
            <accessor source="#geom-Box012-positions-array" count="11" stride="3">
              <param name="X" type="float"/>
              <param name="Y" type="float"/>
              <param name="Z" type="float"/>
            </accessor>
          </technique_common>
        </source>
        <source id="geom-Box012-normals">
          <float_array id="geom-Box012-normals-array" count="54">0 0 -1 0 0 -1 0 0 -1 0 0 -1 0 0 -0.9999999 0 0 -1 0 -0.9999999 0 0 -1 0 0 -0.9999999 0 0 -1 0 1 0 0 1 0 0 1 0 0 1 0 0 1 0 0 1 0 0 1 0 0 1 0 0</float_array>
          <technique_common>
            <accessor source="#geom-Box012-normals-array" count="18" stride="3">
              <param name="X" type="float"/>
              <param name="Y" type="float"/>
              <param name="Z" type="float"/>
            </accessor>
          </technique_common>
        </source>
        <source id="geom-Box012-map1">
          <float_array id="geom-Box012-map1-array" count="54">0 0 0 1 0 0 0 1 0 1 1 0 0 0 0 1 0 0 0 1 0 1 1 0 0 0 0 1 0 0 0 1 0 1 1 0 0.3585419 0 0 0 0.6414581 0 0.3585419 1 0 0.06628465 0 0 0 0.9337153 0 0.06628465 1 0</float_array>
          <technique_common>
            <accessor source="#geom-Box012-map1-array" count="18" stride="3">
              <param name="S" type="float"/>
              <param name="T" type="float"/>
              <param name="P" type="float"/>
            </accessor>
          </technique_common>
        </source>
        <vertices id="geom-Box012-vertices">
          <input semantic="POSITION" source="#geom-Box012-positions"/>
        </vertices>
        <triangles material="ColorMaterial" count="10">
          <input semantic="VERTEX" source="#geom-Box012-vertices" offset="0"/>
          <input semantic="NORMAL" source="#geom-Box012-normals" offset="1"/>
          <input semantic="TEXCOORD" source="#geom-Box012-map1" offset="2" set="0"/>
          <p>10 0 16 5 1 10 6 2 11 8 3 13 10 0 16 6 2 11 3 4 8 8 3 13 6 2 11 4 5 9 3 4 8 6 2 11 2 6 4 6 7 6 5 8 7 5 8 7 1 9 5 2 6 4 7 10 12 8 11 14 3 12 3 3 12 3 0 13 1 7 10 12 1 14 0 5 15 2 10 16 17 10 16 17 9 17 15 1 14 0</p>
        </triangles>
      </mesh>
    </geometry>
    <geometry id="geom-Box013" name="Box013">
      <mesh>
        <source id="geom-Box013-positions">
          <float_array id="geom-Box013-positions-array" count="36">-3.75 -6.5 0 3.75 -6.5 0 -3.75 6.5 0 3.75 6.5 0 -3.75 -6.5 6 3.75 -6.5 6 -3.75 6.5 6 3.75 6.5 6 3.75 6.185204 0 3.75 6.185203 6 3.75 -1.184031 0 3.75 -1.184032 6</float_array>
          <technique_common>
            <accessor source="#geom-Box013-positions-array" count="12" stride="3">
              <param name="X" type="float"/>
              <param name="Y" type="float"/>
              <param name="Z" type="float"/>
            </accessor>
          </technique_common>
        </source>
        <source id="geom-Box013-normals">
          <float_array id="geom-Box013-normals-array" count="72">0 0 1 0 0 1 0 0 1 0 0 1 0 0 0.9999999 0 0 1 0 0 -1 0 0 -1 0 0 -1 0 0 -1 0 0 -1 0 0 -1 -1 2.52739e-8 -1.32602e-9 -1 7.57371e-7 -3.97363e-8 -1 7.32098e-7 -3.84103e-8 -1 0 0 0 -0.9999999 0 0 -1 0 0 -0.9999999 0 0 -1 0 -1 0 0 -1 0 0 -1 0 0 -1 0 0</float_array>
          <technique_common>
            <accessor source="#geom-Box013-normals-array" count="24" stride="3">
              <param name="X" type="float"/>
              <param name="Y" type="float"/>
              <param name="Z" type="float"/>
            </accessor>
          </technique_common>
        </source>
        <source id="geom-Box013-map1">
          <float_array id="geom-Box013-map1-array" count="60">0 0 0 1 0 0 0 1 0 1 1 0 0 0 0 1 0 0 0 1 0 1 1 0 0 0 0 1 0 0 0 1 0 1 1 0 0 0.9757849 0 0.9757849 0 0 1 0.9757848 0 0.9757848 1 0 0 0.4089207 0 0.4089207 0 0 1 0.4089206 0 0.4089206 1 0</float_array>
          <technique_common>
            <accessor source="#geom-Box013-map1-array" count="20" stride="3">
              <param name="S" type="float"/>
              <param name="T" type="float"/>
              <param name="P" type="float"/>
            </accessor>
          </technique_common>
        </source>
        <vertices id="geom-Box013-vertices">
          <input semantic="POSITION" source="#geom-Box013-positions"/>
        </vertices>
        <triangles material="ColorMaterial" count="14">
          <input semantic="VERTEX" source="#geom-Box013-vertices" offset="0"/>
          <input semantic="NORMAL" source="#geom-Box013-normals" offset="1"/>
          <input semantic="TEXCOORD" source="#geom-Box013-map1" offset="2" set="0"/>
          <p>0 0 9 1 1 8 10 2 16 0 0 9 10 2 16 8 3 12 0 0 9 8 3 12 3 4 10 2 5 11 0 0 9 3 4 10 4 6 8 6 7 10 7 8 11 4 6 8 7 8 11 9 9 14 4 6 8 9 9 14 11 10 18 5 11 9 4 6 8 11 10 18 8 12 13 9 13 15 7 14 3 7 14 3 3 15 1 8 12 13 3 16 4 7 17 6 6 18 7 6 18 7 2 19 5 3 16 4 1 20 0 5 21 2 11 22 19 11 22 19 10 23 17 1 20 0</p>
        </triangles>
      </mesh>
    </geometry>
    <geometry id="geom-Box014" name="Box014">
      <mesh>
        <source id="geom-Box014-positions">
          <float_array id="geom-Box014-positions-array" count="30">-3.75 -7.5 0 3.75 -7.5 0 -3.75 7.5 0 3.75 7.5 0 -3.75 -7.5 6 3.75 -7.5 6 -3.75 7.5 6 3.75 7.5 6 3.75 -0.00246954 0 3.75 -0.00246954 6</float_array>
          <technique_common>
            <accessor source="#geom-Box014-positions-array" count="10" stride="3">
              <param name="X" type="float"/>
              <param name="Y" type="float"/>
              <param name="Z" type="float"/>
            </accessor>
          </technique_common>
        </source>
        <source id="geom-Box014-normals">
          <float_array id="geom-Box014-normals-array" count="66">0 0 0.9999999 0 0 1 0 0 1 0 0 1 0 0 1 0 0 -0.9999999 0 0 -1 0 0 -1 0 0 -1 0 0 -1 0 0.9999999 0 0 1 0 0 0.9999999 0 0 1 0 -1 0 0 -1 0 0 -1 0 0 -1 0 0 0.9999999 0 0 1 0 0 0.9999999 0 0 1 0 0</float_array>
          <technique_common>
            <accessor source="#geom-Box014-normals-array" count="22" stride="3">
              <param name="X" type="float"/>
              <param name="Y" type="float"/>
              <param name="Z" type="float"/>
            </accessor>
          </technique_common>
        </source>
        <source id="geom-Box014-map1">
          <float_array id="geom-Box014-map1-array" count="48">0 0 0 1 0 0 0 1 0 1 1 0 0 0 0 1 0 0 0 1 0 1 1 0 0 0 0 1 0 0 0 1 0 1 1 0 0 0.4998354 0 0.4998354 0 0 1 0.4998354 0 0.4998354 1 0</float_array>
          <technique_common>
            <accessor source="#geom-Box014-map1-array" count="16" stride="3">
              <param name="S" type="float"/>
              <param name="T" type="float"/>
              <param name="P" type="float"/>
            </accessor>
          </technique_common>
        </source>
        <vertices id="geom-Box014-vertices">
          <input semantic="POSITION" source="#geom-Box014-positions"/>
        </vertices>
        <triangles material="ColorMaterial" count="12">
          <input semantic="VERTEX" source="#geom-Box014-vertices" offset="0"/>
          <input semantic="NORMAL" source="#geom-Box014-normals" offset="1"/>
          <input semantic="TEXCOORD" source="#geom-Box014-map1" offset="2" set="0"/>
          <p>0 0 9 1 1 8 8 2 12 0 0 9 8 2 12 3 3 10 2 4 11 0 0 9 3 3 10 4 5 8 6 6 10 7 7 11 4 5 8 7 7 11 9 8 14 5 9 9 4 5 8 9 8 14 0 10 4 4 11 6 5 12 7 5 12 7 1 13 5 0 10 4 8 14 13 9 15 15 7 16 3 7 16 3 3 17 1 8 14 13 2 18 0 6 19 2 4 20 3 4 20 3 0 21 1 2 18 0</p>
        </triangles>
      </mesh>
    </geometry>
    <geometry id="geom-Box015" name="Box015">
      <mesh>
        <source id="geom-Box015-positions">
          <float_array id="geom-Box015-positions-array" count="54">-3.75 -9 0 3.75 -9 0 -3.75 9 0 3.75 9 0 -3.75 -9 6 3.75 -9 6 -3.75 9 6 3.75 9 6 3.75 3.237473 0 3.75 3.237473 6 3.75 -8.919558 0 3.75 -8.919558 6 3.75 -3.063757 6 3.75 -3.063757 0 -3.75 2.953871 0 3.75 2.953871 0 3.75 -2.956145 0 -3.75 -2.956144 0</float_array>
          <technique_common>
            <accessor source="#geom-Box015-positions-array" count="18" stride="3">
              <param name="X" type="float"/>
              <param name="Y" type="float"/>
              <param name="Z" type="float"/>
            </accessor>
          </technique_common>
        </source>
        <source id="geom-Box015-normals">
          <float_array id="geom-Box015-normals-array" count="102">0 0 0.9999999 0 0 1 0 0 1 0 0 1 0 0 1 0 0 -0.9999999 0 0 -1 0 0 -1 0 0 -1 0 0 -1 0 0 -1 0 0 -1 1 0 0 1 0 0 1 0 0 1 0 0 1 0 0 1 0 0 -1 1.09274e-6 -1.10786e-6 -1 3.78368e-8 -3.007e-15 -1 1.11085e-8 8.64793e-9 -1 1.66296e-6 -1.71662e-6 -1 -2.07772e-8 4.07185e-8 -0.9999999 0 3.97364e-8 -1 0 0 -1 0 0 -1 0 0 -1 0 0 0 0 1 0 0 1 0 0 1 0 0 1 0 0 1 0 0 1</float_array>
          <technique_common>
            <accessor source="#geom-Box015-normals-array" count="34" stride="3">
              <param name="X" type="float"/>
              <param name="Y" type="float"/>
              <param name="Z" type="float"/>
            </accessor>
          </technique_common>
        </source>
        <source id="geom-Box015-map1">
          <float_array id="geom-Box015-map1-array" count="84">0 0 0 1 0 0 0 1 0 1 1 0 0 0 0 1 0 0 0 1 0 1 1 0 0 0.6798596 0 0.6798596 0 0 1 0.6798596 0 0.6798596 1 0 0 0.004469024 0 0.004469024 0 0 1 0.004469016 0 0.004469016 1 0 1 0.3297913 0 0.3297913 1 0 0 0.3297913 0 0.3297913 0 0 1 0.6641039 0 0.3358961 0 0 0 0.6641039 0 0.6641039 0 0 0 0.3357698 0 0.3357698 0 0 1 0.3357697 0 0.6642302 0 0</float_array>
          <technique_common>
            <accessor source="#geom-Box015-map1-array" count="28" stride="3">
              <param name="S" type="float"/>
              <param name="T" type="float"/>
              <param name="P" type="float"/>
            </accessor>
          </technique_common>
        </source>
        <vertices id="geom-Box015-vertices">
          <input semantic="POSITION" source="#geom-Box015-positions"/>
        </vertices>
        <triangles material="ColorMaterial" count="22">
          <input semantic="VERTEX" source="#geom-Box015-vertices" offset="0"/>
          <input semantic="NORMAL" source="#geom-Box015-normals" offset="1"/>
          <input semantic="TEXCOORD" source="#geom-Box015-map1" offset="2" set="0"/>
          <p>2 0 7 14 1 20 15 2 22 2 0 7 15 2 22 8 3 8 2 0 7 8 3 8 3 4 6 4 5 4 6 6 6 7 7 7 4 5 4 7 7 7 9 8 10 4 5 4 9 8 10 12 9 16 4 5 4 12 9 16 11 10 14 5 11 5 4 5 4 11 10 14 2 12 0 6 13 2 4 14 3 14 15 21 2 12 0 4 14 3 17 16 27 14 15 21 4 14 3 0 17 1 17 16 27 4 14 3 13 18 19 12 19 17 9 20 11 16 21 25 13 18 19 9 20 11 15 22 23 16 21 25 9 20 11 8 23 9 15 22 23 9 20 11 1 24 0 5 25 2 11 26 15 11 26 15 10 27 13 1 24 0 17 28 26 0 29 5 1 30 4 17 28 26 1 30 4 10 31 12 17 28 26 10 31 12 13 32 18 17 28 26 13 32 18 16 33 24</p>
        </triangles>
      </mesh>
    </geometry>
    <geometry id="geom-Box016" name="Box016">
      <mesh>
        <source id="geom-Box016-positions">
          <float_array id="geom-Box016-positions-array" count="51">-3.75 -10 0 3.75 -10 0 -3.75 10 0 3.75 10 0 -3.75 -10 6 -3.75 10 6 3.75 10 6 -3.75 2.849693 0 -3.75 2.849693 6 -3.75 8.69088 0 -3.75 8.69088 6 3.75 -2.841507 6 -3.75 -2.841507 6 3.75 4.866012 6 -3.75 4.866013 6 -3.75 -4.006511 6 3.75 -4.006511 6</float_array>
          <technique_common>
            <accessor source="#geom-Box016-positions-array" count="17" stride="3">
              <param name="X" type="float"/>
              <param name="Y" type="float"/>
              <param name="Z" type="float"/>
            </accessor>
          </technique_common>
        </source>
        <source id="geom-Box016-normals">
          <float_array id="geom-Box016-normals-array" count="87">0 0 0.9999999 0 0 1 0 0 1 0 0 1 0 0 1 0 0 1 0 -0.9999999 0 0 -1 0 0 -0.9999999 0 0 -1 0 0.9999999 0 0 1 0 0 1 0 0 1 0 0 0.9999999 0 0 1 0 0 1 0 0 1 0 0 1 0 0 1 0 0 0 0 -1 0 0 -1 0 0 -1 0 0 -1 0 0 -1 0 0 -0.9999999 0 0 -1 0 0 -0.9999999 0 0 -1</float_array>
          <technique_common>
            <accessor source="#geom-Box016-normals-array" count="29" stride="3">
              <param name="X" type="float"/>
              <param name="Y" type="float"/>
              <param name="Z" type="float"/>
            </accessor>
          </technique_common>
        </source>
        <source id="geom-Box016-map1">
          <float_array id="geom-Box016-map1-array" count="81">0 0 0 1 0 0 0 1 0 1 1 0 0 0 0 1 0 0 0 1 0 1 1 0 0 0 0 1 0 0 0 1 0 1 1 0 1 0.6424847 0 0.3575154 0 0 0.3575153 1 0 1 0.934544 0 0.06545601 0 0 0 0.934544 0 0.065456 1 0 1 0.3579246 0 0 0.3579246 0 0.6420754 1 0 1 0.7433006 0 0 0.7433006 0 0 0.2996745 0 0.7003255 1 0 1 0.2996745 0</float_array>
          <technique_common>
            <accessor source="#geom-Box016-map1-array" count="27" stride="3">
              <param name="S" type="float"/>
              <param name="T" type="float"/>
              <param name="P" type="float"/>
            </accessor>
          </technique_common>
        </source>
        <vertices id="geom-Box016-vertices">
          <input semantic="POSITION" source="#geom-Box016-positions"/>
        </vertices>
        <triangles material="ColorMaterial" count="17">
          <input semantic="VERTEX" source="#geom-Box016-vertices" offset="0"/>
          <input semantic="NORMAL" source="#geom-Box016-normals" offset="1"/>
          <input semantic="TEXCOORD" source="#geom-Box016-map1" offset="2" set="0"/>
          <p>0 0 9 1 1 8 3 2 10 7 3 12 0 0 9 3 2 10 9 4 15 7 3 12 3 2 10 2 5 11 9 4 15 3 2 10 3 6 4 6 7 6 5 8 7 5 8 7 2 9 5 3 6 4 7 10 13 8 11 14 12 12 21 7 10 13 12 12 21 15 13 25 7 10 13 15 13 25 4 14 3 0 15 1 7 10 13 4 14 3 2 16 0 5 17 2 10 18 18 10 18 18 9 19 16 2 16 0 10 20 17 5 21 10 6 22 11 14 23 23 10 20 17 6 22 11 14 23 23 6 22 11 13 24 22 12 25 20 11 26 19 16 27 26 16 27 26 15 28 24 12 25 20</p>
        </triangles>
      </mesh>
    </geometry>
    <geometry id="geom-Box017" name="Box017">
      <mesh>
        <source id="geom-Box017-positions">
          <float_array id="geom-Box017-positions-array" count="45">-3.735416 -10 0 3.75 -10 0 -3.735416 10 0 3.75 10 0 -3.735416 -10 6 -3.735416 10 6 3.75 10 6 -3.735416 3.114657 0 -3.735416 3.114657 6 -3.735416 4.94474 0 3.75 4.94474 0 3.75 -2.970227 0 -3.735416 -2.970227 0 -3.735416 -3.208156 6 -3.735416 -3.208155 0</float_array>
          <technique_common>
            <accessor source="#geom-Box017-positions-array" count="15" stride="3">
              <param name="X" type="float"/>
              <param name="Y" type="float"/>
              <param name="Z" type="float"/>
            </accessor>
          </technique_common>
        </source>
        <source id="geom-Box017-normals">
          <float_array id="geom-Box017-normals-array" count="66">0 0 0.9999999 0 0 1 0 0 0.9999999 0 0 1 0 -0.9999999 0 0 -1 0 0 -0.9999999 0 0 -1 0 1 -3.23404e-8 4.28643e-8 1 0 7.94728e-8 1 -3.78669e-8 3.66085e-8 1 -7.02073e-8 0 0.9999999 0 0 1 0 0 1 0 0 1 0 0 1 0 0 0 0 1 0 0 1 0 0 1 0 0 1 0 0 0.9999999</float_array>
          <technique_common>
            <accessor source="#geom-Box017-normals-array" count="22" stride="3">
              <param name="X" type="float"/>
              <param name="Y" type="float"/>
              <param name="Z" type="float"/>
            </accessor>
          </technique_common>
        </source>
        <source id="geom-Box017-map1">
          <float_array id="geom-Box017-map1-array" count="66">0 0 0 1 0 0 0 1 0 1 1 0 0 0 0 1 0 0 0 1 0 1 1 0 0 0 0 1 0 0 0 1 0 1 1 0 0.3442672 0 0 0.3442672 1 0 1 0.747237 0 0.252763 0 0 0 0.747237 0 0 0.3514886 0 1 0.3514886 0 0.6604078 1 0 1 0.3395922 0 0.6604078 0 0</float_array>
          <technique_common>
            <accessor source="#geom-Box017-map1-array" count="22" stride="3">
              <param name="S" type="float"/>
              <param name="T" type="float"/>
              <param name="P" type="float"/>
            </accessor>
          </technique_common>
        </source>
        <vertices id="geom-Box017-vertices">
          <input semantic="POSITION" source="#geom-Box017-positions"/>
        </vertices>
        <triangles material="ColorMaterial" count="12">
          <input semantic="VERTEX" source="#geom-Box017-vertices" offset="0"/>
          <input semantic="NORMAL" source="#geom-Box017-normals" offset="1"/>
          <input semantic="TEXCOORD" source="#geom-Box017-map1" offset="2" set="0"/>
          <p>9 0 14 10 1 16 3 2 10 3 2 10 2 3 11 9 0 14 3 4 4 6 5 6 5 6 7 5 6 7 2 7 5 3 4 4 14 8 21 13 9 19 4 10 3 4 10 3 0 11 1 14 8 21 2 12 0 5 13 2 8 14 13 9 15 15 2 12 0 8 14 13 7 16 12 9 15 15 8 14 13 0 17 9 1 18 8 11 19 17 14 20 20 0 17 9 11 19 17 12 21 18 14 20 20 11 19 17</p>
        </triangles>
      </mesh>
    </geometry>
    <geometry id="geom-Box018" name="Box018">
      <mesh>
        <source id="geom-Box018-positions">
          <float_array id="geom-Box018-positions-array" count="24">-3.721991 -4 0 3.75 -4 0 -3.721991 4 0 3.75 4 0 -3.721991 -4 6 3.75 -4 6 -3.721991 4 6 3.75 4 6</float_array>
          <technique_common>
            <accessor source="#geom-Box018-positions-array" count="8" stride="3">
              <param name="X" type="float"/>
              <param name="Y" type="float"/>
              <param name="Z" type="float"/>
            </accessor>
          </technique_common>
        </source>
        <source id="geom-Box018-normals">
          <float_array id="geom-Box018-normals-array" count="36">0 0.9999999 0 0 1 0 0 0.9999999 0 0 1 0 0 -0.9999999 0 0 -1 0 0 -0.9999999 0 0 -1 0 1 0 0 1 0 0 1 0 0 1 0 0</float_array>
          <technique_common>
            <accessor source="#geom-Box018-normals-array" count="12" stride="3">
              <param name="X" type="float"/>
              <param name="Y" type="float"/>
              <param name="Z" type="float"/>
            </accessor>
          </technique_common>
        </source>
        <source id="geom-Box018-map1">
          <float_array id="geom-Box018-map1-array" count="24">0 0 0 1 0 0 0 1 0 1 1 0 0 0 0 1 0 0 0 1 0 1 1 0</float_array>
          <technique_common>
            <accessor source="#geom-Box018-map1-array" count="8" stride="3">
              <param name="S" type="float"/>
              <param name="T" type="float"/>
              <param name="P" type="float"/>
            </accessor>
          </technique_common>
        </source>
        <vertices id="geom-Box018-vertices">
          <input semantic="POSITION" source="#geom-Box018-positions"/>
        </vertices>
        <triangles material="ColorMaterial" count="6">
          <input semantic="VERTEX" source="#geom-Box018-vertices" offset="0"/>
          <input semantic="NORMAL" source="#geom-Box018-normals" offset="1"/>
          <input semantic="TEXCOORD" source="#geom-Box018-map1" offset="2" set="0"/>
          <p>0 0 4 4 1 6 5 2 7 5 2 7 1 3 5 0 0 4 3 4 4 7 5 6 6 6 7 6 6 7 2 7 5 3 4 4 2 8 0 6 9 2 4 10 3 4 10 3 0 11 1 2 8 0</p>
        </triangles>
      </mesh>
    </geometry>
  </library_geometries>
  <library_lights>
    <light id="EnvironmentAmbientLight" name="EnvironmentAmbientLight">
      <technique_common>
        <ambient>
          <color>0 0 0</color>
        </ambient>
      </technique_common>
    </light>
  </library_lights>
  <library_visual_scenes>
    <visual_scene id="MaxScene">
      <node name="EnvironmentAmbientLight">
        <instance_light url="#EnvironmentAmbientLight"/>
      </node>
      <node id="node-Box001" name="Box001">
        <matrix>1 0 0 0 0 1 0 0 0 0 1 0 0 0 0 1</matrix>
        <instance_geometry url="#geom-Box001">
          <bind_material>
            <technique_common>
              <instance_material symbol="ColorMaterial" target="#ColorEffectR228G153B184-material"/>
            </technique_common>
          </bind_material>
        </instance_geometry>
      </node>
      <node id="node-_Portal001" name="_Portal001">
        <matrix>1 0 0 0 0 1 0 -15 0 0 1 10 0 0 0 1</matrix>
        <instance_geometry url="#geom-_Portal001">
          <bind_material>
            <technique_common>
              <instance_material symbol="ColorMaterial" target="#ColorEffectR228G184B153-material"/>
            </technique_common>
          </bind_material>
        </instance_geometry>
      </node>
      <node id="node-_Portal002" name="_Portal002">
        <matrix>1 0 0 0 0 -4.37114e-8 -1 2.5 0 1 -4.37114e-8 -0.09999999 0 0 0 1</matrix>
        <instance_geometry url="#geom-_Portal002">
          <bind_material>
            <technique_common>
              <instance_material symbol="ColorMaterial" target="#ColorEffectR228G184B153-material"/>
            </technique_common>
          </bind_material>
        </instance_geometry>
      </node>
      <node id="node-_Portal003" name="_Portal003">
        <matrix>1 0 0 0 0 -4.37114e-8 -1 2.5 0 1 -4.37114e-8 29.85 0 0 0 1</matrix>
        <instance_geometry url="#geom-_Portal003">
          <bind_material>
            <technique_common>
              <instance_material symbol="ColorMaterial" target="#ColorEffectR228G184B153-material"/>
            </technique_common>
          </bind_material>
        </instance_geometry>
      </node>
      <node id="node-Box002" name="Box002">
        <matrix>1 0 0 0 0 1 0 -10.05 0 0 1 0 0 0 0 1</matrix>
        <instance_geometry url="#geom-Box002">
          <bind_material>
            <technique_common>
              <instance_material symbol="ColorMaterial" target="#ColorEffectR28G89B177-material"/>
            </technique_common>
          </bind_material>
        </instance_geometry>
      </node>
      <node id="node-Box003" name="Box003">
        <matrix>1 0 0 0 0 1 0 0 0 0 1 0 0 0 0 1</matrix>
        <instance_geometry url="#geom-Box003">
          <bind_material>
            <technique_common>
              <instance_material symbol="ColorMaterial" target="#ColorEffectR153G228B184-material"/>
            </technique_common>
          </bind_material>
        </instance_geometry>
      </node>
      <node id="node-Particle_View_001" name="Particle_View_001">
        <matrix>1 0 0 0 0 1 0 0 0 0 1 0 0 0 0 1</matrix>
      </node>
      <node id="node-Box004" name="Box004">
        <matrix>1 0 0 0 0 1 0 0 0 0 1 24 0 0 0 1</matrix>
        <instance_geometry url="#geom-Box004">
          <bind_material>
            <technique_common>
              <instance_material symbol="ColorMaterial" target="#ColorEffectR153G228B184-material"/>
            </technique_common>
          </bind_material>
        </instance_geometry>
      </node>
      <node id="node-Box005" name="Box005">
        <matrix>1 0 0 -7.5 0 1 0 -7 0 0 1 24 0 0 0 1</matrix>
        <instance_geometry url="#geom-Box005">
          <bind_material>
            <technique_common>
              <instance_material symbol="ColorMaterial" target="#ColorEffectR154G154B229-material"/>
            </technique_common>
          </bind_material>
        </instance_geometry>
      </node>
      <node id="node-Box006" name="Box006">
        <matrix>1 0 0 -11.25 0 1 0 3.5 0 0 1 24 0 0 0 1</matrix>
        <instance_geometry url="#geom-Box006">
          <bind_material>
            <technique_common>
              <instance_material symbol="ColorMaterial" target="#ColorEffectR153G228B214-material"/>
            </technique_common>
          </bind_material>
        </instance_geometry>
      </node>
      <node id="node-Box007" name="Box007">
        <matrix>1 0 0 7.5 0 1 0 -7 0 0 1 18 0 0 0 1</matrix>
        <instance_geometry url="#geom-Box007">
          <bind_material>
            <technique_common>
              <instance_material symbol="ColorMaterial" target="#ColorEffectR154G154B229-material"/>
            </technique_common>
          </bind_material>
        </instance_geometry>
      </node>
      <node id="node-Box008" name="Box008">
        <matrix>1 0 0 3.75 0 1 0 1 0 0 1 18 0 0 0 1</matrix>
        <instance_geometry url="#geom-Box008">
          <bind_material>
            <technique_common>
              <instance_material symbol="ColorMaterial" target="#ColorEffectR153G228B214-material"/>
            </technique_common>
          </bind_material>
        </instance_geometry>
      </node>
      <node id="node-Box009" name="Box009">
        <matrix>-4.37114e-8 -1 0 0 1 -4.37114e-8 0 7 0 0 1 24 0 0 0 1</matrix>
        <instance_geometry url="#geom-Box009">
          <bind_material>
            <technique_common>
              <instance_material symbol="ColorMaterial" target="#ColorEffectR153G228B214-material"/>
            </technique_common>
          </bind_material>
        </instance_geometry>
      </node>
      <node id="node-Box010" name="Box010">
        <matrix>-4.37114e-8 4.37114e-8 -1 -3 1 1.91069e-15 -4.37114e-8 7 0 -1 -4.37114e-8 15 0 0 0 1</matrix>
        <instance_geometry url="#geom-Box010">
          <bind_material>
            <technique_common>
              <instance_material symbol="ColorMaterial" target="#ColorEffectR153G228B214-material"/>
            </technique_common>
          </bind_material>
        </instance_geometry>
      </node>
      <node id="node-Box011" name="Box011">
        <matrix>1 0 0 -6 0 1 0 4 0 0 1 0 0 0 0 1</matrix>
        <instance_geometry url="#geom-Box011">
          <bind_material>
            <technique_common>
              <instance_material symbol="ColorMaterial" target="#ColorEffectR153G228B214-material"/>
            </technique_common>
          </bind_material>
        </instance_geometry>
      </node>
      <node id="node-Box012" name="Box012">
        <matrix>1 0 0 11.25 0 1 0 0 0 0 1 0 0 0 0 1</matrix>
        <instance_geometry url="#geom-Box012">
          <bind_material>
            <technique_common>
              <instance_material symbol="ColorMaterial" target="#ColorEffectR153G228B214-material"/>
            </technique_common>
          </bind_material>
        </instance_geometry>
      </node>
      <node id="node-Box013" name="Box013">
        <matrix>1 0 0 -11.25 0 1 0 -3.5 0 0 1 6 0 0 0 1</matrix>
        <instance_geometry url="#geom-Box013">
          <bind_material>
            <technique_common>
              <instance_material symbol="ColorMaterial" target="#ColorEffectR153G228B214-material"/>
            </technique_common>
          </bind_material>
        </instance_geometry>
      </node>
      <node id="node-Box014" name="Box014">
        <matrix>-4.37114e-8 -1 0 0 1 -4.37114e-8 0 -1 0 0 1 6 0 0 0 1</matrix>
        <instance_geometry url="#geom-Box014">
          <bind_material>
            <technique_common>
              <instance_material symbol="ColorMaterial" target="#ColorEffectR153G228B214-material"/>
            </technique_common>
          </bind_material>
        </instance_geometry>
      </node>
      <node id="node-Box015" name="Box015">
        <matrix>1 0 0 3.75 0 -4.37114e-8 1 2.75 0 -1 -4.37114e-8 9 0 0 0 1</matrix>
        <instance_geometry url="#geom-Box015">
          <bind_material>
            <technique_common>
              <instance_material symbol="ColorMaterial" target="#ColorEffectR153G228B214-material"/>
            </technique_common>
          </bind_material>
        </instance_geometry>
      </node>
      <node id="node-Box016" name="Box016">
        <matrix>1 0 0 11.25 0 1 0 0 0 0 1 12 0 0 0 1</matrix>
        <instance_geometry url="#geom-Box016">
          <bind_material>
            <technique_common>
              <instance_material symbol="ColorMaterial" target="#ColorEffectR153G228B214-material"/>
            </technique_common>
          </bind_material>
        </instance_geometry>
      </node>
      <node id="node-Box017" name="Box017">
        <matrix>1 0 0 11.25 0 1 0 0 0 0 1 24 0 0 0 1</matrix>
        <instance_geometry url="#geom-Box017">
          <bind_material>
            <technique_common>
              <instance_material symbol="ColorMaterial" target="#ColorEffectR153G228B214-material"/>
            </technique_common>
          </bind_material>
        </instance_geometry>
      </node>
      <node id="node-Box018" name="Box018">
        <matrix>1 0 0 11.25 0 1 0 1 0 0 1 18 0 0 0 1</matrix>
        <instance_geometry url="#geom-Box018">
          <bind_material>
            <technique_common>
              <instance_material symbol="ColorMaterial" target="#ColorEffectR87G224B87-material"/>
            </technique_common>
          </bind_material>
        </instance_geometry>
      </node>
    </visual_scene>
  </library_visual_scenes>
  <scene>
    <instance_visual_scene url="#MaxScene"/>
  </scene>
</COLLADA>