<?xml version="1.0" encoding="utf-8"?>
<COLLADA xmlns="http://www.collada.org/2005/11/COLLADASchema" version="1.4.1">
  <asset>
    <contributor>
      <author>Will</author>
      <authoring_tool>OpenCOLLADA for 3ds Max;  Version: 1.3.0;  Revision: 788M;  Platform: Win32;  Configuration: Release_Max2011_static</authoring_tool>
      <source_data>file:///C:/Users/Will/Documents/3dsMax/scenes/Levels/MovingPlatRoom.max</source_data>
    </contributor>
    <created>2011-05-20T14:43:31</created>
    <modified>2011-05-20T14:43:31</modified>
    <unit name="inch" meter="0.0254"/>
    <up_axis>Z_UP</up_axis>
  </asset>
  <library_effects>
    <effect id="_1_-_Default">
      <profile_COMMON>
        <technique sid="common">
          <blinn>
            <emission>
              <color>0 0 0 1</color>
            </emission>
            <ambient>
              <color>0.1686275 0.03137255 0.6156863 1</color>
            </ambient>
            <diffuse>
              <color>0.1686275 0.03137255 0.6156863 1</color>
            </diffuse>
            <specular>
              <color>0.9 0.9 0.9 1</color>
            </specular>
            <shininess>
              <float>9.999999</float>
            </shininess>
            <reflective>
              <color>0 0 0 1</color>
            </reflective>
            <transparent opaque="A_ONE">
              <color>1 1 1 1</color>
            </transparent>
            <transparency>
              <float>0.5</float>
            </transparency>
          </blinn>
        </technique>
      </profile_COMMON>
      <extra>
        <technique profile="OpenCOLLADA3dsMax">
          <extended_shader>
            <apply_reflection_dimming>0</apply_reflection_dimming>
            <dim_level>0</dim_level>
            <falloff_type>0</falloff_type>
            <index_of_refraction>1.5</index_of_refraction>
            <opacity_type>0</opacity_type>
            <reflection_level>3</reflection_level>
            <wire_size>1</wire_size>
            <wire_units>0</wire_units>
          </extended_shader>
          <shader>
            <ambient_diffuse_lock>1</ambient_diffuse_lock>
            <ambient_diffuse_texture_lock>1</ambient_diffuse_texture_lock>
            <diffuse_specular_lock>0</diffuse_specular_lock>
            <soften>0.1</soften>
            <use_self_illum_color>0</use_self_illum_color>
          </shader>
        </technique>
      </extra>
    </effect>
    <effect id="ColorEffectR247G92B13">
      <profile_COMMON>
        <technique sid="common">
          <phong>
            <ambient>
              <color>0.9686275 0.3607843 0.05098039 1</color>
            </ambient>
            <diffuse>
              <color>0.9686275 0.3607843 0.05098039 1</color>
            </diffuse>
            <specular>
              <color>1 1 1 1</color>
            </specular>
            <shininess>
              <float>10</float>
            </shininess>
            <reflective>
              <color>0 0 0 1</color>
            </reflective>
            <transparent>
              <color>1 1 1 1</color>
            </transparent>
            <transparency>
              <float>1</float>
            </transparency>
          </phong>
        </technique>
      </profile_COMMON>
      <extra>
        <technique profile="OpenCOLLADA3dsMax">
          <extended_shader>
            <apply_reflection_dimming>0</apply_reflection_dimming>
            <dim_level>0</dim_level>
            <falloff_type>0</falloff_type>
            <index_of_refraction>1.5</index_of_refraction>
            <opacity_type>0</opacity_type>
            <reflection_level>3</reflection_level>
            <wire_size>1</wire_size>
            <wire_units>0</wire_units>
          </extended_shader>
          <shader>
            <ambient_diffuse_lock>1</ambient_diffuse_lock>
            <ambient_diffuse_texture_lock>1</ambient_diffuse_texture_lock>
            <diffuse_specular_lock>0</diffuse_specular_lock>
            <soften>0.1</soften>
            <use_self_illum_color>0</use_self_illum_color>
          </shader>
        </technique>
      </extra>
    </effect>
  </library_effects>
  <library_materials>
    <material id="ColorEffectR247G92B13-material" name="ColorEffectR247G92B13-material">
      <instance_effect url="#ColorEffectR247G92B13"/>
    </material>
    <material id="_1_-_Default-material" name="_1_-_Default">
      <instance_effect url="#_1_-_Default"/>
    </material>
  </library_materials>
  <library_geometries>
    <geometry id="geom-Box001" name="Box001">
      <mesh>
        <source id="geom-Box001-positions">
          <float_array id="geom-Box001-positions-array" count="24">-5 -15 0 5 -15 0 -5 15 0 5 15 0 -5 -15 20 5 -15 20 -5 15 20 5 15 20</float_array>
          <technique_common>
            <accessor source="#geom-Box001-positions-array" count="8" stride="3">
              <param name="X" type="float"/>
              <param name="Y" type="float"/>
              <param name="Z" type="float"/>
            </accessor>
          </technique_common>
        </source>
        <source id="geom-Box001-normals">
          <float_array id="geom-Box001-normals-array" count="72">0 0 1 0 0 1 0 0 1 0 0 1 0 0 -1 0 0 -1 0 0 -1 0 0 -1 0 1 0 0 1 0 0 1 0 0 1 0 -1 0 0 -1 0 0 -1 0 0 -1 0 0 0 -1 0 0 -1 0 0 -1 0 0 -1 0 1 0 0 1 0 0 1 0 0 1 0 0</float_array>
          <technique_common>
            <accessor source="#geom-Box001-normals-array" count="24" stride="3">
              <param name="X" type="float"/>
              <param name="Y" type="float"/>
              <param name="Z" type="float"/>
            </accessor>
          </technique_common>
        </source>
        <source id="geom-Box001-map1">
          <float_array id="geom-Box001-map1-array" count="36">0 0 0 1 0 0 0 1 0 1 1 0 0 0 0 1 0 0 0 1 0 1 1 0 0 0 0 1 0 0 0 1 0 1 1 0</float_array>
          <technique_common>
            <accessor source="#geom-Box001-map1-array" count="12" stride="3">
              <param name="S" type="float"/>
              <param name="T" type="float"/>
              <param name="P" type="float"/>
            </accessor>
          </technique_common>
        </source>
        <vertices id="geom-Box001-vertices">
          <input semantic="POSITION" source="#geom-Box001-positions"/>
        </vertices>
        <triangles material="_1_-_Default" count="12">
          <input semantic="VERTEX" source="#geom-Box001-vertices" offset="0"/>
          <input semantic="NORMAL" source="#geom-Box001-normals" offset="1"/>
          <input semantic="TEXCOORD" source="#geom-Box001-map1" offset="2" set="0"/>
          <p>2 0 11 0 1 9 3 2 10 1 3 8 3 2 10 0 1 9 5 4 9 4 5 8 7 6 11 6 7 10 7 6 11 4 5 8 1 8 5 0 9 4 5 10 7 4 11 6 5 10 7 0 9 4 3 12 1 1 13 0 7 14 3 5 15 2 7 14 3 1 13 0 2 16 5 3 17 4 6 18 7 7 19 6 6 18 7 3 17 4 0 20 1 2 21 0 4 22 3 6 23 2 4 22 3 2 21 0</p>
        </triangles>
      </mesh>
    </geometry>
    <geometry id="geom-Platform001" name="Platform001">
      <mesh>
        <source id="geom-Platform001-positions">
          <float_array id="geom-Platform001-positions-array" count="24">-3 -3 0 3 -3 0 -3 3 0 3 3 0 -3 -3 1 3 -3 1 -3 3 1 3 3 1</float_array>
          <technique_common>
            <accessor source="#geom-Platform001-positions-array" count="8" stride="3">
              <param name="X" type="float"/>
              <param name="Y" type="float"/>
              <param name="Z" type="float"/>
            </accessor>
          </technique_common>
        </source>
        <source id="geom-Platform001-normals">
          <float_array id="geom-Platform001-normals-array" count="72">0 0 -1 0 0 -1 0 0 -1 0 0 -1 0 0 1 0 0 1 0 0 1 0 0 1 0 -1 0 0 -1 0 0 -1 0 0 -1 0 1 0 0 1 0 0 1 0 0 1 0 0 0 1 0 0 1 0 0 1 0 0 1 0 -1 0 0 -1 0 0 -1 0 0 -1 0 0</float_array>
          <technique_common>
            <accessor source="#geom-Platform001-normals-array" count="24" stride="3">
              <param name="X" type="float"/>
              <param name="Y" type="float"/>
              <param name="Z" type="float"/>
            </accessor>
          </technique_common>
        </source>
        <source id="geom-Platform001-map1">
          <float_array id="geom-Platform001-map1-array" count="36">0 0 0 1 0 0 0 1 0 1 1 0 0 0 0 1 0 0 0 1 0 1 1 0 0 0 0 1 0 0 0 1 0 1 1 0</float_array>
          <technique_common>
            <accessor source="#geom-Platform001-map1-array" count="12" stride="3">
              <param name="S" type="float"/>
              <param name="T" type="float"/>
              <param name="P" type="float"/>
            </accessor>
          </technique_common>
        </source>
        <vertices id="geom-Platform001-vertices">
          <input semantic="POSITION" source="#geom-Platform001-positions"/>
        </vertices>
        <triangles material="ColorMaterial" count="12">
          <input semantic="VERTEX" source="#geom-Platform001-vertices" offset="0"/>
          <input semantic="NORMAL" source="#geom-Platform001-normals" offset="1"/>
          <input semantic="TEXCOORD" source="#geom-Platform001-map1" offset="2" set="0"/>
          <p>0 0 9 2 1 11 3 2 10 3 2 10 1 3 8 0 0 9 4 4 8 5 5 9 7 6 11 7 6 11 6 7 10 4 4 8 0 8 4 1 9 5 5 10 7 5 10 7 4 11 6 0 8 4 1 12 0 3 13 1 7 14 3 7 14 3 5 15 2 1 12 0 3 16 4 2 17 5 6 18 7 6 18 7 7 19 6 3 16 4 2 20 0 0 21 1 4 22 3 4 22 3 6 23 2 2 20 0</p>
        </triangles>
      </mesh>
      <extra>
        <technique profile="OpenCOLLADA3dsMax">
          <max_box>
            <generateuvs>1</generateuvs>
            <height>1</height>
            <heightsegments>1</heightsegments>
            <length>6</length>
            <lengthsegments>1</lengthsegments>
            <width>6</width>
            <widthsegments>1</widthsegments>
          </max_box>
        </technique>
      </extra>
    </geometry>
    <geometry id="geom-Platform002" name="Platform002">
      <mesh>
        <source id="geom-Platform002-positions">
          <float_array id="geom-Platform002-positions-array" count="24">-3 -3 0 3 -3 0 -3 3 0 3 3 0 -3 -3 1 3 -3 1 -3 3 1 3 3 1</float_array>
          <technique_common>
            <accessor source="#geom-Platform002-positions-array" count="8" stride="3">
              <param name="X" type="float"/>
              <param name="Y" type="float"/>
              <param name="Z" type="float"/>
            </accessor>
          </technique_common>
        </source>
        <source id="geom-Platform002-normals">
          <float_array id="geom-Platform002-normals-array" count="72">0 0 -1 0 0 -1 0 0 -1 0 0 -1 0 0 1 0 0 1 0 0 1 0 0 1 0 -1 0 0 -1 0 0 -1 0 0 -1 0 1 0 0 1 0 0 1 0 0 1 0 0 0 1 0 0 1 0 0 1 0 0 1 0 -1 0 0 -1 0 0 -1 0 0 -1 0 0</float_array>
          <technique_common>
            <accessor source="#geom-Platform002-normals-array" count="24" stride="3">
              <param name="X" type="float"/>
              <param name="Y" type="float"/>
              <param name="Z" type="float"/>
            </accessor>
          </technique_common>
        </source>
        <source id="geom-Platform002-map1">
          <float_array id="geom-Platform002-map1-array" count="36">0 0 0 1 0 0 0 1 0 1 1 0 0 0 0 1 0 0 0 1 0 1 1 0 0 0 0 1 0 0 0 1 0 1 1 0</float_array>
          <technique_common>
            <accessor source="#geom-Platform002-map1-array" count="12" stride="3">
              <param name="S" type="float"/>
              <param name="T" type="float"/>
              <param name="P" type="float"/>
            </accessor>
          </technique_common>
        </source>
        <vertices id="geom-Platform002-vertices">
          <input semantic="POSITION" source="#geom-Platform002-positions"/>
        </vertices>
        <triangles material="ColorMaterial" count="12">
          <input semantic="VERTEX" source="#geom-Platform002-vertices" offset="0"/>
          <input semantic="NORMAL" source="#geom-Platform002-normals" offset="1"/>
          <input semantic="TEXCOORD" source="#geom-Platform002-map1" offset="2" set="0"/>
          <p>0 0 9 2 1 11 3 2 10 3 2 10 1 3 8 0 0 9 4 4 8 5 5 9 7 6 11 7 6 11 6 7 10 4 4 8 0 8 4 1 9 5 5 10 7 5 10 7 4 11 6 0 8 4 1 12 0 3 13 1 7 14 3 7 14 3 5 15 2 1 12 0 3 16 4 2 17 5 6 18 7 6 18 7 7 19 6 3 16 4 2 20 0 0 21 1 4 22 3 4 22 3 6 23 2 2 20 0</p>
        </triangles>
      </mesh>
      <extra>
        <technique profile="OpenCOLLADA3dsMax">
          <max_box>
            <generateuvs>1</generateuvs>
            <height>1</height>
            <heightsegments>1</heightsegments>
            <length>6</length>
            <lengthsegments>1</lengthsegments>
            <width>6</width>
            <widthsegments>1</widthsegments>
          </max_box>
        </technique>
      </extra>
    </geometry>
  </library_geometries>
  <library_lights>
    <light id="EnvironmentAmbientLight" name="EnvironmentAmbientLight">
      <technique_common>
        <ambient>
          <color>0 0 0</color>
        </ambient>
      </technique_common>
    </light>
  </library_lights>
  <library_visual_scenes>
    <visual_scene id="MaxScene">
      <node name="EnvironmentAmbientLight">
        <instance_light url="#EnvironmentAmbientLight"/>
      </node>
      <node id="node-Box001" name="Box001">
        <matrix>1 0 0 0 0 1 0 0 0 0 1 0 0 0 0 1</matrix>
        <instance_geometry url="#geom-Box001">
          <bind_material>
            <technique_common>
              <instance_material symbol="_1_-_Default" target="#_1_-_Default-material"/>
            </technique_common>
          </bind_material>
        </instance_geometry>
      </node>
      <node id="node-Platform001" name="Platform001">
        <matrix sid="matrix">1 0 0 0 0 1 0 -10.5 0 0 1 10 0 0 0 1</matrix>
        <instance_geometry url="#geom-Platform001">
          <bind_material>
            <technique_common>
              <instance_material symbol="ColorMaterial" target="#ColorEffectR247G92B13-material"/>
            </technique_common>
          </bind_material>
        </instance_geometry>
      </node>
      <node id="node-Platform002" name="Platform002">
        <matrix sid="matrix">1 0 0 0 0 1 0 10.5 0 0 1 10 0 0 0 1</matrix>
        <instance_geometry url="#geom-Platform002">
          <bind_material>
            <technique_common>
              <instance_material symbol="ColorMaterial" target="#ColorEffectR247G92B13-material"/>
            </technique_common>
          </bind_material>
        </instance_geometry>
      </node>
    </visual_scene>
  </library_visual_scenes>
  <library_animations>
    <animation>
      <source id="node-Platform001_matrix-input">
        <float_array id="node-Platform001_matrix-input-array" count="81">0 0.03333333 0.06666667 0.1 0.1333333 0.1666667 0.2 0.2333333 0.2666667 0.3 0.3333333 0.3666667 0.4 0.4333333 0.4666667 0.5 0.5333333 0.5666667 0.6 0.6333333 0.6666667 0.7 0.7333333 0.7666667 0.8 0.8333333 0.8666667 0.9 0.9333333 0.9666667 1 1.033333 1.066667 1.1 1.133333 1.166667 1.2 1.233333 1.266667 1.3 1.333333 1.366667 1.4 1.433333 1.466667 1.5 1.533333 1.566667 1.6 1.633333 1.666667 1.7 1.733333 1.766667 1.8 1.833333 1.866667 1.9 1.933333 1.966667 2 2.033333 2.066667 2.1 2.133333 2.166667 2.2 2.233333 2.266667 2.3 2.333333 2.366667 2.4 2.433333 2.466667 2.5 2.533333 2.566667 2.6 2.633333 2.666667</float_array>
        <technique_common>
          <accessor source="#node-Platform001_matrix-input-array" count="81" stride="1">
            <param name="TIME" type="float"/>
          </accessor>
        </technique_common>
      </source>
      <source id="node-Platform001_matrix-output">
        <float_array id="node-Platform001_matrix-output-array" count="1296">1 0 0 0 0 1 0 -10.5 0 0 1 10 0 0 0 1 1 0 0 0 0 1 0 -10.396 0 0 1 10 0 0 0 1 1 0 0 0 0 1 0 -10.148 0 0 1 10 0 0 0 1 1 0 0 0 0 1 0 -9.852001 0 0 1 10 0 0 0 1 1 0 0 0 0 1 0 -9.604001 0 0 1 10 0 0 0 1 1 0 0 0 0 1 0 -9.5 0 0 1 10 0 0 0 1 1 0 0 0 0 1 0 -9.5 0 0 1 10 0 0 0 1 1 0 0 0 0 1 0 -9.5 0 0 1 10 0 0 0 1 1 0 0 0 0 1 0 -9.5 0 0 1 10 0 0 0 1 1 0 0 0 0 1 0 -9.5 0 0 1 10 0 0 0 1 1 0 0 0 0 1 0 -9.5 0 0 1 10 0 0 0 1 1 0 0 0 0 1 0 -9.428001 0 0 1 10 0 0 0 1 1 0 0 0 0 1 0 -9.244001 0 0 1 10 0 0 0 1 1 0 0 0 0 1 0 -8.996001 0 0 1 10 0 0 0 1 1 0 0 0 0 1 0 -8.732001 0 0 1 10 0 0 0 1 1 0 0 0 0 1 0 -8.5 0 0 1 10 0 0 0 1 1 0 0 0 0 1 0 -8.300001 0 0 1 10 0 0 0 1 1 0 0 0 0 1 0 -8.100001 0 0 1 10 0 0 0 1 1 0 0 0 0 1 0 -7.9 0 0 1 10 0 0 0 1 1 0 0 0 0 1 0 -7.7 0 0 1 10 0 0 0 1 1 0 0 0 0 1 0 -7.5 0 0 1 10 0 0 0 1 1 0 0 0 0 1 0 -7.3 0 0 1 10 0 0 0 1 1 0 0 0 0 1 0 -7.1 0 0 1 10 0 0 0 1 1 0 0 0 0 1 0 -6.9 0 0 1 10 0 0 0 1 1 0 0 0 0 1 0 -6.7 0 0 1 10 0 0 0 1 1 0 0 0 0 1 0 -6.5 0 0 1 10 0 0 0 1 1 0 0 0 0 1 0 -6.3 0 0 1 10 0 0 0 1 1 0 0 0 0 1 0 -6.1 0 0 1 10 0 0 0 1 1 0 0 0 0 1 0 -5.9 0 0 1 10 0 0 0 1 1 0 0 0 0 1 0 -5.7 0 0 1 10 0 0 0 1 1 0 0 0 0 1 0 -5.5 0 0 1 10 0 0 0 1 1 0 0 0 0 1 0 -5.3 0 0 1 10 0 0 0 1 1 0 0 0 0 1 0 -5.1 0 0 1 10 0 0 0 1 1 0 0 0 0 1 0 -4.9 0 0 1 10 0 0 0 1 1 0 0 0 0 1 0 -4.7 0 0 1 10 0 0 0 1 1 0 0 0 0 1 0 -4.5 0 0 1 10 0 0 0 1 1 0 0 0 0 1 0 -4.268 0 0 1 10 0 0 0 1 1 0 0 0 0 1 0 -4.004 0 0 1 10 0 0 0 1 1 0 0 0 0 1 0 -3.756 0 0 1 10 0 0 0 1 1 0 0 0 0 1 0 -3.572 0 0 1 10 0 0 0 1 1 0 0 0 0 1 0 -3.5 0 0 1 10 0 0 0 1 1 0 0 0 0 1 0 -3.572 0 0 1 10 0 0 0 1 1 0 0 0 0 1 0 -3.756 0 0 1 10 0 0 0 1 1 0 0 0 0 1 0 -4.004 0 0 1 10 0 0 0 1 1 0 0 0 0 1 0 -4.268 0 0 1 10 0 0 0 1 1 0 0 0 0 1 0 -4.5 0 0 1 10 0 0 0 1 1 0 0 0 0 1 0 -4.7 0 0 1 10 0 0 0 1 1 0 0 0 0 1 0 -4.9 0 0 1 10 0 0 0 1 1 0 0 0 0 1 0 -5.1 0 0 1 10 0 0 0 1 1 0 0 0 0 1 0 -5.3 0 0 1 10 0 0 0 1 1 0 0 0 0 1 0 -5.5 0 0 1 10 0 0 0 1 1 0 0 0 0 1 0 -5.7 0 0 1 10 0 0 0 1 1 0 0 0 0 1 0 -5.9 0 0 1 10 0 0 0 1 1 0 0 0 0 1 0 -6.1 0 0 1 10 0 0 0 1 1 0 0 0 0 1 0 -6.3 0 0 1 10 0 0 0 1 1 0 0 0 0 1 0 -6.5 0 0 1 10 0 0 0 1 1 0 0 0 0 1 0 -6.668 0 0 1 10 0 0 0 1 1 0 0 0 0 1 0 -6.804 0 0 1 10 0 0 0 1 1 0 0 0 0 1 0 -6.956 0 0 1 10 0 0 0 1 1 0 0 0 0 1 0 -7.172 0 0 1 10 0 0 0 1 1 0 0 0 0 1 0 -7.5 0 0 1 10 0 0 0 1 1 0 0 0 0 1 0 -8.004 0 0 1 10 0 0 0 1 1 0 0 0 0 1 0 -8.652 0 0 1 10 0 0 0 1 1 0 0 0 0 1 0 -9.348 0 0 1 10 0 0 0 1 1 0 0 0 0 1 0 -9.996001 0 0 1 10 0 0 0 1 1 0 0 0 0 1 0 -10.5 0 0 1 10 0 0 0 1 1 0 0 0 0 1 0 -10.86 0 0 1 10 0 0 0 1 1 0 0 0 0 1 0 -11.14 0 0 1 10 0 0 0 1 1 0 0 0 0 1 0 -11.34 0 0 1 10 0 0 0 1 1 0 0 0 0 1 0 -11.46 0 0 1 10 0 0 0 1 1 0 0 0 0 1 0 -11.5 0 0 1 10 0 0 0 1 1 0 0 0 0 1 0 -11.5 0 0 1 10 0 0 0 1 1 0 0 0 0 1 0 -11.5 0 0 1 10 0 0 0 1 1 0 0 0 0 1 0 -11.5 0 0 1 10 0 0 0 1 1 0 0 0 0 1 0 -11.5 0 0 1 10 0 0 0 1 1 0 0 0 0 1 0 -11.5 0 0 1 10 0 0 0 1 1 0 0 0 0 1 0 -11.5 0 0 1 10 0 0 0 1 1 0 0 0 0 1 0 -11.5 0 0 1 10 0 0 0 1 1 0 0 0 0 1 0 -11.5 0 0 1 10 0 0 0 1 1 0 0 0 0 1 0 -11.5 0 0 1 10 0 0 0 1 1 0 0 0 0 1 0 -11.5 0 0 1 10 0 0 0 1</float_array>
        <technique_common>
          <accessor source="#node-Platform001_matrix-output-array" count="81" stride="16">
            <param name="TRANSFORM" type="float4x4"/>
          </accessor>
        </technique_common>
      </source>
      <source id="node-Platform001_matrix-interpolation">
        <Name_array id="node-Platform001_matrix-interpolation-array" count="81">LINEAR LINEAR LINEAR LINEAR LINEAR LINEAR LINEAR LINEAR LINEAR LINEAR LINEAR LINEAR LINEAR LINEAR LINEAR LINEAR LINEAR LINEAR LINEAR LINEAR LINEAR LINEAR LINEAR LINEAR LINEAR LINEAR LINEAR LINEAR LINEAR LINEAR LINEAR LINEAR LINEAR LINEAR LINEAR LINEAR LINEAR LINEAR LINEAR LINEAR LINEAR LINEAR LINEAR LINEAR LINEAR LINEAR LINEAR LINEAR LINEAR LINEAR LINEAR LINEAR LINEAR LINEAR LINEAR LINEAR LINEAR LINEAR LINEAR LINEAR LINEAR LINEAR LINEAR LINEAR LINEAR LINEAR LINEAR LINEAR LINEAR LINEAR LINEAR LINEAR LINEAR LINEAR LINEAR LINEAR LINEAR LINEAR LINEAR LINEAR LINEAR</Name_array>
        <technique_common>
          <accessor source="#node-Platform001_matrix-interpolation-array" count="81" stride="1">
            <param name="INTERPOLATION" type="name"/>
          </accessor>
        </technique_common>
      </source>
      <source id="node-Platform002_matrix-input">
        <float_array id="node-Platform002_matrix-input-array" count="81">0 0.03333333 0.06666667 0.1 0.1333333 0.1666667 0.2 0.2333333 0.2666667 0.3 0.3333333 0.3666667 0.4 0.4333333 0.4666667 0.5 0.5333333 0.5666667 0.6 0.6333333 0.6666667 0.7 0.7333333 0.7666667 0.8 0.8333333 0.8666667 0.9 0.9333333 0.9666667 1 1.033333 1.066667 1.1 1.133333 1.166667 1.2 1.233333 1.266667 1.3 1.333333 1.366667 1.4 1.433333 1.466667 1.5 1.533333 1.566667 1.6 1.633333 1.666667 1.7 1.733333 1.766667 1.8 1.833333 1.866667 1.9 1.933333 1.966667 2 2.033333 2.066667 2.1 2.133333 2.166667 2.2 2.233333 2.266667 2.3 2.333333 2.366667 2.4 2.433333 2.466667 2.5 2.533333 2.566667 2.6 2.633333 2.666667</float_array>
        <technique_common>
          <accessor source="#node-Platform002_matrix-input-array" count="81" stride="1">
            <param name="TIME" type="float"/>
          </accessor>
        </technique_common>
      </source>
      <source id="node-Platform002_matrix-output">
        <float_array id="node-Platform002_matrix-output-array" count="1296">1 0 0 0 0 1 0 10.5 0 0 1 10 0 0 0 1 1 0 0 0 0 1 0 10.396 0 0 1 10 0 0 0 1 1 0 0 0 0 1 0 10.148 0 0 1 10 0 0 0 1 1 0 0 0 0 1 0 9.852001 0 0 1 10 0 0 0 1 1 0 0 0 0 1 0 9.604001 0 0 1 10 0 0 0 1 1 0 0 0 0 1 0 9.5 0 0 1 10 0 0 0 1 1 0 0 0 0 1 0 9.5 0 0 1 10 0 0 0 1 1 0 0 0 0 1 0 9.5 0 0 1 10 0 0 0 1 1 0 0 0 0 1 0 9.5 0 0 1 10 0 0 0 1 1 0 0 0 0 1 0 9.5 0 0 1 10 0 0 0 1 1 0 0 0 0 1 0 9.5 0 0 1 10 0 0 0 1 1 0 0 0 0 1 0 9.428001 0 0 1 10 0 0 0 1 1 0 0 0 0 1 0 9.244001 0 0 1 10 0 0 0 1 1 0 0 0 0 1 0 8.996001 0 0 1 10 0 0 0 1 1 0 0 0 0 1 0 8.732001 0 0 1 10 0 0 0 1 1 0 0 0 0 1 0 8.5 0 0 1 10 0 0 0 1 1 0 0 0 0 1 0 8.300001 0 0 1 10 0 0 0 1 1 0 0 0 0 1 0 8.100001 0 0 1 10 0 0 0 1 1 0 0 0 0 1 0 7.9 0 0 1 10 0 0 0 1 1 0 0 0 0 1 0 7.7 0 0 1 10 0 0 0 1 1 0 0 0 0 1 0 7.5 0 0 1 10 0 0 0 1 1 0 0 0 0 1 0 7.3 0 0 1 10 0 0 0 1 1 0 0 0 0 1 0 7.1 0 0 1 10 0 0 0 1 1 0 0 0 0 1 0 6.9 0 0 1 10 0 0 0 1 1 0 0 0 0 1 0 6.7 0 0 1 10 0 0 0 1 1 0 0 0 0 1 0 6.5 0 0 1 10 0 0 0 1 1 0 0 0 0 1 0 6.3 0 0 1 10 0 0 0 1 1 0 0 0 0 1 0 6.1 0 0 1 10 0 0 0 1 1 0 0 0 0 1 0 5.9 0 0 1 10 0 0 0 1 1 0 0 0 0 1 0 5.7 0 0 1 10 0 0 0 1 1 0 0 0 0 1 0 5.5 0 0 1 10 0 0 0 1 1 0 0 0 0 1 0 5.3 0 0 1 10 0 0 0 1 1 0 0 0 0 1 0 5.1 0 0 1 10 0 0 0 1 1 0 0 0 0 1 0 4.9 0 0 1 10 0 0 0 1 1 0 0 0 0 1 0 4.7 0 0 1 10 0 0 0 1 1 0 0 0 0 1 0 4.5 0 0 1 10 0 0 0 1 1 0 0 0 0 1 0 4.268 0 0 1 10 0 0 0 1 1 0 0 0 0 1 0 4.004 0 0 1 10 0 0 0 1 1 0 0 0 0 1 0 3.756 0 0 1 10 0 0 0 1 1 0 0 0 0 1 0 3.572 0 0 1 10 0 0 0 1 1 0 0 0 0 1 0 3.5 0 0 1 10 0 0 0 1 1 0 0 0 0 1 0 3.572 0 0 1 10 0 0 0 1 1 0 0 0 0 1 0 3.756 0 0 1 10 0 0 0 1 1 0 0 0 0 1 0 4.004 0 0 1 10 0 0 0 1 1 0 0 0 0 1 0 4.268 0 0 1 10 0 0 0 1 1 0 0 0 0 1 0 4.5 0 0 1 10 0 0 0 1 1 0 0 0 0 1 0 4.7 0 0 1 10 0 0 0 1 1 0 0 0 0 1 0 4.9 0 0 1 10 0 0 0 1 1 0 0 0 0 1 0 5.1 0 0 1 10 0 0 0 1 1 0 0 0 0 1 0 5.3 0 0 1 10 0 0 0 1 1 0 0 0 0 1 0 5.5 0 0 1 10 0 0 0 1 1 0 0 0 0 1 0 5.7 0 0 1 10 0 0 0 1 1 0 0 0 0 1 0 5.9 0 0 1 10 0 0 0 1 1 0 0 0 0 1 0 6.1 0 0 1 10 0 0 0 1 1 0 0 0 0 1 0 6.3 0 0 1 10 0 0 0 1 1 0 0 0 0 1 0 6.5 0 0 1 10 0 0 0 1 1 0 0 0 0 1 0 6.668 0 0 1 10 0 0 0 1 1 0 0 0 0 1 0 6.804 0 0 1 10 0 0 0 1 1 0 0 0 0 1 0 6.956 0 0 1 10 0 0 0 1 1 0 0 0 0 1 0 7.172 0 0 1 10 0 0 0 1 1 0 0 0 0 1 0 7.5 0 0 1 10 0 0 0 1 1 0 0 0 0 1 0 8.004 0 0 1 10 0 0 0 1 1 0 0 0 0 1 0 8.652 0 0 1 10 0 0 0 1 1 0 0 0 0 1 0 9.348 0 0 1 10 0 0 0 1 1 0 0 0 0 1 0 9.996001 0 0 1 10 0 0 0 1 1 0 0 0 0 1 0 10.5 0 0 1 10 0 0 0 1 1 0 0 0 0 1 0 10.86 0 0 1 10 0 0 0 1 1 0 0 0 0 1 0 11.14 0 0 1 10 0 0 0 1 1 0 0 0 0 1 0 11.34 0 0 1 10 0 0 0 1 1 0 0 0 0 1 0 11.46 0 0 1 10 0 0 0 1 1 0 0 0 0 1 0 11.5 0 0 1 10 0 0 0 1 1 0 0 0 0 1 0 11.5 0 0 1 10 0 0 0 1 1 0 0 0 0 1 0 11.5 0 0 1 10 0 0 0 1 1 0 0 0 0 1 0 11.5 0 0 1 10 0 0 0 1 1 0 0 0 0 1 0 11.5 0 0 1 10 0 0 0 1 1 0 0 0 0 1 0 11.5 0 0 1 10 0 0 0 1 1 0 0 0 0 1 0 11.5 0 0 1 10 0 0 0 1 1 0 0 0 0 1 0 11.5 0 0 1 10 0 0 0 1 1 0 0 0 0 1 0 11.5 0 0 1 10 0 0 0 1 1 0 0 0 0 1 0 11.5 0 0 1 10 0 0 0 1 1 0 0 0 0 1 0 11.5 0 0 1 10 0 0 0 1</float_array>
        <technique_common>
          <accessor source="#node-Platform002_matrix-output-array" count="81" stride="16">
            <param name="TRANSFORM" type="float4x4"/>
          </accessor>
        </technique_common>
      </source>
      <source id="node-Platform002_matrix-interpolation">
        <Name_array id="node-Platform002_matrix-interpolation-array" count="81">LINEAR LINEAR LINEAR LINEAR LINEAR LINEAR LINEAR LINEAR LINEAR LINEAR LINEAR LINEAR LINEAR LINEAR LINEAR LINEAR LINEAR LINEAR LINEAR LINEAR LINEAR LINEAR LINEAR LINEAR LINEAR LINEAR LINEAR LINEAR LINEAR LINEAR LINEAR LINEAR LINEAR LINEAR LINEAR LINEAR LINEAR LINEAR LINEAR LINEAR LINEAR LINEAR LINEAR LINEAR LINEAR LINEAR LINEAR LINEAR LINEAR LINEAR LINEAR LINEAR LINEAR LINEAR LINEAR LINEAR LINEAR LINEAR LINEAR LINEAR LINEAR LINEAR LINEAR LINEAR LINEAR LINEAR LINEAR LINEAR LINEAR LINEAR LINEAR LINEAR LINEAR LINEAR LINEAR LINEAR LINEAR LINEAR LINEAR LINEAR LINEAR</Name_array>
        <technique_common>
          <accessor source="#node-Platform002_matrix-interpolation-array" count="81" stride="1">
            <param name="INTERPOLATION" type="name"/>
          </accessor>
        </technique_common>
      </source>
      <sampler id="node-Platform001_matrix-sampler">
        <input semantic="INPUT" source="#node-Platform001_matrix-input"/>
        <input semantic="OUTPUT" source="#node-Platform001_matrix-output"/>
        <input semantic="INTERPOLATION" source="#node-Platform001_matrix-interpolation"/>
      </sampler>
      <sampler id="node-Platform002_matrix-sampler">
        <input semantic="INPUT" source="#node-Platform002_matrix-input"/>
        <input semantic="OUTPUT" source="#node-Platform002_matrix-output"/>
        <input semantic="INTERPOLATION" source="#node-Platform002_matrix-interpolation"/>
      </sampler>
      <channel source="#node-Platform001_matrix-sampler" target="node-Platform001/matrix"/>
      <channel source="#node-Platform002_matrix-sampler" target="node-Platform002/matrix"/>
    </animation>
  </library_animations>
  <scene>
    <instance_visual_scene url="#MaxScene"/>
  </scene>
</COLLADA>